<?xml version='1.0' encoding='UTF-8' ?>
<svg xmlns='http://www.w3.org/2000/svg' xmlns:xlink='http://www.w3.org/1999/xlink' viewBox='0 0 288.00 144.00'>
<defs>
  <style type='text/css'><![CDATA[
    line, polyline, path, rect, circle {
      fill: none;
      stroke: #000000;
      stroke-linecap: round;
      stroke-linejoin: round;
      stroke-miterlimit: 10.00;
    }
  ]]></style>
</defs>
<rect width='100%' height='100%' style='stroke: none; fill: #FFFFFF;'/>
<rect x='-0.00' y='-0.00' width='288.00' height='144.00' style='stroke-width: 1.07; stroke: #FFFFFF; fill: #FFFFFF;' />
<defs>
  <clipPath id='cpMTMyLjMzMnwyODIuNTIxfDExMy45MzZ8MjQuMDI5'>
    <rect x='132.33' y='24.03' width='150.19' height='89.91' />
  </clipPath>
</defs>
<rect x='132.33' y='24.03' width='150.19' height='89.91' style='stroke-width: 1.07; stroke: none; fill: #FFFFFF;' clip-path='url(#cpMTMyLjMzMnwyODIuNTIxfDExMy45MzZ8MjQuMDI5)' />
<polyline points='155.84,113.94 155.84,24.03 ' style='stroke-width: 0.53; stroke: #EBEBEB; stroke-linecap: butt;' clip-path='url(#cpMTMyLjMzMnwyODIuNTIxfDExMy45MzZ8MjQuMDI5)' />
<polyline points='196.33,113.94 196.33,24.03 ' style='stroke-width: 0.53; stroke: #EBEBEB; stroke-linecap: butt;' clip-path='url(#cpMTMyLjMzMnwyODIuNTIxfDExMy45MzZ8MjQuMDI5)' />
<polyline points='236.82,113.94 236.82,24.03 ' style='stroke-width: 0.53; stroke: #EBEBEB; stroke-linecap: butt;' clip-path='url(#cpMTMyLjMzMnwyODIuNTIxfDExMy45MzZ8MjQuMDI5)' />
<polyline points='277.31,113.94 277.31,24.03 ' style='stroke-width: 0.53; stroke: #EBEBEB; stroke-linecap: butt;' clip-path='url(#cpMTMyLjMzMnwyODIuNTIxfDExMy45MzZ8MjQuMDI5)' />
<polyline points='132.33,105.24 282.52,105.24 ' style='stroke-width: 1.07; stroke: #EBEBEB; stroke-linecap: butt;' clip-path='url(#cpMTMyLjMzMnwyODIuNTIxfDExMy45MzZ8MjQuMDI5)' />
<polyline points='132.33,90.73 282.52,90.73 ' style='stroke-width: 1.07; stroke: #EBEBEB; stroke-linecap: butt;' clip-path='url(#cpMTMyLjMzMnwyODIuNTIxfDExMy45MzZ8MjQuMDI5)' />
<polyline points='132.33,76.23 282.52,76.23 ' style='stroke-width: 1.07; stroke: #EBEBEB; stroke-linecap: butt;' clip-path='url(#cpMTMyLjMzMnwyODIuNTIxfDExMy45MzZ8MjQuMDI5)' />
<polyline points='132.33,61.73 282.52,61.73 ' style='stroke-width: 1.07; stroke: #EBEBEB; stroke-linecap: butt;' clip-path='url(#cpMTMyLjMzMnwyODIuNTIxfDExMy45MzZ8MjQuMDI5)' />
<polyline points='132.33,47.23 282.52,47.23 ' style='stroke-width: 1.07; stroke: #EBEBEB; stroke-linecap: butt;' clip-path='url(#cpMTMyLjMzMnwyODIuNTIxfDExMy45MzZ8MjQuMDI5)' />
<polyline points='132.33,32.73 282.52,32.73 ' style='stroke-width: 1.07; stroke: #EBEBEB; stroke-linecap: butt;' clip-path='url(#cpMTMyLjMzMnwyODIuNTIxfDExMy45MzZ8MjQuMDI5)' />
<polyline points='135.60,113.94 135.60,24.03 ' style='stroke-width: 1.07; stroke: #EBEBEB; stroke-linecap: butt;' clip-path='url(#cpMTMyLjMzMnwyODIuNTIxfDExMy45MzZ8MjQuMDI5)' />
<polyline points='176.09,113.94 176.09,24.03 ' style='stroke-width: 1.07; stroke: #EBEBEB; stroke-linecap: butt;' clip-path='url(#cpMTMyLjMzMnwyODIuNTIxfDExMy45MzZ8MjQuMDI5)' />
<polyline points='216.58,113.94 216.58,24.03 ' style='stroke-width: 1.07; stroke: #EBEBEB; stroke-linecap: butt;' clip-path='url(#cpMTMyLjMzMnwyODIuNTIxfDExMy45MzZ8MjQuMDI5)' />
<polyline points='257.06,113.94 257.06,24.03 ' style='stroke-width: 1.07; stroke: #EBEBEB; stroke-linecap: butt;' clip-path='url(#cpMTMyLjMzMnwyODIuNTIxfDExMy45MzZ8MjQuMDI5)' />
<circle cx='197.14' cy='76.23' r='3.56pt' style='stroke-width: 0.71; stroke: #A6A6A6; fill: #A6A6A6;' clip-path='url(#cpMTMyLjMzMnwyODIuNTIxfDExMy45MzZ8MjQuMDI5)' />
<circle cx='247.52' cy='47.23' r='3.56pt' style='stroke-width: 0.71; stroke: #A6A6A6; fill: #A6A6A6;' clip-path='url(#cpMTMyLjMzMnwyODIuNTIxfDExMy45MzZ8MjQuMDI5)' />
<circle cx='242.45' cy='61.73' r='3.56pt' style='stroke-width: 0.71; stroke: #A6A6A6; fill: #A6A6A6;' clip-path='url(#cpMTMyLjMzMnwyODIuNTIxfDExMy45MzZ8MjQuMDI5)' />
<circle cx='269.18' cy='32.73' r='3.56pt' style='stroke-width: 0.71; stroke: #A6A6A6; fill: #A6A6A6;' clip-path='url(#cpMTMyLjMzMnwyODIuNTIxfDExMy45MzZ8MjQuMDI5)' />
<circle cx='157.63' cy='105.24' r='3.56pt' style='stroke-width: 0.71; stroke: #A6A6A6; fill: #A6A6A6;' clip-path='url(#cpMTMyLjMzMnwyODIuNTIxfDExMy45MzZ8MjQuMDI5)' />
<circle cx='184.95' cy='90.73' r='3.56pt' style='stroke-width: 0.71; stroke: #A6A6A6; fill: #A6A6A6;' clip-path='url(#cpMTMyLjMzMnwyODIuNTIxfDExMy45MzZ8MjQuMDI5)' />
<line x1='181.27' y1='76.23' x2='213.68' y2='76.23' style='stroke-width: 3.20; stroke: #A6A6A6; stroke-linecap: butt;' clip-path='url(#cpMTMyLjMzMnwyODIuNTIxfDExMy45MzZ8MjQuMDI5)' />
<line x1='234.04' y1='47.23' x2='260.95' y2='47.23' style='stroke-width: 3.20; stroke: #A6A6A6; stroke-linecap: butt;' clip-path='url(#cpMTMyLjMzMnwyODIuNTIxfDExMy45MzZ8MjQuMDI5)' />
<line x1='237.43' y1='61.73' x2='247.98' y2='61.73' style='stroke-width: 3.20; stroke: #A6A6A6; stroke-linecap: butt;' clip-path='url(#cpMTMyLjMzMnwyODIuNTIxfDExMy45MzZ8MjQuMDI5)' />
<line x1='264.47' y1='32.73' x2='274.53' y2='32.73' style='stroke-width: 3.20; stroke: #A6A6A6; stroke-linecap: butt;' clip-path='url(#cpMTMyLjMzMnwyODIuNTIxfDExMy45MzZ8MjQuMDI5)' />
<line x1='141.79' y1='105.24' x2='176.08' y2='105.24' style='stroke-width: 3.20; stroke: #A6A6A6; stroke-linecap: butt;' clip-path='url(#cpMTMyLjMzMnwyODIuNTIxfDExMy45MzZ8MjQuMDI5)' />
<line x1='165.23' y1='90.73' x2='203.33' y2='90.73' style='stroke-width: 3.20; stroke: #A6A6A6; stroke-linecap: butt;' clip-path='url(#cpMTMyLjMzMnwyODIuNTIxfDExMy45MzZ8MjQuMDI5)' />
<line x1='178.41' y1='76.23' x2='216.92' y2='76.23' style='stroke-width: 1.07; stroke: #A6A6A6; stroke-linecap: butt;' clip-path='url(#cpMTMyLjMzMnwyODIuNTIxfDExMy45MzZ8MjQuMDI5)' />
<line x1='231.53' y1='47.23' x2='263.50' y2='47.23' style='stroke-width: 1.07; stroke: #A6A6A6; stroke-linecap: butt;' clip-path='url(#cpMTMyLjMzMnwyODIuNTIxfDExMy45MzZ8MjQuMDI5)' />
<line x1='236.48' y1='61.73' x2='249.17' y2='61.73' style='stroke-width: 1.07; stroke: #A6A6A6; stroke-linecap: butt;' clip-path='url(#cpMTMyLjMzMnwyODIuNTIxfDExMy45MzZ8MjQuMDI5)' />
<line x1='263.59' y1='32.73' x2='275.69' y2='32.73' style='stroke-width: 1.07; stroke: #A6A6A6; stroke-linecap: butt;' clip-path='url(#cpMTMyLjMzMnwyODIuNTIxfDExMy45MzZ8MjQuMDI5)' />
<line x1='139.16' y1='105.24' x2='179.70' y2='105.24' style='stroke-width: 1.07; stroke: #A6A6A6; stroke-linecap: butt;' clip-path='url(#cpMTMyLjMzMnwyODIuNTIxfDExMy45MzZ8MjQuMDI5)' />
<line x1='161.33' y1='90.73' x2='206.41' y2='90.73' style='stroke-width: 1.07; stroke: #A6A6A6; stroke-linecap: butt;' clip-path='url(#cpMTMyLjMzMnwyODIuNTIxfDExMy45MzZ8MjQuMDI5)' />
<line x1='216.58' y1='113.94' x2='216.58' y2='24.03' style='stroke-width: 1.07; stroke-dasharray: 1.42,4.27; stroke-linecap: butt;' clip-path='url(#cpMTMyLjMzMnwyODIuNTIxfDExMy45MzZ8MjQuMDI5)' />
<rect x='132.33' y='24.03' width='150.19' height='89.91' style='stroke-width: 1.07; stroke: #333333;' clip-path='url(#cpMTMyLjMzMnwyODIuNTIxfDExMy45MzZ8MjQuMDI5)' />
<defs>
  <clipPath id='cpMHwyODh8MTQ0fDA='>
    <rect x='0.00' y='0.00' width='288.00' height='144.00' />
  </clipPath>
</defs>
<g clip-path='url(#cpMHwyODh8MTQ0fDA=)'><text x='18.97' y='108.39' style='font-size: 8.80px; fill: #4D4D4D; font-family: Arial;' textLength='108.43px' lengthAdjust='spacingAndGlyphs'>P(S2/S3|previous araneum)</text></g>
<g clip-path='url(#cpMHwyODh8MTQ0fDA=)'><text x='32.19' y='93.88' style='font-size: 8.80px; fill: #4D4D4D; font-family: Arial;' textLength='95.21px' lengthAdjust='spacingAndGlyphs'>P(S2/S3|previous press)</text></g>
<g clip-path='url(#cpMHwyODh8MTQ0fDA=)'><text x='35.60' y='79.38' style='font-size: 8.80px; fill: #4D4D4D; font-family: Arial;' textLength='91.80px' lengthAdjust='spacingAndGlyphs'>P(S2/S3|next araneum)</text></g>
<g clip-path='url(#cpMHwyODh8MTQ0fDA=)'><text x='32.66' y='64.88' style='font-size: 8.80px; fill: #4D4D4D; font-family: Arial;' textLength='94.74px' lengthAdjust='spacingAndGlyphs'>P(S2/S3|none araneum)</text></g>
<g clip-path='url(#cpMHwyODh8MTQ0fDA=)'><text x='48.82' y='50.38' style='font-size: 8.80px; fill: #4D4D4D; font-family: Arial;' textLength='78.59px' lengthAdjust='spacingAndGlyphs'>P(S2/S3|next press)</text></g>
<g clip-path='url(#cpMHwyODh8MTQ0fDA=)'><text x='45.87' y='35.88' style='font-size: 8.80px; fill: #4D4D4D; font-family: Arial;' textLength='81.53px' lengthAdjust='spacingAndGlyphs'>P(S2/S3|none press)</text></g>
<polyline points='129.59,105.24 132.33,105.24 ' style='stroke-width: 1.07; stroke: #333333; stroke-linecap: butt;' clip-path='url(#cpMHwyODh8MTQ0fDA=)' />
<polyline points='129.59,90.73 132.33,90.73 ' style='stroke-width: 1.07; stroke: #333333; stroke-linecap: butt;' clip-path='url(#cpMHwyODh8MTQ0fDA=)' />
<polyline points='129.59,76.23 132.33,76.23 ' style='stroke-width: 1.07; stroke: #333333; stroke-linecap: butt;' clip-path='url(#cpMHwyODh8MTQ0fDA=)' />
<polyline points='129.59,61.73 132.33,61.73 ' style='stroke-width: 1.07; stroke: #333333; stroke-linecap: butt;' clip-path='url(#cpMHwyODh8MTQ0fDA=)' />
<polyline points='129.59,47.23 132.33,47.23 ' style='stroke-width: 1.07; stroke: #333333; stroke-linecap: butt;' clip-path='url(#cpMHwyODh8MTQ0fDA=)' />
<polyline points='129.59,32.73 132.33,32.73 ' style='stroke-width: 1.07; stroke: #333333; stroke-linecap: butt;' clip-path='url(#cpMHwyODh8MTQ0fDA=)' />
<polyline points='135.60,116.68 135.60,113.94 ' style='stroke-width: 1.07; stroke: #333333; stroke-linecap: butt;' clip-path='url(#cpMHwyODh8MTQ0fDA=)' />
<polyline points='176.09,116.68 176.09,113.94 ' style='stroke-width: 1.07; stroke: #333333; stroke-linecap: butt;' clip-path='url(#cpMHwyODh8MTQ0fDA=)' />
<polyline points='216.58,116.68 216.58,113.94 ' style='stroke-width: 1.07; stroke: #333333; stroke-linecap: butt;' clip-path='url(#cpMHwyODh8MTQ0fDA=)' />
<polyline points='257.06,116.68 257.06,113.94 ' style='stroke-width: 1.07; stroke: #333333; stroke-linecap: butt;' clip-path='url(#cpMHwyODh8MTQ0fDA=)' />
<g clip-path='url(#cpMHwyODh8MTQ0fDA=)'><text x='125.57' y='125.17' style='font-size: 8.80px; fill: #4D4D4D; font-family: Arial;' textLength='20.06px' lengthAdjust='spacingAndGlyphs'>-0.50</text></g>
<g clip-path='url(#cpMHwyODh8MTQ0fDA=)'><text x='166.06' y='125.17' style='font-size: 8.80px; fill: #4D4D4D; font-family: Arial;' textLength='20.06px' lengthAdjust='spacingAndGlyphs'>-0.25</text></g>
<g clip-path='url(#cpMHwyODh8MTQ0fDA=)'><text x='208.01' y='125.17' style='font-size: 8.80px; fill: #4D4D4D; font-family: Arial;' textLength='17.13px' lengthAdjust='spacingAndGlyphs'>0.00</text></g>
<g clip-path='url(#cpMHwyODh8MTQ0fDA=)'><text x='248.50' y='125.17' style='font-size: 8.80px; fill: #4D4D4D; font-family: Arial;' textLength='17.13px' lengthAdjust='spacingAndGlyphs'>0.25</text></g>
<g clip-path='url(#cpMHwyODh8MTQ0fDA=)'><text x='195.81' y='138.52' style='font-size: 11.00px; font-family: Arial;' textLength='23.22px' lengthAdjust='spacingAndGlyphs'>HPD</text></g>
<g clip-path='url(#cpMHwyODh8MTQ0fDA=)'><text transform='translate(13.35,94.66) rotate(-90)' style='font-size: 11.00px; font-family: Arial;' textLength='51.35px' lengthAdjust='spacingAndGlyphs'>Parameter</text></g>
<g clip-path='url(#cpMHwyODh8MTQ0fDA=)'><text x='132.33' y='14.93' style='font-size: 13.20px; font-family: Arial;' textLength='302.36px' lengthAdjust='spacingAndGlyphs'>locative_neighbour_and_press_general_S2_S3.svg</text></g>
</svg>
