<?xml version='1.0' encoding='UTF-8' ?>
<svg xmlns='http://www.w3.org/2000/svg' xmlns:xlink='http://www.w3.org/1999/xlink' viewBox='0 0 504.00 504.00'>
<defs>
  <style type='text/css'><![CDATA[
    line, polyline, path, rect, circle {
      fill: none;
      stroke: #000000;
      stroke-linecap: round;
      stroke-linejoin: round;
      stroke-miterlimit: 10.00;
    }
  ]]></style>
</defs>
<rect width='100%' height='100%' style='stroke: none; fill: #FFFFFF;'/>
<rect x='0.00' y='-0.00' width='504.00' height='504.00' style='stroke-width: 1.07; stroke: #FFFFFF; fill: #FFFFFF;' />
<defs>
  <clipPath id='cpMTAyLjQ4Mnw0OTguNTIxfDQ3My45MzZ8MjQuMDI5'>
    <rect x='102.48' y='24.03' width='396.04' height='449.91' />
  </clipPath>
</defs>
<rect x='102.48' y='24.03' width='396.04' height='449.91' style='stroke-width: 1.07; stroke: none; fill: #FFFFFF;' clip-path='url(#cpMTAyLjQ4Mnw0OTguNTIxfDQ3My45MzZ8MjQuMDI5)' />
<polyline points='176.36,473.94 176.36,24.03 ' style='stroke-width: 0.53; stroke: #EBEBEB; stroke-linecap: butt;' clip-path='url(#cpMTAyLjQ4Mnw0OTguNTIxfDQ3My45MzZ8MjQuMDI5)' />
<polyline points='276.60,473.94 276.60,24.03 ' style='stroke-width: 0.53; stroke: #EBEBEB; stroke-linecap: butt;' clip-path='url(#cpMTAyLjQ4Mnw0OTguNTIxfDQ3My45MzZ8MjQuMDI5)' />
<polyline points='376.84,473.94 376.84,24.03 ' style='stroke-width: 0.53; stroke: #EBEBEB; stroke-linecap: butt;' clip-path='url(#cpMTAyLjQ4Mnw0OTguNTIxfDQ3My45MzZ8MjQuMDI5)' />
<polyline points='477.08,473.94 477.08,24.03 ' style='stroke-width: 0.53; stroke: #EBEBEB; stroke-linecap: butt;' clip-path='url(#cpMTAyLjQ4Mnw0OTguNTIxfDQ3My45MzZ8MjQuMDI5)' />
<polyline points='102.48,449.83 498.52,449.83 ' style='stroke-width: 1.07; stroke: #EBEBEB; stroke-linecap: butt;' clip-path='url(#cpMTAyLjQ4Mnw0OTguNTIxfDQ3My45MzZ8MjQuMDI5)' />
<polyline points='102.48,409.66 498.52,409.66 ' style='stroke-width: 1.07; stroke: #EBEBEB; stroke-linecap: butt;' clip-path='url(#cpMTAyLjQ4Mnw0OTguNTIxfDQ3My45MzZ8MjQuMDI5)' />
<polyline points='102.48,369.49 498.52,369.49 ' style='stroke-width: 1.07; stroke: #EBEBEB; stroke-linecap: butt;' clip-path='url(#cpMTAyLjQ4Mnw0OTguNTIxfDQ3My45MzZ8MjQuMDI5)' />
<polyline points='102.48,329.32 498.52,329.32 ' style='stroke-width: 1.07; stroke: #EBEBEB; stroke-linecap: butt;' clip-path='url(#cpMTAyLjQ4Mnw0OTguNTIxfDQ3My45MzZ8MjQuMDI5)' />
<polyline points='102.48,289.15 498.52,289.15 ' style='stroke-width: 1.07; stroke: #EBEBEB; stroke-linecap: butt;' clip-path='url(#cpMTAyLjQ4Mnw0OTguNTIxfDQ3My45MzZ8MjQuMDI5)' />
<polyline points='102.48,248.98 498.52,248.98 ' style='stroke-width: 1.07; stroke: #EBEBEB; stroke-linecap: butt;' clip-path='url(#cpMTAyLjQ4Mnw0OTguNTIxfDQ3My45MzZ8MjQuMDI5)' />
<polyline points='102.48,208.81 498.52,208.81 ' style='stroke-width: 1.07; stroke: #EBEBEB; stroke-linecap: butt;' clip-path='url(#cpMTAyLjQ4Mnw0OTguNTIxfDQ3My45MzZ8MjQuMDI5)' />
<polyline points='102.48,168.64 498.52,168.64 ' style='stroke-width: 1.07; stroke: #EBEBEB; stroke-linecap: butt;' clip-path='url(#cpMTAyLjQ4Mnw0OTguNTIxfDQ3My45MzZ8MjQuMDI5)' />
<polyline points='102.48,128.47 498.52,128.47 ' style='stroke-width: 1.07; stroke: #EBEBEB; stroke-linecap: butt;' clip-path='url(#cpMTAyLjQ4Mnw0OTguNTIxfDQ3My45MzZ8MjQuMDI5)' />
<polyline points='102.48,88.30 498.52,88.30 ' style='stroke-width: 1.07; stroke: #EBEBEB; stroke-linecap: butt;' clip-path='url(#cpMTAyLjQ4Mnw0OTguNTIxfDQ3My45MzZ8MjQuMDI5)' />
<polyline points='102.48,48.13 498.52,48.13 ' style='stroke-width: 1.07; stroke: #EBEBEB; stroke-linecap: butt;' clip-path='url(#cpMTAyLjQ4Mnw0OTguNTIxfDQ3My45MzZ8MjQuMDI5)' />
<polyline points='126.24,473.94 126.24,24.03 ' style='stroke-width: 1.07; stroke: #EBEBEB; stroke-linecap: butt;' clip-path='url(#cpMTAyLjQ4Mnw0OTguNTIxfDQ3My45MzZ8MjQuMDI5)' />
<polyline points='226.48,473.94 226.48,24.03 ' style='stroke-width: 1.07; stroke: #EBEBEB; stroke-linecap: butt;' clip-path='url(#cpMTAyLjQ4Mnw0OTguNTIxfDQ3My45MzZ8MjQuMDI5)' />
<polyline points='326.72,473.94 326.72,24.03 ' style='stroke-width: 1.07; stroke: #EBEBEB; stroke-linecap: butt;' clip-path='url(#cpMTAyLjQ4Mnw0OTguNTIxfDQ3My45MzZ8MjQuMDI5)' />
<polyline points='426.96,473.94 426.96,24.03 ' style='stroke-width: 1.07; stroke: #EBEBEB; stroke-linecap: butt;' clip-path='url(#cpMTAyLjQ4Mnw0OTguNTIxfDQ3My45MzZ8MjQuMDI5)' />
<circle cx='140.19' cy='449.83' r='3.56pt' style='stroke-width: 0.71; stroke: #404040; fill: #404040;' clip-path='url(#cpMTAyLjQ4Mnw0OTguNTIxfDQ3My45MzZ8MjQuMDI5)' />
<circle cx='332.96' cy='248.98' r='3.56pt' style='stroke-width: 0.71; stroke: #A6A6A6; fill: #A6A6A6;' clip-path='url(#cpMTAyLjQ4Mnw0OTguNTIxfDQ3My45MzZ8MjQuMDI5)' />
<circle cx='257.90' cy='329.32' r='3.56pt' style='stroke-width: 0.71; stroke: #404040; fill: #404040;' clip-path='url(#cpMTAyLjQ4Mnw0OTguNTIxfDQ3My45MzZ8MjQuMDI5)' />
<circle cx='240.84' cy='369.49' r='3.56pt' style='stroke-width: 0.71; stroke: #404040; fill: #404040;' clip-path='url(#cpMTAyLjQ4Mnw0OTguNTIxfDQ3My45MzZ8MjQuMDI5)' />
<circle cx='300.06' cy='289.15' r='3.56pt' style='stroke-width: 0.71; stroke: #A6A6A6; fill: #A6A6A6;' clip-path='url(#cpMTAyLjQ4Mnw0OTguNTIxfDQ3My45MzZ8MjQuMDI5)' />
<circle cx='360.23' cy='208.81' r='3.56pt' style='stroke-width: 0.71; stroke: #A6A6A6; fill: #A6A6A6;' clip-path='url(#cpMTAyLjQ4Mnw0OTguNTIxfDQ3My45MzZ8MjQuMDI5)' />
<circle cx='423.97' cy='128.47' r='3.56pt' style='stroke-width: 0.71; stroke: #404040; fill: #404040;' clip-path='url(#cpMTAyLjQ4Mnw0OTguNTIxfDQ3My45MzZ8MjQuMDI5)' />
<circle cx='445.87' cy='88.30' r='3.56pt' style='stroke-width: 0.71; stroke: #404040; fill: #404040;' clip-path='url(#cpMTAyLjQ4Mnw0OTguNTIxfDQ3My45MzZ8MjQuMDI5)' />
<circle cx='446.15' cy='48.13' r='3.56pt' style='stroke-width: 0.71; stroke: #404040; fill: #404040;' clip-path='url(#cpMTAyLjQ4Mnw0OTguNTIxfDQ3My45MzZ8MjQuMDI5)' />
<circle cx='228.37' cy='409.66' r='3.56pt' style='stroke-width: 0.71; stroke: #404040; fill: #404040;' clip-path='url(#cpMTAyLjQ4Mnw0OTguNTIxfDQ3My45MzZ8MjQuMDI5)' />
<circle cx='417.95' cy='168.64' r='3.56pt' style='stroke-width: 0.71; stroke: #404040; fill: #404040;' clip-path='url(#cpMTAyLjQ4Mnw0OTguNTIxfDQ3My45MzZ8MjQuMDI5)' />
<line x1='123.65' y1='449.83' x2='156.98' y2='449.83' style='stroke-width: 3.20; stroke: #404040; stroke-linecap: butt;' clip-path='url(#cpMTAyLjQ4Mnw0OTguNTIxfDQ3My45MzZ8MjQuMDI5)' />
<line x1='319.62' y1='248.98' x2='346.42' y2='248.98' style='stroke-width: 3.20; stroke: #A6A6A6; stroke-linecap: butt;' clip-path='url(#cpMTAyLjQ4Mnw0OTguNTIxfDQ3My45MzZ8MjQuMDI5)' />
<line x1='180.83' y1='329.32' x2='330.69' y2='329.32' style='stroke-width: 3.20; stroke: #404040; stroke-linecap: butt;' clip-path='url(#cpMTAyLjQ4Mnw0OTguNTIxfDQ3My45MzZ8MjQuMDI5)' />
<line x1='195.11' y1='369.49' x2='282.65' y2='369.49' style='stroke-width: 3.20; stroke: #404040; stroke-linecap: butt;' clip-path='url(#cpMTAyLjQ4Mnw0OTguNTIxfDQ3My45MzZ8MjQuMDI5)' />
<line x1='278.17' y1='289.15' x2='321.85' y2='289.15' style='stroke-width: 3.20; stroke: #A6A6A6; stroke-linecap: butt;' clip-path='url(#cpMTAyLjQ4Mnw0OTguNTIxfDQ3My45MzZ8MjQuMDI5)' />
<line x1='344.42' y1='208.81' x2='376.12' y2='208.81' style='stroke-width: 3.20; stroke: #A6A6A6; stroke-linecap: butt;' clip-path='url(#cpMTAyLjQ4Mnw0OTguNTIxfDQ3My45MzZ8MjQuMDI5)' />
<line x1='397.94' y1='128.47' x2='449.98' y2='128.47' style='stroke-width: 3.20; stroke: #404040; stroke-linecap: butt;' clip-path='url(#cpMTAyLjQ4Mnw0OTguNTIxfDQ3My45MzZ8MjQuMDI5)' />
<line x1='423.53' y1='88.30' x2='468.19' y2='88.30' style='stroke-width: 3.20; stroke: #404040; stroke-linecap: butt;' clip-path='url(#cpMTAyLjQ4Mnw0OTguNTIxfDQ3My45MzZ8MjQuMDI5)' />
<line x1='432.21' y1='48.13' x2='460.15' y2='48.13' style='stroke-width: 3.20; stroke: #404040; stroke-linecap: butt;' clip-path='url(#cpMTAyLjQ4Mnw0OTguNTIxfDQ3My45MzZ8MjQuMDI5)' />
<line x1='204.40' y1='409.66' x2='252.93' y2='409.66' style='stroke-width: 3.20; stroke: #404040; stroke-linecap: butt;' clip-path='url(#cpMTAyLjQ4Mnw0OTguNTIxfDQ3My45MzZ8MjQuMDI5)' />
<line x1='370.97' y1='168.64' x2='469.59' y2='168.64' style='stroke-width: 3.20; stroke: #404040; stroke-linecap: butt;' clip-path='url(#cpMTAyLjQ4Mnw0OTguNTIxfDQ3My45MzZ8MjQuMDI5)' />
<line x1='120.48' y1='449.83' x2='160.26' y2='449.83' style='stroke-width: 1.07; stroke: #404040; stroke-linecap: butt;' clip-path='url(#cpMTAyLjQ4Mnw0OTguNTIxfDQ3My45MzZ8MjQuMDI5)' />
<line x1='317.10' y1='248.98' x2='349.05' y2='248.98' style='stroke-width: 1.07; stroke: #A6A6A6; stroke-linecap: butt;' clip-path='url(#cpMTAyLjQ4Mnw0OTguNTIxfDQ3My45MzZ8MjQuMDI5)' />
<line x1='165.34' y1='329.32' x2='344.39' y2='329.32' style='stroke-width: 1.07; stroke: #404040; stroke-linecap: butt;' clip-path='url(#cpMTAyLjQ4Mnw0OTguNTIxfDQ3My45MzZ8MjQuMDI5)' />
<line x1='185.77' y1='369.49' x2='290.21' y2='369.49' style='stroke-width: 1.07; stroke: #404040; stroke-linecap: butt;' clip-path='url(#cpMTAyLjQ4Mnw0OTguNTIxfDQ3My45MzZ8MjQuMDI5)' />
<line x1='274.14' y1='289.15' x2='326.06' y2='289.15' style='stroke-width: 1.07; stroke: #A6A6A6; stroke-linecap: butt;' clip-path='url(#cpMTAyLjQ4Mnw0OTguNTIxfDQ3My45MzZ8MjQuMDI5)' />
<line x1='341.26' y1='208.81' x2='379.01' y2='208.81' style='stroke-width: 1.07; stroke: #A6A6A6; stroke-linecap: butt;' clip-path='url(#cpMTAyLjQ4Mnw0OTguNTIxfDQ3My45MzZ8MjQuMDI5)' />
<line x1='392.81' y1='128.47' x2='454.88' y2='128.47' style='stroke-width: 1.07; stroke: #404040; stroke-linecap: butt;' clip-path='url(#cpMTAyLjQ4Mnw0OTguNTIxfDQ3My45MzZ8MjQuMDI5)' />
<line x1='419.34' y1='88.30' x2='472.42' y2='88.30' style='stroke-width: 1.07; stroke: #404040; stroke-linecap: butt;' clip-path='url(#cpMTAyLjQ4Mnw0OTguNTIxfDQ3My45MzZ8MjQuMDI5)' />
<line x1='429.67' y1='48.13' x2='462.77' y2='48.13' style='stroke-width: 1.07; stroke: #404040; stroke-linecap: butt;' clip-path='url(#cpMTAyLjQ4Mnw0OTguNTIxfDQ3My45MzZ8MjQuMDI5)' />
<line x1='199.96' y1='409.66' x2='257.44' y2='409.66' style='stroke-width: 1.07; stroke: #404040; stroke-linecap: butt;' clip-path='url(#cpMTAyLjQ4Mnw0OTguNTIxfDQ3My45MzZ8MjQuMDI5)' />
<line x1='362.44' y1='168.64' x2='480.52' y2='168.64' style='stroke-width: 1.07; stroke: #404040; stroke-linecap: butt;' clip-path='url(#cpMTAyLjQ4Mnw0OTguNTIxfDQ3My45MzZ8MjQuMDI5)' />
<line x1='326.72' y1='473.94' x2='326.72' y2='24.03' style='stroke-width: 1.07; stroke-dasharray: 1.42,4.27; stroke-linecap: butt;' clip-path='url(#cpMTAyLjQ4Mnw0OTguNTIxfDQ3My45MzZ8MjQuMDI5)' />
<rect x='102.48' y='24.03' width='396.04' height='449.91' style='stroke-width: 1.07; stroke: #333333;' clip-path='url(#cpMTAyLjQ4Mnw0OTguNTIxfDQ3My45MzZ8MjQuMDI5)' />
<defs>
  <clipPath id='cpMHw1MDR8NTA0fDA='>
    <rect x='0.00' y='0.00' width='504.00' height='504.00' />
  </clipPath>
</defs>
<g clip-path='url(#cpMHw1MDR8NTA0fDA=)'><text x='40.00' y='452.98' style='font-size: 8.80px; fill: #4D4D4D; font-family: Arial;' textLength='57.55px' lengthAdjust='spacingAndGlyphs'>P(S2/S3|fi,dur)</text></g>
<g clip-path='url(#cpMHw1MDR8NTA0fDA=)'><text x='35.59' y='412.81' style='font-size: 8.80px; fill: #4D4D4D; font-family: Arial;' textLength='61.96px' lengthAdjust='spacingAndGlyphs'>P(S2/S3|fi,tapa)</text></g>
<g clip-path='url(#cpMHw1MDR8NTA0fDA=)'><text x='25.81' y='372.64' style='font-size: 8.80px; fill: #4D4D4D; font-family: Arial;' textLength='71.74px' lengthAdjust='spacingAndGlyphs'>P(S2/S3|fi,presup)</text></g>
<g clip-path='url(#cpMHw1MDR8NTA0fDA=)'><text x='35.12' y='332.47' style='font-size: 8.80px; fill: #4D4D4D; font-family: Arial;' textLength='62.43px' lengthAdjust='spacingAndGlyphs'>P(S2/S3|fi,likim)</text></g>
<g clip-path='url(#cpMHw1MDR8NTA0fDA=)'><text x='23.86' y='292.30' style='font-size: 8.80px; fill: #4D4D4D; font-family: Arial;' textLength='73.69px' lengthAdjust='spacingAndGlyphs'>P(S2/S3|fi,res.keh)</text></g>
<g clip-path='url(#cpMHw1MDR8NTA0fDA=)'><text x='37.55' y='252.13' style='font-size: 8.80px; fill: #4D4D4D; font-family: Arial;' textLength='60.00px' lengthAdjust='spacingAndGlyphs'>P(S2/S3|fi,freq)</text></g>
<g clip-path='url(#cpMHw1MDR8NTA0fDA=)'><text x='21.42' y='211.96' style='font-size: 8.80px; fill: #4D4D4D; font-family: Arial;' textLength='76.13px' lengthAdjust='spacingAndGlyphs'>P(S2/S3|fi,res.vars)</text></g>
<g clip-path='url(#cpMHw1MDR8NTA0fDA=)'><text x='37.07' y='171.79' style='font-size: 8.80px; fill: #4D4D4D; font-family: Arial;' textLength='60.48px' lengthAdjust='spacingAndGlyphs'>P(S2/S3|fi,telic)</text></g>
<g clip-path='url(#cpMHw1MDR8NTA0fDA=)'><text x='34.62' y='131.62' style='font-size: 8.80px; fill: #4D4D4D; font-family: Arial;' textLength='62.93px' lengthAdjust='spacingAndGlyphs'>P(S2/S3|fi,sekv)</text></g>
<g clip-path='url(#cpMHw1MDR8NTA0fDA=)'><text x='18.97' y='91.45' style='font-size: 8.80px; fill: #4D4D4D; font-family: Arial;' textLength='78.58px' lengthAdjust='spacingAndGlyphs'>P(S2/S3|fi,sekv-dur)</text></g>
<g clip-path='url(#cpMHw1MDR8NTA0fDA=)'><text x='39.03' y='51.28' style='font-size: 8.80px; fill: #4D4D4D; font-family: Arial;' textLength='58.52px' lengthAdjust='spacingAndGlyphs'>P(S2/S3|fi,sim)</text></g>
<polyline points='99.74,449.83 102.48,449.83 ' style='stroke-width: 1.07; stroke: #333333; stroke-linecap: butt;' clip-path='url(#cpMHw1MDR8NTA0fDA=)' />
<polyline points='99.74,409.66 102.48,409.66 ' style='stroke-width: 1.07; stroke: #333333; stroke-linecap: butt;' clip-path='url(#cpMHw1MDR8NTA0fDA=)' />
<polyline points='99.74,369.49 102.48,369.49 ' style='stroke-width: 1.07; stroke: #333333; stroke-linecap: butt;' clip-path='url(#cpMHw1MDR8NTA0fDA=)' />
<polyline points='99.74,329.32 102.48,329.32 ' style='stroke-width: 1.07; stroke: #333333; stroke-linecap: butt;' clip-path='url(#cpMHw1MDR8NTA0fDA=)' />
<polyline points='99.74,289.15 102.48,289.15 ' style='stroke-width: 1.07; stroke: #333333; stroke-linecap: butt;' clip-path='url(#cpMHw1MDR8NTA0fDA=)' />
<polyline points='99.74,248.98 102.48,248.98 ' style='stroke-width: 1.07; stroke: #333333; stroke-linecap: butt;' clip-path='url(#cpMHw1MDR8NTA0fDA=)' />
<polyline points='99.74,208.81 102.48,208.81 ' style='stroke-width: 1.07; stroke: #333333; stroke-linecap: butt;' clip-path='url(#cpMHw1MDR8NTA0fDA=)' />
<polyline points='99.74,168.64 102.48,168.64 ' style='stroke-width: 1.07; stroke: #333333; stroke-linecap: butt;' clip-path='url(#cpMHw1MDR8NTA0fDA=)' />
<polyline points='99.74,128.47 102.48,128.47 ' style='stroke-width: 1.07; stroke: #333333; stroke-linecap: butt;' clip-path='url(#cpMHw1MDR8NTA0fDA=)' />
<polyline points='99.74,88.30 102.48,88.30 ' style='stroke-width: 1.07; stroke: #333333; stroke-linecap: butt;' clip-path='url(#cpMHw1MDR8NTA0fDA=)' />
<polyline points='99.74,48.13 102.48,48.13 ' style='stroke-width: 1.07; stroke: #333333; stroke-linecap: butt;' clip-path='url(#cpMHw1MDR8NTA0fDA=)' />
<polyline points='126.24,476.68 126.24,473.94 ' style='stroke-width: 1.07; stroke: #333333; stroke-linecap: butt;' clip-path='url(#cpMHw1MDR8NTA0fDA=)' />
<polyline points='226.48,476.68 226.48,473.94 ' style='stroke-width: 1.07; stroke: #333333; stroke-linecap: butt;' clip-path='url(#cpMHw1MDR8NTA0fDA=)' />
<polyline points='326.72,476.68 326.72,473.94 ' style='stroke-width: 1.07; stroke: #333333; stroke-linecap: butt;' clip-path='url(#cpMHw1MDR8NTA0fDA=)' />
<polyline points='426.96,476.68 426.96,473.94 ' style='stroke-width: 1.07; stroke: #333333; stroke-linecap: butt;' clip-path='url(#cpMHw1MDR8NTA0fDA=)' />
<g clip-path='url(#cpMHw1MDR8NTA0fDA=)'><text x='118.66' y='485.17' style='font-size: 8.80px; fill: #4D4D4D; font-family: Arial;' textLength='15.16px' lengthAdjust='spacingAndGlyphs'>-0.4</text></g>
<g clip-path='url(#cpMHw1MDR8NTA0fDA=)'><text x='218.90' y='485.17' style='font-size: 8.80px; fill: #4D4D4D; font-family: Arial;' textLength='15.16px' lengthAdjust='spacingAndGlyphs'>-0.2</text></g>
<g clip-path='url(#cpMHw1MDR8NTA0fDA=)'><text x='320.60' y='485.17' style='font-size: 8.80px; fill: #4D4D4D; font-family: Arial;' textLength='12.23px' lengthAdjust='spacingAndGlyphs'>0.0</text></g>
<g clip-path='url(#cpMHw1MDR8NTA0fDA=)'><text x='420.84' y='485.17' style='font-size: 8.80px; fill: #4D4D4D; font-family: Arial;' textLength='12.23px' lengthAdjust='spacingAndGlyphs'>0.2</text></g>
<g clip-path='url(#cpMHw1MDR8NTA0fDA=)'><text x='288.89' y='498.52' style='font-size: 11.00px; font-family: Arial;' textLength='23.22px' lengthAdjust='spacingAndGlyphs'>HPD</text></g>
<g clip-path='url(#cpMHw1MDR8NTA0fDA=)'><text transform='translate(13.35,274.66) rotate(-90)' style='font-size: 11.00px; font-family: Arial;' textLength='51.35px' lengthAdjust='spacingAndGlyphs'>Parameter</text></g>
<g clip-path='url(#cpMHw1MDR8NTA0fDA=)'><text x='102.48' y='14.93' style='font-size: 13.20px; font-family: Arial;' textLength='168.04px' lengthAdjust='spacingAndGlyphs'>funct_interaction_S2_S3.svg</text></g>
</svg>
