<?xml version='1.0' encoding='UTF-8' ?>
<svg xmlns='http://www.w3.org/2000/svg' xmlns:xlink='http://www.w3.org/1999/xlink' viewBox='0 0 504.00 504.00'>
<defs>
  <style type='text/css'><![CDATA[
    line, polyline, path, rect, circle {
      fill: none;
      stroke: #000000;
      stroke-linecap: round;
      stroke-linejoin: round;
      stroke-miterlimit: 10.00;
    }
  ]]></style>
</defs>
<rect width='100%' height='100%' style='stroke: none; fill: #FFFFFF;'/>
<rect x='0.00' y='-0.00' width='504.00' height='504.00' style='stroke-width: 1.07; stroke: #FFFFFF; fill: #FFFFFF;' />
<defs>
  <clipPath id='cpNzMuNjMyOHw0OTguNTIxfDQ3My45MzZ8MjQuMDI5'>
    <rect x='73.63' y='24.03' width='424.89' height='449.91' />
  </clipPath>
</defs>
<rect x='73.63' y='24.03' width='424.89' height='449.91' style='stroke-width: 1.07; stroke: none; fill: #FFFFFF;' clip-path='url(#cpNzMuNjMyOHw0OTguNTIxfDQ3My45MzZ8MjQuMDI5)' />
<polyline points='83.03,473.94 83.03,24.03 ' style='stroke-width: 0.53; stroke: #EBEBEB; stroke-linecap: butt;' clip-path='url(#cpNzMuNjMyOHw0OTguNTIxfDQ3My45MzZ8MjQuMDI5)' />
<polyline points='164.25,473.94 164.25,24.03 ' style='stroke-width: 0.53; stroke: #EBEBEB; stroke-linecap: butt;' clip-path='url(#cpNzMuNjMyOHw0OTguNTIxfDQ3My45MzZ8MjQuMDI5)' />
<polyline points='245.47,473.94 245.47,24.03 ' style='stroke-width: 0.53; stroke: #EBEBEB; stroke-linecap: butt;' clip-path='url(#cpNzMuNjMyOHw0OTguNTIxfDQ3My45MzZ8MjQuMDI5)' />
<polyline points='326.69,473.94 326.69,24.03 ' style='stroke-width: 0.53; stroke: #EBEBEB; stroke-linecap: butt;' clip-path='url(#cpNzMuNjMyOHw0OTguNTIxfDQ3My45MzZ8MjQuMDI5)' />
<polyline points='407.90,473.94 407.90,24.03 ' style='stroke-width: 0.53; stroke: #EBEBEB; stroke-linecap: butt;' clip-path='url(#cpNzMuNjMyOHw0OTguNTIxfDQ3My45MzZ8MjQuMDI5)' />
<polyline points='489.12,473.94 489.12,24.03 ' style='stroke-width: 0.53; stroke: #EBEBEB; stroke-linecap: butt;' clip-path='url(#cpNzMuNjMyOHw0OTguNTIxfDQ3My45MzZ8MjQuMDI5)' />
<polyline points='73.63,351.23 498.52,351.23 ' style='stroke-width: 1.07; stroke: #EBEBEB; stroke-linecap: butt;' clip-path='url(#cpNzMuNjMyOHw0OTguNTIxfDQ3My45MzZ8MjQuMDI5)' />
<polyline points='73.63,146.73 498.52,146.73 ' style='stroke-width: 1.07; stroke: #EBEBEB; stroke-linecap: butt;' clip-path='url(#cpNzMuNjMyOHw0OTguNTIxfDQ3My45MzZ8MjQuMDI5)' />
<polyline points='123.64,473.94 123.64,24.03 ' style='stroke-width: 1.07; stroke: #EBEBEB; stroke-linecap: butt;' clip-path='url(#cpNzMuNjMyOHw0OTguNTIxfDQ3My45MzZ8MjQuMDI5)' />
<polyline points='204.86,473.94 204.86,24.03 ' style='stroke-width: 1.07; stroke: #EBEBEB; stroke-linecap: butt;' clip-path='url(#cpNzMuNjMyOHw0OTguNTIxfDQ3My45MzZ8MjQuMDI5)' />
<polyline points='286.08,473.94 286.08,24.03 ' style='stroke-width: 1.07; stroke: #EBEBEB; stroke-linecap: butt;' clip-path='url(#cpNzMuNjMyOHw0OTguNTIxfDQ3My45MzZ8MjQuMDI5)' />
<polyline points='367.29,473.94 367.29,24.03 ' style='stroke-width: 1.07; stroke: #EBEBEB; stroke-linecap: butt;' clip-path='url(#cpNzMuNjMyOHw0OTguNTIxfDQ3My45MzZ8MjQuMDI5)' />
<polyline points='448.51,473.94 448.51,24.03 ' style='stroke-width: 1.07; stroke: #EBEBEB; stroke-linecap: butt;' clip-path='url(#cpNzMuNjMyOHw0OTguNTIxfDQ3My45MzZ8MjQuMDI5)' />
<circle cx='336.56' cy='146.73' r='3.56pt' style='stroke-width: 0.71; stroke: #A6A6A6; fill: #A6A6A6;' clip-path='url(#cpNzMuNjMyOHw0OTguNTIxfDQ3My45MzZ8MjQuMDI5)' />
<circle cx='235.59' cy='351.23' r='3.56pt' style='stroke-width: 0.71; stroke: #A6A6A6; fill: #A6A6A6;' clip-path='url(#cpNzMuNjMyOHw0OTguNTIxfDQ3My45MzZ8MjQuMDI5)' />
<line x1='218.37' y1='146.73' x2='455.56' y2='146.73' style='stroke-width: 3.20; stroke: #A6A6A6; stroke-linecap: butt;' clip-path='url(#cpNzMuNjMyOHw0OTguNTIxfDQ3My45MzZ8MjQuMDI5)' />
<line x1='116.60' y1='351.23' x2='353.79' y2='351.23' style='stroke-width: 3.20; stroke: #A6A6A6; stroke-linecap: butt;' clip-path='url(#cpNzMuNjMyOHw0OTguNTIxfDQ3My45MzZ8MjQuMDI5)' />
<line x1='195.95' y1='146.73' x2='479.21' y2='146.73' style='stroke-width: 1.07; stroke: #A6A6A6; stroke-linecap: butt;' clip-path='url(#cpNzMuNjMyOHw0OTguNTIxfDQ3My45MzZ8MjQuMDI5)' />
<line x1='92.95' y1='351.23' x2='376.20' y2='351.23' style='stroke-width: 1.07; stroke: #A6A6A6; stroke-linecap: butt;' clip-path='url(#cpNzMuNjMyOHw0OTguNTIxfDQ3My45MzZ8MjQuMDI5)' />
<line x1='286.08' y1='473.94' x2='286.08' y2='24.03' style='stroke-width: 1.07; stroke-dasharray: 1.42,4.27; stroke-linecap: butt;' clip-path='url(#cpNzMuNjMyOHw0OTguNTIxfDQ3My45MzZ8MjQuMDI5)' />
<rect x='73.63' y='24.03' width='424.89' height='449.91' style='stroke-width: 1.07; stroke: #333333;' clip-path='url(#cpNzMuNjMyOHw0OTguNTIxfDQ3My45MzZ8MjQuMDI5)' />
<defs>
  <clipPath id='cpMHw1MDR8NTA0fDA='>
    <rect x='0.00' y='0.00' width='504.00' height='504.00' />
  </clipPath>
</defs>
<g clip-path='url(#cpMHw1MDR8NTA0fDA=)'><text x='18.97' y='354.38' style='font-size: 8.80px; fill: #4D4D4D; font-family: Arial;' textLength='49.73px' lengthAdjust='spacingAndGlyphs'>P(S2/S3|fi,1)</text></g>
<g clip-path='url(#cpMHw1MDR8NTA0fDA=)'><text x='18.97' y='149.88' style='font-size: 8.80px; fill: #4D4D4D; font-family: Arial;' textLength='49.73px' lengthAdjust='spacingAndGlyphs'>P(S2/S3|fi,0)</text></g>
<polyline points='70.89,351.23 73.63,351.23 ' style='stroke-width: 1.07; stroke: #333333; stroke-linecap: butt;' clip-path='url(#cpMHw1MDR8NTA0fDA=)' />
<polyline points='70.89,146.73 73.63,146.73 ' style='stroke-width: 1.07; stroke: #333333; stroke-linecap: butt;' clip-path='url(#cpMHw1MDR8NTA0fDA=)' />
<polyline points='123.64,476.68 123.64,473.94 ' style='stroke-width: 1.07; stroke: #333333; stroke-linecap: butt;' clip-path='url(#cpMHw1MDR8NTA0fDA=)' />
<polyline points='204.86,476.68 204.86,473.94 ' style='stroke-width: 1.07; stroke: #333333; stroke-linecap: butt;' clip-path='url(#cpMHw1MDR8NTA0fDA=)' />
<polyline points='286.08,476.68 286.08,473.94 ' style='stroke-width: 1.07; stroke: #333333; stroke-linecap: butt;' clip-path='url(#cpMHw1MDR8NTA0fDA=)' />
<polyline points='367.29,476.68 367.29,473.94 ' style='stroke-width: 1.07; stroke: #333333; stroke-linecap: butt;' clip-path='url(#cpMHw1MDR8NTA0fDA=)' />
<polyline points='448.51,476.68 448.51,473.94 ' style='stroke-width: 1.07; stroke: #333333; stroke-linecap: butt;' clip-path='url(#cpMHw1MDR8NTA0fDA=)' />
<g clip-path='url(#cpMHw1MDR8NTA0fDA=)'><text x='113.61' y='485.17' style='font-size: 8.80px; fill: #4D4D4D; font-family: Arial;' textLength='20.06px' lengthAdjust='spacingAndGlyphs'>-0.02</text></g>
<g clip-path='url(#cpMHw1MDR8NTA0fDA=)'><text x='194.83' y='485.17' style='font-size: 8.80px; fill: #4D4D4D; font-family: Arial;' textLength='20.06px' lengthAdjust='spacingAndGlyphs'>-0.01</text></g>
<g clip-path='url(#cpMHw1MDR8NTA0fDA=)'><text x='277.51' y='485.17' style='font-size: 8.80px; fill: #4D4D4D; font-family: Arial;' textLength='17.13px' lengthAdjust='spacingAndGlyphs'>0.00</text></g>
<g clip-path='url(#cpMHw1MDR8NTA0fDA=)'><text x='358.73' y='485.17' style='font-size: 8.80px; fill: #4D4D4D; font-family: Arial;' textLength='17.13px' lengthAdjust='spacingAndGlyphs'>0.01</text></g>
<g clip-path='url(#cpMHw1MDR8NTA0fDA=)'><text x='439.95' y='485.17' style='font-size: 8.80px; fill: #4D4D4D; font-family: Arial;' textLength='17.13px' lengthAdjust='spacingAndGlyphs'>0.02</text></g>
<g clip-path='url(#cpMHw1MDR8NTA0fDA=)'><text x='274.46' y='498.52' style='font-size: 11.00px; font-family: Arial;' textLength='23.22px' lengthAdjust='spacingAndGlyphs'>HPD</text></g>
<g clip-path='url(#cpMHw1MDR8NTA0fDA=)'><text transform='translate(13.35,274.66) rotate(-90)' style='font-size: 11.00px; font-family: Arial;' textLength='51.35px' lengthAdjust='spacingAndGlyphs'>Parameter</text></g>
<g clip-path='url(#cpMHw1MDR8NTA0fDA=)'><text x='73.63' y='14.93' style='font-size: 13.20px; font-family: Arial;' textLength='160.71px' lengthAdjust='spacingAndGlyphs'>pos_interaction_S2_S3.svg</text></g>
</svg>
