<?xml version='1.0' encoding='UTF-8' ?>
<svg xmlns='http://www.w3.org/2000/svg' xmlns:xlink='http://www.w3.org/1999/xlink' viewBox='0 0 504.00 504.00'>
<defs>
  <style type='text/css'><![CDATA[
    line, polyline, path, rect, circle {
      fill: none;
      stroke: #000000;
      stroke-linecap: round;
      stroke-linejoin: round;
      stroke-miterlimit: 10.00;
    }
  ]]></style>
</defs>
<rect width='100%' height='100%' style='stroke: none; fill: #FFFFFF;'/>
<rect x='0.00' y='-0.00' width='504.00' height='504.00' style='stroke-width: 1.07; stroke: #FFFFFF; fill: #FFFFFF;' />
<defs>
  <clipPath id='cpNjAuNDI0Mnw0OTguNTIxfDQ3My45MzZ8MjQuMDI5'>
    <rect x='60.42' y='24.03' width='438.10' height='449.91' />
  </clipPath>
</defs>
<rect x='60.42' y='24.03' width='438.10' height='449.91' style='stroke-width: 1.07; stroke: none; fill: #FFFFFF;' clip-path='url(#cpNjAuNDI0Mnw0OTguNTIxfDQ3My45MzZ8MjQuMDI5)' />
<polyline points='78.91,473.94 78.91,24.03 ' style='stroke-width: 0.53; stroke: #EBEBEB; stroke-linecap: butt;' clip-path='url(#cpNjAuNDI0Mnw0OTguNTIxfDQ3My45MzZ8MjQuMDI5)' />
<polyline points='212.62,473.94 212.62,24.03 ' style='stroke-width: 0.53; stroke: #EBEBEB; stroke-linecap: butt;' clip-path='url(#cpNjAuNDI0Mnw0OTguNTIxfDQ3My45MzZ8MjQuMDI5)' />
<polyline points='346.33,473.94 346.33,24.03 ' style='stroke-width: 0.53; stroke: #EBEBEB; stroke-linecap: butt;' clip-path='url(#cpNjAuNDI0Mnw0OTguNTIxfDQ3My45MzZ8MjQuMDI5)' />
<polyline points='480.04,473.94 480.04,24.03 ' style='stroke-width: 0.53; stroke: #EBEBEB; stroke-linecap: butt;' clip-path='url(#cpNjAuNDI0Mnw0OTguNTIxfDQ3My45MzZ8MjQuMDI5)' />
<polyline points='60.42,351.23 498.52,351.23 ' style='stroke-width: 1.07; stroke: #EBEBEB; stroke-linecap: butt;' clip-path='url(#cpNjAuNDI0Mnw0OTguNTIxfDQ3My45MzZ8MjQuMDI5)' />
<polyline points='60.42,146.73 498.52,146.73 ' style='stroke-width: 1.07; stroke: #EBEBEB; stroke-linecap: butt;' clip-path='url(#cpNjAuNDI0Mnw0OTguNTIxfDQ3My45MzZ8MjQuMDI5)' />
<polyline points='145.76,473.94 145.76,24.03 ' style='stroke-width: 1.07; stroke: #EBEBEB; stroke-linecap: butt;' clip-path='url(#cpNjAuNDI0Mnw0OTguNTIxfDQ3My45MzZ8MjQuMDI5)' />
<polyline points='279.47,473.94 279.47,24.03 ' style='stroke-width: 1.07; stroke: #EBEBEB; stroke-linecap: butt;' clip-path='url(#cpNjAuNDI0Mnw0OTguNTIxfDQ3My45MzZ8MjQuMDI5)' />
<polyline points='413.18,473.94 413.18,24.03 ' style='stroke-width: 1.07; stroke: #EBEBEB; stroke-linecap: butt;' clip-path='url(#cpNjAuNDI0Mnw0OTguNTIxfDQ3My45MzZ8MjQuMDI5)' />
<circle cx='109.94' cy='351.23' r='3.56pt' style='stroke-width: 0.71; stroke: #A6A6A6; fill: #A6A6A6;' clip-path='url(#cpNjAuNDI0Mnw0OTguNTIxfDQ3My45MzZ8MjQuMDI5)' />
<circle cx='449.00' cy='146.73' r='3.56pt' style='stroke-width: 0.71; stroke: #A6A6A6; fill: #A6A6A6;' clip-path='url(#cpNjAuNDI0Mnw0OTguNTIxfDQ3My45MzZ8MjQuMDI5)' />
<line x1='85.12' y1='351.23' x2='134.02' y2='351.23' style='stroke-width: 3.20; stroke: #A6A6A6; stroke-linecap: butt;' clip-path='url(#cpNjAuNDI0Mnw0OTguNTIxfDQ3My45MzZ8MjQuMDI5)' />
<line x1='424.93' y1='146.73' x2='473.82' y2='146.73' style='stroke-width: 3.20; stroke: #A6A6A6; stroke-linecap: butt;' clip-path='url(#cpNjAuNDI0Mnw0OTguNTIxfDQ3My45MzZ8MjQuMDI5)' />
<line x1='80.34' y1='351.23' x2='138.57' y2='351.23' style='stroke-width: 1.07; stroke: #A6A6A6; stroke-linecap: butt;' clip-path='url(#cpNjAuNDI0Mnw0OTguNTIxfDQ3My45MzZ8MjQuMDI5)' />
<line x1='420.37' y1='146.73' x2='478.61' y2='146.73' style='stroke-width: 1.07; stroke: #A6A6A6; stroke-linecap: butt;' clip-path='url(#cpNjAuNDI0Mnw0OTguNTIxfDQ3My45MzZ8MjQuMDI5)' />
<line x1='279.47' y1='473.94' x2='279.47' y2='24.03' style='stroke-width: 1.07; stroke-dasharray: 1.42,4.27; stroke-linecap: butt;' clip-path='url(#cpNjAuNDI0Mnw0OTguNTIxfDQ3My45MzZ8MjQuMDI5)' />
<rect x='60.42' y='24.03' width='438.10' height='449.91' style='stroke-width: 1.07; stroke: #333333;' clip-path='url(#cpNjAuNDI0Mnw0OTguNTIxfDQ3My45MzZ8MjQuMDI5)' />
<defs>
  <clipPath id='cpMHw1MDR8NTA0fDA='>
    <rect x='0.00' y='0.00' width='504.00' height='504.00' />
  </clipPath>
</defs>
<g clip-path='url(#cpMHw1MDR8NTA0fDA=)'><text x='18.97' y='354.38' style='font-size: 8.80px; fill: #4D4D4D; font-family: Arial;' textLength='36.52px' lengthAdjust='spacingAndGlyphs'>P(S4|fi,0)</text></g>
<g clip-path='url(#cpMHw1MDR8NTA0fDA=)'><text x='18.97' y='149.88' style='font-size: 8.80px; fill: #4D4D4D; font-family: Arial;' textLength='36.52px' lengthAdjust='spacingAndGlyphs'>P(S4|fi,1)</text></g>
<polyline points='57.68,351.23 60.42,351.23 ' style='stroke-width: 1.07; stroke: #333333; stroke-linecap: butt;' clip-path='url(#cpMHw1MDR8NTA0fDA=)' />
<polyline points='57.68,146.73 60.42,146.73 ' style='stroke-width: 1.07; stroke: #333333; stroke-linecap: butt;' clip-path='url(#cpMHw1MDR8NTA0fDA=)' />
<polyline points='145.76,476.68 145.76,473.94 ' style='stroke-width: 1.07; stroke: #333333; stroke-linecap: butt;' clip-path='url(#cpMHw1MDR8NTA0fDA=)' />
<polyline points='279.47,476.68 279.47,473.94 ' style='stroke-width: 1.07; stroke: #333333; stroke-linecap: butt;' clip-path='url(#cpMHw1MDR8NTA0fDA=)' />
<polyline points='413.18,476.68 413.18,473.94 ' style='stroke-width: 1.07; stroke: #333333; stroke-linecap: butt;' clip-path='url(#cpMHw1MDR8NTA0fDA=)' />
<g clip-path='url(#cpMHw1MDR8NTA0fDA=)'><text x='138.18' y='485.17' style='font-size: 8.80px; fill: #4D4D4D; font-family: Arial;' textLength='15.16px' lengthAdjust='spacingAndGlyphs'>-0.1</text></g>
<g clip-path='url(#cpMHw1MDR8NTA0fDA=)'><text x='273.36' y='485.17' style='font-size: 8.80px; fill: #4D4D4D; font-family: Arial;' textLength='12.23px' lengthAdjust='spacingAndGlyphs'>0.0</text></g>
<g clip-path='url(#cpMHw1MDR8NTA0fDA=)'><text x='407.07' y='485.17' style='font-size: 8.80px; fill: #4D4D4D; font-family: Arial;' textLength='12.23px' lengthAdjust='spacingAndGlyphs'>0.1</text></g>
<g clip-path='url(#cpMHw1MDR8NTA0fDA=)'><text x='267.86' y='498.52' style='font-size: 11.00px; font-family: Arial;' textLength='23.22px' lengthAdjust='spacingAndGlyphs'>HPD</text></g>
<g clip-path='url(#cpMHw1MDR8NTA0fDA=)'><text transform='translate(13.35,274.66) rotate(-90)' style='font-size: 11.00px; font-family: Arial;' textLength='51.35px' lengthAdjust='spacingAndGlyphs'>Parameter</text></g>
<g clip-path='url(#cpMHw1MDR8NTA0fDA=)'><text x='60.42' y='14.93' style='font-size: 13.20px; font-family: Arial;' textLength='137.22px' lengthAdjust='spacingAndGlyphs'>pos_interaction_S4.svg</text></g>
</svg>
