<?xml version='1.0' encoding='UTF-8' ?>
<svg xmlns='http://www.w3.org/2000/svg' xmlns:xlink='http://www.w3.org/1999/xlink' viewBox='0 0 504.00 504.00'>
<defs>
  <style type='text/css'><![CDATA[
    line, polyline, path, rect, circle {
      fill: none;
      stroke: #000000;
      stroke-linecap: round;
      stroke-linejoin: round;
      stroke-miterlimit: 10.00;
    }
  ]]></style>
</defs>
<rect width='100%' height='100%' style='stroke: none; fill: #FFFFFF;'/>
<rect x='0.00' y='-0.00' width='504.00' height='504.00' style='stroke-width: 1.07; stroke: #FFFFFF; fill: #FFFFFF;' />
<defs>
  <clipPath id='cpNjYuNzg3OXw0OTguNTIxfDQ3My45MzZ8MjQuMDI5'>
    <rect x='66.79' y='24.03' width='431.73' height='449.91' />
  </clipPath>
</defs>
<rect x='66.79' y='24.03' width='431.73' height='449.91' style='stroke-width: 1.07; stroke: none; fill: #FFFFFF;' clip-path='url(#cpNjYuNzg3OXw0OTguNTIxfDQ3My45MzZ8MjQuMDI5)' />
<polyline points='114.58,473.94 114.58,24.03 ' style='stroke-width: 0.53; stroke: #EBEBEB; stroke-linecap: butt;' clip-path='url(#cpNjYuNzg3OXw0OTguNTIxfDQ3My45MzZ8MjQuMDI5)' />
<polyline points='226.63,473.94 226.63,24.03 ' style='stroke-width: 0.53; stroke: #EBEBEB; stroke-linecap: butt;' clip-path='url(#cpNjYuNzg3OXw0OTguNTIxfDQ3My45MzZ8MjQuMDI5)' />
<polyline points='338.68,473.94 338.68,24.03 ' style='stroke-width: 0.53; stroke: #EBEBEB; stroke-linecap: butt;' clip-path='url(#cpNjYuNzg3OXw0OTguNTIxfDQ3My45MzZ8MjQuMDI5)' />
<polyline points='450.73,473.94 450.73,24.03 ' style='stroke-width: 0.53; stroke: #EBEBEB; stroke-linecap: butt;' clip-path='url(#cpNjYuNzg3OXw0OTguNTIxfDQ3My45MzZ8MjQuMDI5)' />
<polyline points='66.79,351.23 498.52,351.23 ' style='stroke-width: 1.07; stroke: #EBEBEB; stroke-linecap: butt;' clip-path='url(#cpNjYuNzg3OXw0OTguNTIxfDQ3My45MzZ8MjQuMDI5)' />
<polyline points='66.79,146.73 498.52,146.73 ' style='stroke-width: 1.07; stroke: #EBEBEB; stroke-linecap: butt;' clip-path='url(#cpNjYuNzg3OXw0OTguNTIxfDQ3My45MzZ8MjQuMDI5)' />
<polyline points='170.61,473.94 170.61,24.03 ' style='stroke-width: 1.07; stroke: #EBEBEB; stroke-linecap: butt;' clip-path='url(#cpNjYuNzg3OXw0OTguNTIxfDQ3My45MzZ8MjQuMDI5)' />
<polyline points='282.65,473.94 282.65,24.03 ' style='stroke-width: 1.07; stroke: #EBEBEB; stroke-linecap: butt;' clip-path='url(#cpNjYuNzg3OXw0OTguNTIxfDQ3My45MzZ8MjQuMDI5)' />
<polyline points='394.70,473.94 394.70,24.03 ' style='stroke-width: 1.07; stroke: #EBEBEB; stroke-linecap: butt;' clip-path='url(#cpNjYuNzg3OXw0OTguNTIxfDQ3My45MzZ8MjQuMDI5)' />
<circle cx='96.06' cy='351.23' r='3.56pt' style='stroke-width: 0.71; stroke: #A6A6A6; fill: #A6A6A6;' clip-path='url(#cpNjYuNzg3OXw0OTguNTIxfDQ3My45MzZ8MjQuMDI5)' />
<circle cx='469.25' cy='146.73' r='3.56pt' style='stroke-width: 0.71; stroke: #A6A6A6; fill: #A6A6A6;' clip-path='url(#cpNjYuNzg3OXw0OTguNTIxfDQ3My45MzZ8MjQuMDI5)' />
<line x1='87.93' y1='351.23' x2='104.19' y2='351.23' style='stroke-width: 3.20; stroke: #A6A6A6; stroke-linecap: butt;' clip-path='url(#cpNjYuNzg3OXw0OTguNTIxfDQ3My45MzZ8MjQuMDI5)' />
<line x1='461.12' y1='146.73' x2='477.38' y2='146.73' style='stroke-width: 3.20; stroke: #A6A6A6; stroke-linecap: butt;' clip-path='url(#cpNjYuNzg3OXw0OTguNTIxfDQ3My45MzZ8MjQuMDI5)' />
<line x1='86.41' y1='351.23' x2='105.80' y2='351.23' style='stroke-width: 1.07; stroke: #A6A6A6; stroke-linecap: butt;' clip-path='url(#cpNjYuNzg3OXw0OTguNTIxfDQ3My45MzZ8MjQuMDI5)' />
<line x1='459.50' y1='146.73' x2='478.90' y2='146.73' style='stroke-width: 1.07; stroke: #A6A6A6; stroke-linecap: butt;' clip-path='url(#cpNjYuNzg3OXw0OTguNTIxfDQ3My45MzZ8MjQuMDI5)' />
<line x1='282.65' y1='473.94' x2='282.65' y2='24.03' style='stroke-width: 1.07; stroke-dasharray: 1.42,4.27; stroke-linecap: butt;' clip-path='url(#cpNjYuNzg3OXw0OTguNTIxfDQ3My45MzZ8MjQuMDI5)' />
<rect x='66.79' y='24.03' width='431.73' height='449.91' style='stroke-width: 1.07; stroke: #333333;' clip-path='url(#cpNjYuNzg3OXw0OTguNTIxfDQ3My45MzZ8MjQuMDI5)' />
<defs>
  <clipPath id='cpMHw1MDR8NTA0fDA='>
    <rect x='0.00' y='0.00' width='504.00' height='504.00' />
  </clipPath>
</defs>
<g clip-path='url(#cpMHw1MDR8NTA0fDA=)'><text x='18.97' y='354.38' style='font-size: 8.80px; fill: #4D4D4D; font-family: Arial;' textLength='42.88px' lengthAdjust='spacingAndGlyphs'>P(S2/S3|0)</text></g>
<g clip-path='url(#cpMHw1MDR8NTA0fDA=)'><text x='18.97' y='149.88' style='font-size: 8.80px; fill: #4D4D4D; font-family: Arial;' textLength='42.88px' lengthAdjust='spacingAndGlyphs'>P(S2/S3|1)</text></g>
<polyline points='64.05,351.23 66.79,351.23 ' style='stroke-width: 1.07; stroke: #333333; stroke-linecap: butt;' clip-path='url(#cpMHw1MDR8NTA0fDA=)' />
<polyline points='64.05,146.73 66.79,146.73 ' style='stroke-width: 1.07; stroke: #333333; stroke-linecap: butt;' clip-path='url(#cpMHw1MDR8NTA0fDA=)' />
<polyline points='170.61,476.68 170.61,473.94 ' style='stroke-width: 1.07; stroke: #333333; stroke-linecap: butt;' clip-path='url(#cpMHw1MDR8NTA0fDA=)' />
<polyline points='282.65,476.68 282.65,473.94 ' style='stroke-width: 1.07; stroke: #333333; stroke-linecap: butt;' clip-path='url(#cpMHw1MDR8NTA0fDA=)' />
<polyline points='394.70,476.68 394.70,473.94 ' style='stroke-width: 1.07; stroke: #333333; stroke-linecap: butt;' clip-path='url(#cpMHw1MDR8NTA0fDA=)' />
<g clip-path='url(#cpMHw1MDR8NTA0fDA=)'><text x='163.02' y='485.17' style='font-size: 8.80px; fill: #4D4D4D; font-family: Arial;' textLength='15.16px' lengthAdjust='spacingAndGlyphs'>-0.2</text></g>
<g clip-path='url(#cpMHw1MDR8NTA0fDA=)'><text x='276.54' y='485.17' style='font-size: 8.80px; fill: #4D4D4D; font-family: Arial;' textLength='12.23px' lengthAdjust='spacingAndGlyphs'>0.0</text></g>
<g clip-path='url(#cpMHw1MDR8NTA0fDA=)'><text x='388.59' y='485.17' style='font-size: 8.80px; fill: #4D4D4D; font-family: Arial;' textLength='12.23px' lengthAdjust='spacingAndGlyphs'>0.2</text></g>
<g clip-path='url(#cpMHw1MDR8NTA0fDA=)'><text x='271.04' y='498.52' style='font-size: 11.00px; font-family: Arial;' textLength='23.22px' lengthAdjust='spacingAndGlyphs'>HPD</text></g>
<g clip-path='url(#cpMHw1MDR8NTA0fDA=)'><text transform='translate(13.35,274.66) rotate(-90)' style='font-size: 11.00px; font-family: Arial;' textLength='51.35px' lengthAdjust='spacingAndGlyphs'>Parameter</text></g>
<g clip-path='url(#cpMHw1MDR8NTA0fDA=)'><text x='66.79' y='14.93' style='font-size: 13.20px; font-family: Arial;' textLength='143.84px' lengthAdjust='spacingAndGlyphs'>pos_general_S2_S3.svg</text></g>
</svg>
