<?xml version="1.0" encoding="UTF-8"?>
<svg xmlns="http://www.w3.org/2000/svg" xmlns:xlink="http://www.w3.org/1999/xlink" width="504pt" height="288pt" viewBox="0 0 504 288" version="1.1">
<defs>
<g>
<symbol overflow="visible" id="glyph0-0">
<path style="stroke:none;" d=""/>
</symbol>
<symbol overflow="visible" id="glyph0-1">
<path style="stroke:none;" d="M 4.953125 0 L 5.109375 -0.71875 L 1.328125 -0.71875 L 1.796875 -2.921875 L 5.28125 -2.921875 L 5.4375 -3.640625 L 1.953125 -3.640625 L 2.390625 -5.6875 L 6.015625 -5.6875 L 6.171875 -6.40625 L 1.71875 -6.40625 L 0.359375 0 Z M 4.953125 0 "/>
</symbol>
<symbol overflow="visible" id="glyph0-2">
<path style="stroke:none;" d="M 5.015625 -4.71875 C 5.015625 -5.625 4.390625 -6.234375 3.328125 -6.234375 C 1.96875 -6.234375 1.203125 -5.5625 0.859375 -4.078125 L 1.625 -4.078125 C 1.890625 -5.078125 2.390625 -5.5625 3.21875 -5.5625 C 3.828125 -5.5625 4.234375 -5.1875 4.234375 -4.625 C 4.234375 -4.0625 3.8125 -3.515625 3.09375 -3.15625 L 2.171875 -2.703125 C 0.65625 -1.890625 0.25 -1.421875 -0.140625 0 L 4 0 L 4.171875 -0.765625 L 0.859375 -0.765625 C 1 -1.203125 1.484375 -1.625 2.28125 -2.015625 L 3.265625 -2.53125 C 4.4375 -3.109375 5.015625 -3.828125 5.015625 -4.71875 Z M 5.015625 -4.71875 "/>
</symbol>
<symbol overflow="visible" id="glyph0-3">
<path style="stroke:none;" d="M 4.328125 0 L 4.4375 -0.578125 C 4.359375 -0.546875 4.328125 -0.546875 4.296875 -0.546875 C 4.0625 -0.546875 3.953125 -0.640625 3.953125 -0.8125 C 3.953125 -0.84375 3.953125 -0.875 3.96875 -0.890625 L 4.5 -3.421875 C 4.5625 -3.65625 4.5625 -3.65625 4.5625 -3.75 C 4.5625 -4.34375 3.953125 -4.734375 3.03125 -4.734375 C 1.796875 -4.734375 1.0625 -4.21875 0.890625 -3.25 L 1.625 -3.25 C 1.796875 -3.8125 2.1875 -4.0625 2.828125 -4.0625 C 3.359375 -4.0625 3.765625 -3.828125 3.765625 -3.5 C 3.765625 -3.46875 3.75 -3.40625 3.75 -3.328125 L 3.71875 -3.171875 C 3.65625 -2.8125 3.453125 -2.703125 2.828125 -2.65625 C 1.65625 -2.546875 1.28125 -2.46875 0.859375 -2.1875 C 0.390625 -1.90625 0.140625 -1.46875 0.140625 -0.953125 C 0.140625 -0.25 0.625 0.125 1.421875 0.125 C 1.984375 0.125 2.5 0.046875 3.171875 -0.515625 L 3.171875 -0.375 C 3.171875 -0.015625 3.4375 0.078125 3.859375 0.078125 C 3.984375 0.078125 3.96875 0.0625 4.328125 0 Z M 3.53125 -2.265625 L 3.375 -1.515625 C 3.25 -0.96875 2.484375 -0.5 1.703125 -0.5 C 1.203125 -0.5 0.921875 -0.671875 0.921875 -1.046875 C 0.921875 -1.59375 1.3125 -1.875 2.25 -2.015625 C 3.0625 -2.125 3.140625 -2.140625 3.53125 -2.265625 Z M 3.53125 -2.265625 "/>
</symbol>
<symbol overflow="visible" id="glyph0-4">
<path style="stroke:none;" d="M 4.546875 -2.390625 C 4.546875 -3.296875 3.921875 -3.890625 2.96875 -3.890625 C 2.390625 -3.890625 1.90625 -3.65625 1.40625 -3.15625 C 1.65625 -4.640625 2.375 -5.5625 3.265625 -5.5625 C 3.828125 -5.5625 4.140625 -5.1875 4.15625 -4.65625 C 4.15625 -4.65625 4.15625 -4.625 4.15625 -4.609375 L 4.921875 -4.609375 C 4.9375 -4.703125 4.9375 -4.796875 4.9375 -4.84375 C 4.9375 -5.6875 4.328125 -6.234375 3.390625 -6.234375 C 2.5625 -6.234375 1.859375 -5.796875 1.296875 -4.921875 C 0.796875 -4.125 0.390625 -2.609375 0.390625 -1.5 C 0.390625 -0.484375 1.0625 0.125 2.09375 0.125 C 3.390625 0.125 4.546875 -1.015625 4.546875 -2.390625 Z M 3.765625 -2.25 C 3.765625 -1.265625 3.078125 -0.546875 2.203125 -0.546875 C 1.59375 -0.546875 1.15625 -0.9375 1.15625 -1.5625 C 1.15625 -2.5 1.859375 -3.203125 2.765625 -3.203125 C 3.359375 -3.203125 3.765625 -2.828125 3.765625 -2.25 Z M 3.765625 -2.25 "/>
</symbol>
<symbol overflow="visible" id="glyph0-5">
<path style="stroke:none;" d="M 4.109375 -1.578125 L 3.375 -1.578125 C 3.109375 -0.859375 2.640625 -0.546875 2.015625 -0.546875 C 1.40625 -0.546875 1.015625 -0.9375 1.015625 -1.625 C 1.015625 -2.875 1.71875 -4.0625 2.78125 -4.0625 C 3.328125 -4.0625 3.671875 -3.75 3.671875 -3.25 C 3.671875 -3.203125 3.671875 -3.140625 3.671875 -3.0625 L 4.40625 -3.0625 L 4.421875 -3.1875 C 4.421875 -3.328125 4.4375 -3.421875 4.4375 -3.453125 C 4.4375 -4.109375 3.84375 -4.734375 2.90625 -4.734375 C 1.296875 -4.734375 0.234375 -3.390625 0.234375 -1.53125 C 0.234375 -0.578125 0.875 0.125 1.890625 0.125 C 3.03125 0.125 3.75 -0.328125 4.109375 -1.578125 Z M 4.109375 -1.578125 "/>
</symbol>
<symbol overflow="visible" id="glyph0-6">
<path style="stroke:none;" d="M 3.9375 -6.234375 L 3.4375 -6.234375 C 2.953125 -5.28125 2.765625 -5.171875 1.5 -5 L 1.390625 -4.4375 L 2.78125 -4.4375 L 1.84375 0 L 2.609375 0 Z M 3.9375 -6.234375 "/>
</symbol>
<symbol overflow="visible" id="glyph0-7">
<path style="stroke:none;" d="M 4.734375 -3.015625 C 4.734375 -4 4.0625 -4.734375 3.171875 -4.734375 C 2.546875 -4.734375 2.203125 -4.59375 1.625 -4 L 2.140625 -6.40625 L 1.40625 -6.40625 L 0.03125 0 L 0.6875 0 L 0.859375 -0.71875 C 1.125 -0.125 1.53125 0.125 2.15625 0.125 C 3.734375 0.125 4.734375 -1.453125 4.734375 -3.015625 Z M 3.953125 -2.84375 C 3.953125 -1.546875 3.125 -0.546875 2.1875 -0.546875 C 1.578125 -0.546875 1.203125 -0.953125 1.203125 -1.640625 C 1.203125 -3.03125 2.015625 -4.0625 2.921875 -4.0625 C 3.578125 -4.0625 3.953125 -3.609375 3.953125 -2.84375 Z M 3.953125 -2.84375 "/>
</symbol>
<symbol overflow="visible" id="glyph1-0">
<path style="stroke:none;" d=""/>
</symbol>
<symbol overflow="visible" id="glyph1-1">
<path style="stroke:none;" d="M 5.484375 0 L 5.484375 -1.09375 L 2.015625 -1.09375 L 2.015625 -2.765625 L 5.078125 -2.765625 L 5.078125 -3.859375 L 2.015625 -3.859375 L 2.015625 -5.3125 L 5.328125 -5.3125 L 5.328125 -6.40625 L 0.6875 -6.40625 L 0.6875 0 Z M 5.484375 0 "/>
</symbol>
<symbol overflow="visible" id="glyph1-2">
<path style="stroke:none;" d="M 4.5625 -2.140625 C 4.5625 -3.34375 3.828125 -4.109375 2.75 -4.109375 C 2.25 -4.109375 1.90625 -3.953125 1.515625 -3.546875 C 1.5625 -4.8125 1.78125 -5.375 2.546875 -5.375 C 2.953125 -5.375 3.15625 -5.21875 3.3125 -4.828125 L 4.453125 -4.828125 C 4.296875 -5.84375 3.609375 -6.375 2.59375 -6.375 C 1.078125 -6.375 0.28125 -5.203125 0.28125 -2.96875 C 0.28125 -1.890625 0.40625 -1.28125 0.734375 -0.78125 C 1.09375 -0.203125 1.734375 0.078125 2.484375 0.078125 C 3.71875 0.078125 4.5625 -0.796875 4.5625 -2.140625 Z M 3.390625 -2.0625 C 3.390625 -1.40625 2.984375 -0.96875 2.453125 -0.96875 C 1.875 -0.96875 1.5 -1.375 1.5 -2.046875 C 1.5 -2.734375 1.875 -3.140625 2.453125 -3.140625 C 3.03125 -3.140625 3.390625 -2.75 3.390625 -2.0625 Z M 3.390625 -2.0625 "/>
</symbol>
<symbol overflow="visible" id="glyph1-3">
<path style="stroke:none;" d="M 4.609375 0 L 4.609375 -0.15625 C 4.390625 -0.359375 4.328125 -0.484375 4.328125 -0.734375 L 4.328125 -3.375 C 4.328125 -4.34375 3.671875 -4.828125 2.390625 -4.828125 C 1.09375 -4.828125 0.4375 -4.28125 0.359375 -3.1875 L 1.546875 -3.1875 C 1.59375 -3.671875 1.796875 -3.828125 2.40625 -3.828125 C 2.890625 -3.828125 3.125 -3.671875 3.125 -3.359375 C 3.125 -2.859375 2.75 -2.90625 2.140625 -2.8125 L 1.640625 -2.71875 C 0.703125 -2.546875 0.25 -2.140625 0.25 -1.28125 C 0.25 -0.359375 0.890625 0.078125 1.6875 0.078125 C 2.21875 0.078125 2.703125 -0.15625 3.125 -0.59375 C 3.125 -0.359375 3.15625 -0.140625 3.265625 0 Z M 3.125 -2.03125 C 3.125 -1.3125 2.765625 -0.921875 2.140625 -0.921875 C 1.734375 -0.921875 1.484375 -1.078125 1.484375 -1.421875 C 1.484375 -1.78125 1.671875 -1.921875 2.1875 -2.015625 L 2.609375 -2.09375 C 2.921875 -2.15625 2.984375 -2.171875 3.125 -2.25 Z M 3.125 -2.03125 "/>
</symbol>
<symbol overflow="visible" id="glyph1-4">
<path style="stroke:none;" d="M 5.0625 -2.3125 C 5.0625 -3.65625 4.3125 -4.828125 3.0625 -4.828125 C 2.46875 -4.828125 2.046875 -4.609375 1.75 -4.140625 L 1.75 -6.40625 L 0.515625 -6.40625 L 0.515625 0 L 1.75 0 L 1.75 -0.546875 C 2.046875 -0.140625 2.46875 0.078125 3.0625 0.078125 C 4.203125 0.078125 5.0625 -0.875 5.0625 -2.3125 Z M 3.828125 -2.359375 C 3.828125 -1.5 3.390625 -0.953125 2.78125 -0.953125 C 2.15625 -0.953125 1.75 -1.484375 1.75 -2.390625 C 1.75 -3.25 2.171875 -3.796875 2.78125 -3.796875 C 3.390625 -3.796875 3.828125 -3.25 3.828125 -2.359375 Z M 3.828125 -2.359375 "/>
</symbol>
<symbol overflow="visible" id="glyph2-0">
<path style="stroke:none;" d=""/>
</symbol>
<symbol overflow="visible" id="glyph2-1">
<path style="stroke:none;" d="M 4.453125 -3 C 4.453125 -5.15625 3.78125 -6.234375 2.421875 -6.234375 C 1.078125 -6.234375 0.375 -5.140625 0.375 -3.046875 C 0.375 -0.953125 1.078125 0.125 2.421875 0.125 C 3.734375 0.125 4.453125 -0.953125 4.453125 -3 Z M 3.671875 -3.0625 C 3.671875 -1.296875 3.265625 -0.515625 2.40625 -0.515625 C 1.578125 -0.515625 1.171875 -1.34375 1.171875 -3.046875 C 1.171875 -4.75 1.578125 -5.546875 2.421875 -5.546875 C 3.25 -5.546875 3.671875 -4.734375 3.671875 -3.0625 Z M 3.671875 -3.0625 "/>
</symbol>
<symbol overflow="visible" id="glyph2-2">
<path style="stroke:none;" d="M 3.046875 0 L 3.046875 -6.234375 L 2.546875 -6.234375 C 2.265625 -5.28125 2.09375 -5.140625 0.890625 -5 L 0.890625 -4.4375 L 2.28125 -4.4375 L 2.28125 0 Z M 3.046875 0 "/>
</symbol>
<symbol overflow="visible" id="glyph2-3">
<path style="stroke:none;" d="M 4.5 -4.40625 C 4.5 -5.46875 3.671875 -6.234375 2.5 -6.234375 C 1.21875 -6.234375 0.484375 -5.59375 0.4375 -4.078125 L 1.21875 -4.078125 C 1.28125 -5.125 1.703125 -5.5625 2.46875 -5.5625 C 3.171875 -5.5625 3.703125 -5.0625 3.703125 -4.390625 C 3.703125 -3.890625 3.40625 -3.46875 2.859375 -3.15625 L 2.046875 -2.703125 C 0.75 -1.96875 0.375 -1.375 0.296875 0 L 4.453125 0 L 4.453125 -0.765625 L 1.171875 -0.765625 C 1.25 -1.28125 1.53125 -1.59375 2.296875 -2.046875 L 3.171875 -2.53125 C 4.046875 -2.984375 4.5 -3.640625 4.5 -4.40625 Z M 4.5 -4.40625 "/>
</symbol>
<symbol overflow="visible" id="glyph2-4">
<path style="stroke:none;" d="M 4.453125 -1.8125 C 4.453125 -2.5625 4.140625 -3.015625 3.390625 -3.265625 C 3.96875 -3.5 4.265625 -3.890625 4.265625 -4.515625 C 4.265625 -5.59375 3.546875 -6.234375 2.359375 -6.234375 C 1.109375 -6.234375 0.4375 -5.546875 0.40625 -4.21875 L 1.1875 -4.21875 C 1.203125 -5.140625 1.578125 -5.5625 2.375 -5.5625 C 3.0625 -5.5625 3.46875 -5.15625 3.46875 -4.5 C 3.46875 -3.828125 3.1875 -3.546875 1.9375 -3.546875 L 1.9375 -2.90625 L 2.359375 -2.90625 C 3.21875 -2.90625 3.65625 -2.5 3.65625 -1.796875 C 3.65625 -1.015625 3.171875 -0.546875 2.359375 -0.546875 C 1.515625 -0.546875 1.109375 -0.96875 1.0625 -1.875 L 0.28125 -1.875 C 0.375 -0.5 1.0625 0.125 2.34375 0.125 C 3.625 0.125 4.453125 -0.640625 4.453125 -1.8125 Z M 4.453125 -1.8125 "/>
</symbol>
<symbol overflow="visible" id="glyph2-5">
<path style="stroke:none;" d="M 2.265625 -4.015625 L 2.265625 -4.609375 L 1.5 -4.609375 L 1.5 -5.328125 C 1.5 -5.640625 1.6875 -5.796875 2.015625 -5.796875 C 2.078125 -5.796875 2.109375 -5.796875 2.265625 -5.78125 L 2.265625 -6.390625 C 2.109375 -6.4375 2 -6.4375 1.859375 -6.4375 C 1.171875 -6.4375 0.78125 -6.046875 0.78125 -5.390625 L 0.78125 -4.609375 L 0.15625 -4.609375 L 0.15625 -4.015625 L 0.78125 -4.015625 L 0.78125 0 L 1.5 0 L 1.5 -4.015625 Z M 3.78125 0 L 3.78125 -4.609375 L 3.046875 -4.609375 L 3.046875 0 Z M 3.875 -5.296875 L 3.875 -6.21875 L 2.953125 -6.21875 L 2.953125 -5.296875 Z M 3.875 -5.296875 "/>
</symbol>
<symbol overflow="visible" id="glyph2-6">
<path style="stroke:none;" d="M 2.828125 -3.96875 L 2.828125 -4.71875 C 2.703125 -4.734375 2.640625 -4.734375 2.546875 -4.734375 C 2.0625 -4.734375 1.703125 -4.453125 1.28125 -3.78125 L 1.28125 -4.609375 L 0.609375 -4.609375 L 0.609375 0 L 1.34375 0 L 1.34375 -2.390625 C 1.34375 -3.4375 1.6875 -3.953125 2.828125 -3.96875 Z M 2.828125 -3.96875 "/>
</symbol>
<symbol overflow="visible" id="glyph2-7">
<path style="stroke:none;" d="M 4.234375 0 L 4.234375 -4.609375 L 3.515625 -4.609375 L 3.515625 -2.0625 C 3.515625 -1.125 3.015625 -0.515625 2.25 -0.515625 C 1.671875 -0.515625 1.296875 -0.859375 1.296875 -1.421875 L 1.296875 -4.609375 L 0.578125 -4.609375 L 0.578125 -1.125 C 0.578125 -0.359375 1.140625 0.125 2.046875 0.125 C 2.71875 0.125 3.15625 -0.109375 3.578125 -0.71875 L 3.578125 0 Z M 4.234375 0 "/>
</symbol>
<symbol overflow="visible" id="glyph3-0">
<path style="stroke:none;" d=""/>
</symbol>
<symbol overflow="visible" id="glyph3-1">
<path style="stroke:none;" d="M 5.34375 -5.765625 L 4.3125 -5.765625 L 2.6875 -1.09375 L 1.140625 -5.765625 L 0.109375 -5.765625 L 2.140625 0 L 3.140625 0 Z M 5.34375 -5.765625 "/>
</symbol>
<symbol overflow="visible" id="glyph3-2">
<path style="stroke:none;" d="M 5.890625 -0.015625 L 5.890625 -0.71875 C 5.78125 -0.6875 5.734375 -0.6875 5.6875 -0.6875 C 5.375 -0.6875 5.1875 -0.859375 5.1875 -1.140625 L 5.1875 -4.359375 C 5.1875 -5.375 4.4375 -5.921875 3.03125 -5.921875 C 1.625 -5.921875 0.765625 -5.390625 0.71875 -4.0625 L 1.640625 -4.0625 C 1.71875 -4.765625 2.140625 -5.078125 2.984375 -5.078125 C 3.8125 -5.078125 4.28125 -4.78125 4.28125 -4.21875 L 4.28125 -3.984375 C 4.28125 -3.59375 4.046875 -3.4375 3.328125 -3.34375 C 2.03125 -3.171875 1.828125 -3.140625 1.46875 -2.984375 C 0.796875 -2.71875 0.46875 -2.203125 0.46875 -1.5 C 0.46875 -0.453125 1.1875 0.171875 2.359375 0.171875 C 3.09375 0.171875 3.8125 -0.140625 4.3125 -0.6875 C 4.40625 -0.234375 4.8125 0.078125 5.265625 0.078125 C 5.4375 0.078125 5.59375 0.0625 5.890625 -0.015625 Z M 4.28125 -1.984375 C 4.28125 -1.171875 3.4375 -0.640625 2.546875 -0.640625 C 1.84375 -0.640625 1.421875 -0.890625 1.421875 -1.515625 C 1.421875 -2.125 1.828125 -2.390625 2.8125 -2.53125 C 3.765625 -2.65625 3.96875 -2.703125 4.28125 -2.84375 Z M 4.28125 -1.984375 "/>
</symbol>
<symbol overflow="visible" id="glyph3-3">
<path style="stroke:none;" d="M 1.65625 0 L 1.65625 -8.015625 L 0.75 -8.015625 L 0.75 0 Z M 1.65625 0 "/>
</symbol>
<symbol overflow="visible" id="glyph3-4">
<path style="stroke:none;" d="M 5.296875 0 L 5.296875 -5.765625 L 4.390625 -5.765625 L 4.390625 -2.578125 C 4.390625 -1.40625 3.765625 -0.640625 2.8125 -0.640625 C 2.09375 -0.640625 1.625 -1.078125 1.625 -1.765625 L 1.625 -5.765625 L 0.71875 -5.765625 L 0.71875 -1.40625 C 0.71875 -0.453125 1.4375 0.171875 2.546875 0.171875 C 3.40625 0.171875 3.9375 -0.125 4.484375 -0.890625 L 4.484375 0 Z M 5.296875 0 "/>
</symbol>
<symbol overflow="visible" id="glyph3-5">
<path style="stroke:none;" d="M 5.640625 -2.625 C 5.640625 -3.453125 5.578125 -3.984375 5.40625 -4.40625 C 5.03125 -5.359375 4.15625 -5.921875 3.078125 -5.921875 C 1.46875 -5.921875 0.4375 -4.734375 0.4375 -2.84375 C 0.4375 -0.953125 1.4375 0.171875 3.0625 0.171875 C 4.375 0.171875 5.296875 -0.578125 5.515625 -1.75 L 4.59375 -1.75 C 4.34375 -0.984375 3.828125 -0.6875 3.09375 -0.6875 C 2.140625 -0.6875 1.421875 -1.296875 1.390625 -2.625 Z M 4.65625 -3.4375 C 4.65625 -3.4375 4.65625 -3.390625 4.65625 -3.359375 L 1.421875 -3.359375 C 1.5 -4.390625 2.140625 -5.078125 3.0625 -5.078125 C 3.96875 -5.078125 4.65625 -4.328125 4.65625 -3.4375 Z M 4.65625 -3.4375 "/>
</symbol>
<symbol overflow="visible" id="glyph3-6">
<path style="stroke:none;" d="M 3.53125 -4.96875 L 3.53125 -5.890625 C 3.375 -5.921875 3.296875 -5.921875 3.171875 -5.921875 C 2.578125 -5.921875 2.140625 -5.578125 1.609375 -4.71875 L 1.609375 -5.765625 L 0.765625 -5.765625 L 0.765625 0 L 1.6875 0 L 1.6875 -2.984375 C 1.6875 -4.296875 2.109375 -4.9375 3.53125 -4.96875 Z M 3.53125 -4.96875 "/>
</symbol>
<symbol overflow="visible" id="glyph3-7">
<path style="stroke:none;" d="M 1.6875 0 L 1.6875 -5.765625 L 0.765625 -5.765625 L 0.765625 0 Z M 1.796875 -6.640625 L 1.796875 -7.78125 L 0.65625 -7.78125 L 0.65625 -6.640625 Z M 1.796875 -6.640625 "/>
</symbol>
<symbol overflow="visible" id="glyph3-8">
<path style="stroke:none;" d="M 5.75 -2.953125 C 5.75 -4.8125 4.8125 -5.921875 3.28125 -5.921875 C 2.5 -5.921875 1.9375 -5.625 1.5 -4.984375 L 1.5 -8.015625 L 0.59375 -8.015625 L 0.59375 0 L 1.421875 0 L 1.421875 -0.828125 C 1.859375 -0.15625 2.4375 0.171875 3.25 0.171875 C 4.765625 0.171875 5.75 -1.078125 5.75 -2.953125 Z M 4.796875 -2.890625 C 4.796875 -1.578125 4.109375 -0.6875 3.109375 -0.6875 C 2.140625 -0.6875 1.5 -1.578125 1.5 -2.875 C 1.5 -4.234375 2.140625 -5.109375 3.109375 -5.078125 C 4.140625 -5.078125 4.796875 -4.1875 4.796875 -2.890625 Z M 4.796875 -2.890625 "/>
</symbol>
<symbol overflow="visible" id="glyph4-0">
<path style="stroke:none;" d=""/>
</symbol>
<symbol overflow="visible" id="glyph4-1">
<path style="stroke:none;" d="M -0.953125 -5.375 L -5.765625 -5.375 L -5.765625 -4.53125 L -4.921875 -4.53125 C -5.609375 -4.0625 -5.921875 -3.515625 -5.921875 -2.765625 C -5.921875 -1.3125 -4.703125 -0.3125 -2.828125 -0.3125 C -1.015625 -0.3125 0.171875 -1.34375 0.171875 -2.6875 C 0.171875 -3.421875 -0.140625 -3.921875 -0.875 -4.53125 L -0.484375 -4.53125 C 1.046875 -4.53125 1.625 -3.90625 1.625 -2.84375 C 1.625 -2.109375 1.359375 -1.546875 0.65625 -1.4375 L 0.65625 -0.5 C 1.75 -0.609375 2.390625 -1.453125 2.390625 -2.8125 C 2.390625 -4.609375 1.59375 -5.375 -0.953125 -5.375 Z M -2.84375 -4.4375 C -1.46875 -4.4375 -0.6875 -3.84375 -0.6875 -2.875 C -0.6875 -1.875 -1.484375 -1.28125 -2.875 -1.28125 C -4.265625 -1.28125 -5.078125 -1.890625 -5.078125 -2.875 C -5.078125 -3.859375 -4.25 -4.4375 -2.84375 -4.4375 Z M -2.84375 -4.4375 "/>
</symbol>
<symbol overflow="visible" id="glyph4-2">
<path style="stroke:none;" d="M -4.96875 -3.53125 L -5.890625 -3.53125 C -5.921875 -3.375 -5.921875 -3.296875 -5.921875 -3.171875 C -5.921875 -2.578125 -5.578125 -2.140625 -4.71875 -1.609375 L -5.765625 -1.609375 L -5.765625 -0.765625 L 0 -0.765625 L 0 -1.6875 L -2.984375 -1.6875 C -4.296875 -1.6875 -4.9375 -2.109375 -4.96875 -3.53125 Z M -4.96875 -3.53125 "/>
</symbol>
<symbol overflow="visible" id="glyph4-3">
<path style="stroke:none;" d="M -2.84375 -5.609375 C -4.828125 -5.609375 -5.921875 -4.65625 -5.921875 -2.984375 C -5.921875 -1.375 -4.8125 -0.390625 -2.875 -0.390625 C -0.953125 -0.390625 0.171875 -1.359375 0.171875 -3 C 0.171875 -4.625 -0.953125 -5.609375 -2.84375 -5.609375 Z M -2.84375 -4.65625 C -1.5 -4.65625 -0.6875 -4.015625 -0.6875 -3 C -0.6875 -1.984375 -1.484375 -1.359375 -2.875 -1.359375 C -4.265625 -1.359375 -5.078125 -1.984375 -5.078125 -3 C -5.078125 -4.03125 -4.28125 -4.65625 -2.84375 -4.65625 Z M -2.84375 -4.65625 "/>
</symbol>
<symbol overflow="visible" id="glyph4-4">
<path style="stroke:none;" d="M 0 -5.296875 L -5.765625 -5.296875 L -5.765625 -4.390625 L -2.578125 -4.390625 C -1.40625 -4.390625 -0.640625 -3.765625 -0.640625 -2.8125 C -0.640625 -2.09375 -1.078125 -1.625 -1.765625 -1.625 L -5.765625 -1.625 L -5.765625 -0.71875 L -1.40625 -0.71875 C -0.453125 -0.71875 0.171875 -1.4375 0.171875 -2.546875 C 0.171875 -3.40625 -0.125 -3.9375 -0.890625 -4.484375 L 0 -4.484375 Z M 0 -5.296875 "/>
</symbol>
<symbol overflow="visible" id="glyph4-5">
<path style="stroke:none;" d="M -2.828125 -5.75 C -4.765625 -5.75 -5.921875 -4.8125 -5.921875 -3.28125 C -5.921875 -2.5 -5.578125 -1.875 -4.890625 -1.4375 L -5.765625 -1.4375 L -5.765625 -0.609375 L 2.390625 -0.609375 L 2.390625 -1.515625 L -0.6875 -1.515625 C -0.09375 -2 0.171875 -2.546875 0.171875 -3.28125 C 0.171875 -4.78125 -0.984375 -5.75 -2.828125 -5.75 Z M -2.84375 -4.796875 C -1.546875 -4.796875 -0.6875 -4.125 -0.6875 -3.125 C -0.6875 -2.15625 -1.484375 -1.515625 -2.84375 -1.515625 C -4.1875 -1.515625 -5.078125 -2.15625 -5.078125 -3.125 C -5.078125 -4.140625 -4.21875 -4.796875 -2.84375 -4.796875 Z M -2.84375 -4.796875 "/>
</symbol>
</g>
<clipPath id="clip1">
  <path d="M 44.53125 5.480469 L 438 5.480469 L 438 256 L 44.53125 256 Z M 44.53125 5.480469 "/>
</clipPath>
<clipPath id="clip2">
  <path d="M 115 5.480469 L 116 5.480469 L 116 256.929688 L 115 256.929688 Z M 115 5.480469 "/>
</clipPath>
<clipPath id="clip3">
  <path d="M 221 5.480469 L 222 5.480469 L 222 256.929688 L 221 256.929688 Z M 221 5.480469 "/>
</clipPath>
<clipPath id="clip4">
  <path d="M 327 5.480469 L 328 5.480469 L 328 256.929688 L 327 256.929688 Z M 327 5.480469 "/>
</clipPath>
<clipPath id="clip5">
  <path d="M 432 5.480469 L 434 5.480469 L 434 256.929688 L 432 256.929688 Z M 432 5.480469 "/>
</clipPath>
<clipPath id="clip6">
  <path d="M 44.53125 231 L 438.664062 231 L 438.664062 233 L 44.53125 233 Z M 44.53125 231 "/>
</clipPath>
<clipPath id="clip7">
  <path d="M 44.53125 190 L 438.664062 190 L 438.664062 192 L 44.53125 192 Z M 44.53125 190 "/>
</clipPath>
<clipPath id="clip8">
  <path d="M 44.53125 150 L 438.664062 150 L 438.664062 152 L 44.53125 152 Z M 44.53125 150 "/>
</clipPath>
<clipPath id="clip9">
  <path d="M 44.53125 109 L 438.664062 109 L 438.664062 112 L 44.53125 112 Z M 44.53125 109 "/>
</clipPath>
<clipPath id="clip10">
  <path d="M 44.53125 69 L 438.664062 69 L 438.664062 71 L 44.53125 71 Z M 44.53125 69 "/>
</clipPath>
<clipPath id="clip11">
  <path d="M 44.53125 29 L 438.664062 29 L 438.664062 31 L 44.53125 31 Z M 44.53125 29 "/>
</clipPath>
<clipPath id="clip12">
  <path d="M 61 5.480469 L 63 5.480469 L 63 256.929688 L 61 256.929688 Z M 61 5.480469 "/>
</clipPath>
<clipPath id="clip13">
  <path d="M 167 5.480469 L 169 5.480469 L 169 256.929688 L 167 256.929688 Z M 167 5.480469 "/>
</clipPath>
<clipPath id="clip14">
  <path d="M 273 5.480469 L 275 5.480469 L 275 256.929688 L 273 256.929688 Z M 273 5.480469 "/>
</clipPath>
<clipPath id="clip15">
  <path d="M 379 5.480469 L 381 5.480469 L 381 256.929688 L 379 256.929688 Z M 379 5.480469 "/>
</clipPath>
<clipPath id="clip16">
  <path d="M 44.53125 5.480469 L 438.664062 5.480469 L 438.664062 256.929688 L 44.53125 256.929688 Z M 44.53125 5.480469 "/>
</clipPath>
</defs>
<g id="surface816">
<rect x="0" y="0" width="504" height="288" style="fill:rgb(100%,100%,100%);fill-opacity:1;stroke:none;"/>
<rect x="0" y="0" width="504" height="288" style="fill:rgb(100%,100%,100%);fill-opacity:1;stroke:none;"/>
<path style="fill:none;stroke-width:1.066978;stroke-linecap:round;stroke-linejoin:round;stroke:rgb(100%,100%,100%);stroke-opacity:1;stroke-miterlimit:10;" d="M 0 288 L 504 288 L 504 0 L 0 0 Z M 0 288 "/>
<g clip-path="url(#clip1)" clip-rule="nonzero">
<path style=" stroke:none;fill-rule:nonzero;fill:rgb(100%,100%,100%);fill-opacity:1;" d="M 44.53125 255.929688 L 437.664062 255.929688 L 437.664062 5.480469 L 44.53125 5.480469 Z M 44.53125 255.929688 "/>
</g>
<g clip-path="url(#clip2)" clip-rule="nonzero">
<path style="fill:none;stroke-width:0.533489;stroke-linecap:butt;stroke-linejoin:round;stroke:rgb(92.156863%,92.156863%,92.156863%);stroke-opacity:1;stroke-miterlimit:10;" d="M 115.378906 255.929688 L 115.378906 5.480469 "/>
</g>
<g clip-path="url(#clip3)" clip-rule="nonzero">
<path style="fill:none;stroke-width:0.533489;stroke-linecap:butt;stroke-linejoin:round;stroke:rgb(92.156863%,92.156863%,92.156863%);stroke-opacity:1;stroke-miterlimit:10;" d="M 221.335938 255.929688 L 221.335938 5.480469 "/>
</g>
<g clip-path="url(#clip4)" clip-rule="nonzero">
<path style="fill:none;stroke-width:0.533489;stroke-linecap:butt;stroke-linejoin:round;stroke:rgb(92.156863%,92.156863%,92.156863%);stroke-opacity:1;stroke-miterlimit:10;" d="M 327.292969 255.929688 L 327.292969 5.480469 "/>
</g>
<g clip-path="url(#clip5)" clip-rule="nonzero">
<path style="fill:none;stroke-width:0.533489;stroke-linecap:butt;stroke-linejoin:round;stroke:rgb(92.156863%,92.156863%,92.156863%);stroke-opacity:1;stroke-miterlimit:10;" d="M 433.25 255.929688 L 433.25 5.480469 "/>
</g>
<g clip-path="url(#clip6)" clip-rule="nonzero">
<path style="fill:none;stroke-width:1.066978;stroke-linecap:butt;stroke-linejoin:round;stroke:rgb(92.156863%,92.156863%,92.156863%);stroke-opacity:1;stroke-miterlimit:10;" d="M 44.53125 231.691406 L 437.664062 231.691406 "/>
</g>
<g clip-path="url(#clip7)" clip-rule="nonzero">
<path style="fill:none;stroke-width:1.066978;stroke-linecap:butt;stroke-linejoin:round;stroke:rgb(92.156863%,92.156863%,92.156863%);stroke-opacity:1;stroke-miterlimit:10;" d="M 44.53125 191.296875 L 437.664062 191.296875 "/>
</g>
<g clip-path="url(#clip8)" clip-rule="nonzero">
<path style="fill:none;stroke-width:1.066978;stroke-linecap:butt;stroke-linejoin:round;stroke:rgb(92.156863%,92.156863%,92.156863%);stroke-opacity:1;stroke-miterlimit:10;" d="M 44.53125 150.902344 L 437.664062 150.902344 "/>
</g>
<g clip-path="url(#clip9)" clip-rule="nonzero">
<path style="fill:none;stroke-width:1.066978;stroke-linecap:butt;stroke-linejoin:round;stroke:rgb(92.156863%,92.156863%,92.156863%);stroke-opacity:1;stroke-miterlimit:10;" d="M 44.53125 110.507812 L 437.664062 110.507812 "/>
</g>
<g clip-path="url(#clip10)" clip-rule="nonzero">
<path style="fill:none;stroke-width:1.066978;stroke-linecap:butt;stroke-linejoin:round;stroke:rgb(92.156863%,92.156863%,92.156863%);stroke-opacity:1;stroke-miterlimit:10;" d="M 44.53125 70.113281 L 437.664062 70.113281 "/>
</g>
<g clip-path="url(#clip11)" clip-rule="nonzero">
<path style="fill:none;stroke-width:1.066978;stroke-linecap:butt;stroke-linejoin:round;stroke:rgb(92.156863%,92.156863%,92.156863%);stroke-opacity:1;stroke-miterlimit:10;" d="M 44.53125 29.714844 L 437.664062 29.714844 "/>
</g>
<g clip-path="url(#clip12)" clip-rule="nonzero">
<path style="fill:none;stroke-width:1.066978;stroke-linecap:butt;stroke-linejoin:round;stroke:rgb(92.156863%,92.156863%,92.156863%);stroke-opacity:1;stroke-miterlimit:10;" d="M 62.398438 255.929688 L 62.398438 5.480469 "/>
</g>
<g clip-path="url(#clip13)" clip-rule="nonzero">
<path style="fill:none;stroke-width:1.066978;stroke-linecap:butt;stroke-linejoin:round;stroke:rgb(92.156863%,92.156863%,92.156863%);stroke-opacity:1;stroke-miterlimit:10;" d="M 168.355469 255.929688 L 168.355469 5.480469 "/>
</g>
<g clip-path="url(#clip14)" clip-rule="nonzero">
<path style="fill:none;stroke-width:1.066978;stroke-linecap:butt;stroke-linejoin:round;stroke:rgb(92.156863%,92.156863%,92.156863%);stroke-opacity:1;stroke-miterlimit:10;" d="M 274.3125 255.929688 L 274.3125 5.480469 "/>
</g>
<g clip-path="url(#clip15)" clip-rule="nonzero">
<path style="fill:none;stroke-width:1.066978;stroke-linecap:butt;stroke-linejoin:round;stroke:rgb(92.156863%,92.156863%,92.156863%);stroke-opacity:1;stroke-miterlimit:10;" d="M 380.269531 255.929688 L 380.269531 5.480469 "/>
</g>
<path style=" stroke:none;fill-rule:nonzero;fill:rgb(90.196078%,90.196078%,90.196078%);fill-opacity:1;" d="M 62.398438 231.691406 L 75.324219 231.691406 L 75.324219 213.511719 L 62.398438 213.511719 Z M 62.398438 231.691406 "/>
<path style=" stroke:none;fill-rule:nonzero;fill:rgb(50.196078%,50.196078%,50.196078%);fill-opacity:1;" d="M 62.398438 249.871094 L 82.105469 249.871094 L 82.105469 231.691406 L 62.398438 231.691406 Z M 62.398438 249.871094 "/>
<path style=" stroke:none;fill-rule:nonzero;fill:rgb(90.196078%,90.196078%,90.196078%);fill-opacity:1;" d="M 62.398438 191.296875 L 115.695312 191.296875 L 115.695312 173.117188 L 62.398438 173.117188 Z M 62.398438 191.296875 "/>
<path style=" stroke:none;fill-rule:nonzero;fill:rgb(50.196078%,50.196078%,50.196078%);fill-opacity:1;" d="M 62.398438 209.476562 L 138.476562 209.476562 L 138.476562 191.296875 L 62.398438 191.296875 Z M 62.398438 209.476562 "/>
<path style=" stroke:none;fill-rule:nonzero;fill:rgb(90.196078%,90.196078%,90.196078%);fill-opacity:1;" d="M 62.398438 150.902344 L 123.535156 150.902344 L 123.535156 132.722656 L 62.398438 132.722656 Z M 62.398438 150.902344 "/>
<path style=" stroke:none;fill-rule:nonzero;fill:rgb(50.196078%,50.196078%,50.196078%);fill-opacity:1;" d="M 62.398438 169.078125 L 181.386719 169.078125 L 181.386719 150.898438 L 62.398438 150.898438 Z M 62.398438 169.078125 "/>
<path style=" stroke:none;fill-rule:nonzero;fill:rgb(90.196078%,90.196078%,90.196078%);fill-opacity:1;" d="M 62.398438 110.507812 L 127.5625 110.507812 L 127.5625 92.328125 L 62.398438 92.328125 Z M 62.398438 110.507812 "/>
<path style=" stroke:none;fill-rule:nonzero;fill:rgb(50.196078%,50.196078%,50.196078%);fill-opacity:1;" d="M 62.398438 128.683594 L 75.21875 128.683594 L 75.21875 110.503906 L 62.398438 110.503906 Z M 62.398438 128.683594 "/>
<path style=" stroke:none;fill-rule:nonzero;fill:rgb(90.196078%,90.196078%,90.196078%);fill-opacity:1;" d="M 62.398438 70.113281 L 275.054688 70.113281 L 275.054688 51.933594 L 62.398438 51.933594 Z M 62.398438 70.113281 "/>
<path style=" stroke:none;fill-rule:nonzero;fill:rgb(50.196078%,50.196078%,50.196078%);fill-opacity:1;" d="M 62.398438 88.289062 L 168.671875 88.289062 L 168.671875 70.109375 L 62.398438 70.109375 Z M 62.398438 88.289062 "/>
<path style=" stroke:none;fill-rule:nonzero;fill:rgb(90.196078%,90.196078%,90.196078%);fill-opacity:1;" d="M 62.398438 29.714844 L 419.792969 29.714844 L 419.792969 11.535156 L 62.398438 11.535156 Z M 62.398438 29.714844 "/>
<path style=" stroke:none;fill-rule:nonzero;fill:rgb(50.196078%,50.196078%,50.196078%);fill-opacity:1;" d="M 62.398438 47.894531 L 332.484375 47.894531 L 332.484375 29.714844 L 62.398438 29.714844 Z M 62.398438 47.894531 "/>
<path style="fill:none;stroke-width:1.066978;stroke-linecap:butt;stroke-linejoin:round;stroke:rgb(0%,0%,0%);stroke-opacity:1;stroke-dasharray:1.066978,3.200935;stroke-miterlimit:1;" d="M 63.671875 231.691406 L 63.671875 213.515625 "/>
<path style="fill:none;stroke-width:1.066978;stroke-linecap:butt;stroke-linejoin:round;stroke:rgb(0%,0%,0%);stroke-opacity:1;stroke-dasharray:1.066978,3.200935;stroke-miterlimit:1;" d="M 63.671875 222.605469 L 63.671875 222.605469 "/>
<path style="fill:none;stroke-width:1.066978;stroke-linecap:butt;stroke-linejoin:round;stroke:rgb(0%,0%,0%);stroke-opacity:1;stroke-dasharray:1.066978,3.200935;stroke-miterlimit:1;" d="M 63.671875 231.691406 L 63.671875 213.515625 "/>
<path style="fill:none;stroke-width:1.066978;stroke-linecap:butt;stroke-linejoin:round;stroke:rgb(0%,0%,0%);stroke-opacity:1;stroke-dasharray:1.066978,3.200935;stroke-miterlimit:1;" d="M 78.503906 249.871094 L 78.503906 231.691406 "/>
<path style="fill:none;stroke-width:1.066978;stroke-linecap:butt;stroke-linejoin:round;stroke:rgb(0%,0%,0%);stroke-opacity:1;stroke-dasharray:1.066978,3.200935;stroke-miterlimit:1;" d="M 78.503906 240.78125 L 78.503906 240.78125 "/>
<path style="fill:none;stroke-width:1.066978;stroke-linecap:butt;stroke-linejoin:round;stroke:rgb(0%,0%,0%);stroke-opacity:1;stroke-dasharray:1.066978,3.200935;stroke-miterlimit:1;" d="M 78.503906 249.871094 L 78.503906 231.691406 "/>
<path style="fill:none;stroke-width:1.066978;stroke-linecap:butt;stroke-linejoin:round;stroke:rgb(0%,0%,0%);stroke-opacity:1;stroke-dasharray:1.066978,3.200935;stroke-miterlimit:1;" d="M 66.003906 191.296875 L 66.003906 173.121094 "/>
<path style="fill:none;stroke-width:1.066978;stroke-linecap:butt;stroke-linejoin:round;stroke:rgb(0%,0%,0%);stroke-opacity:1;stroke-dasharray:1.066978,3.200935;stroke-miterlimit:1;" d="M 66.003906 182.207031 L 66.003906 182.207031 "/>
<path style="fill:none;stroke-width:1.066978;stroke-linecap:butt;stroke-linejoin:round;stroke:rgb(0%,0%,0%);stroke-opacity:1;stroke-dasharray:1.066978,3.200935;stroke-miterlimit:1;" d="M 66.003906 191.296875 L 66.003906 173.121094 "/>
<path style="fill:none;stroke-width:1.066978;stroke-linecap:butt;stroke-linejoin:round;stroke:rgb(0%,0%,0%);stroke-opacity:1;stroke-dasharray:1.066978,3.200935;stroke-miterlimit:1;" d="M 118.027344 209.476562 L 118.027344 191.296875 "/>
<path style="fill:none;stroke-width:1.066978;stroke-linecap:butt;stroke-linejoin:round;stroke:rgb(0%,0%,0%);stroke-opacity:1;stroke-dasharray:1.066978,3.200935;stroke-miterlimit:1;" d="M 118.027344 200.386719 L 118.027344 200.386719 "/>
<path style="fill:none;stroke-width:1.066978;stroke-linecap:butt;stroke-linejoin:round;stroke:rgb(0%,0%,0%);stroke-opacity:1;stroke-dasharray:1.066978,3.200935;stroke-miterlimit:1;" d="M 118.027344 209.476562 L 118.027344 191.296875 "/>
<path style="fill:none;stroke-width:1.066978;stroke-linecap:butt;stroke-linejoin:round;stroke:rgb(0%,0%,0%);stroke-opacity:1;stroke-dasharray:1.066978,3.200935;stroke-miterlimit:1;" d="M 70.136719 150.902344 L 70.136719 132.722656 "/>
<path style="fill:none;stroke-width:1.066978;stroke-linecap:butt;stroke-linejoin:round;stroke:rgb(0%,0%,0%);stroke-opacity:1;stroke-dasharray:1.066978,3.200935;stroke-miterlimit:1;" d="M 70.136719 141.8125 L 70.136719 141.8125 "/>
<path style="fill:none;stroke-width:1.066978;stroke-linecap:butt;stroke-linejoin:round;stroke:rgb(0%,0%,0%);stroke-opacity:1;stroke-dasharray:1.066978,3.200935;stroke-miterlimit:1;" d="M 70.136719 150.902344 L 70.136719 132.722656 "/>
<path style="fill:none;stroke-width:1.066978;stroke-linecap:butt;stroke-linejoin:round;stroke:rgb(0%,0%,0%);stroke-opacity:1;stroke-dasharray:1.066978,3.200935;stroke-miterlimit:1;" d="M 166.238281 169.078125 L 166.238281 150.902344 "/>
<path style="fill:none;stroke-width:1.066978;stroke-linecap:butt;stroke-linejoin:round;stroke:rgb(0%,0%,0%);stroke-opacity:1;stroke-dasharray:1.066978,3.200935;stroke-miterlimit:1;" d="M 166.238281 159.992188 L 166.238281 159.992188 "/>
<path style="fill:none;stroke-width:1.066978;stroke-linecap:butt;stroke-linejoin:round;stroke:rgb(0%,0%,0%);stroke-opacity:1;stroke-dasharray:1.066978,3.200935;stroke-miterlimit:1;" d="M 166.238281 169.078125 L 166.238281 150.902344 "/>
<path style="fill:none;stroke-width:1.066978;stroke-linecap:butt;stroke-linejoin:round;stroke:rgb(0%,0%,0%);stroke-opacity:1;stroke-dasharray:1.066978,3.200935;stroke-miterlimit:1;" d="M 71.089844 110.507812 L 71.089844 92.328125 "/>
<path style="fill:none;stroke-width:1.066978;stroke-linecap:butt;stroke-linejoin:round;stroke:rgb(0%,0%,0%);stroke-opacity:1;stroke-dasharray:1.066978,3.200935;stroke-miterlimit:1;" d="M 71.089844 101.417969 L 71.089844 101.417969 "/>
<path style="fill:none;stroke-width:1.066978;stroke-linecap:butt;stroke-linejoin:round;stroke:rgb(0%,0%,0%);stroke-opacity:1;stroke-dasharray:1.066978,3.200935;stroke-miterlimit:1;" d="M 71.089844 110.507812 L 71.089844 92.328125 "/>
<path style="fill:none;stroke-width:1.066978;stroke-linecap:butt;stroke-linejoin:round;stroke:rgb(0%,0%,0%);stroke-opacity:1;stroke-dasharray:1.066978,3.200935;stroke-miterlimit:1;" d="M 73.84375 128.683594 L 73.84375 110.507812 "/>
<path style="fill:none;stroke-width:1.066978;stroke-linecap:butt;stroke-linejoin:round;stroke:rgb(0%,0%,0%);stroke-opacity:1;stroke-dasharray:1.066978,3.200935;stroke-miterlimit:1;" d="M 73.84375 119.597656 L 73.84375 119.597656 "/>
<path style="fill:none;stroke-width:1.066978;stroke-linecap:butt;stroke-linejoin:round;stroke:rgb(0%,0%,0%);stroke-opacity:1;stroke-dasharray:1.066978,3.200935;stroke-miterlimit:1;" d="M 73.84375 128.683594 L 73.84375 110.507812 "/>
<path style="fill:none;stroke-width:1.066978;stroke-linecap:butt;stroke-linejoin:round;stroke:rgb(0%,0%,0%);stroke-opacity:1;stroke-dasharray:1.066978,3.200935;stroke-miterlimit:1;" d="M 75.433594 70.113281 L 75.433594 51.933594 "/>
<path style="fill:none;stroke-width:1.066978;stroke-linecap:butt;stroke-linejoin:round;stroke:rgb(0%,0%,0%);stroke-opacity:1;stroke-dasharray:1.066978,3.200935;stroke-miterlimit:1;" d="M 75.433594 61.023438 L 75.433594 61.023438 "/>
<path style="fill:none;stroke-width:1.066978;stroke-linecap:butt;stroke-linejoin:round;stroke:rgb(0%,0%,0%);stroke-opacity:1;stroke-dasharray:1.066978,3.200935;stroke-miterlimit:1;" d="M 75.433594 70.113281 L 75.433594 51.933594 "/>
<path style="fill:none;stroke-width:1.066978;stroke-linecap:butt;stroke-linejoin:round;stroke:rgb(0%,0%,0%);stroke-opacity:1;stroke-dasharray:1.066978,3.200935;stroke-miterlimit:1;" d="M 129.363281 88.289062 L 129.363281 70.113281 "/>
<path style="fill:none;stroke-width:1.066978;stroke-linecap:butt;stroke-linejoin:round;stroke:rgb(0%,0%,0%);stroke-opacity:1;stroke-dasharray:1.066978,3.200935;stroke-miterlimit:1;" d="M 129.363281 79.199219 L 129.363281 79.199219 "/>
<path style="fill:none;stroke-width:1.066978;stroke-linecap:butt;stroke-linejoin:round;stroke:rgb(0%,0%,0%);stroke-opacity:1;stroke-dasharray:1.066978,3.200935;stroke-miterlimit:1;" d="M 129.363281 88.289062 L 129.363281 70.113281 "/>
<path style="fill:none;stroke-width:1.066978;stroke-linecap:butt;stroke-linejoin:round;stroke:rgb(0%,0%,0%);stroke-opacity:1;stroke-dasharray:1.066978,3.200935;stroke-miterlimit:1;" d="M 80.308594 29.714844 L 80.308594 11.539062 "/>
<path style="fill:none;stroke-width:1.066978;stroke-linecap:butt;stroke-linejoin:round;stroke:rgb(0%,0%,0%);stroke-opacity:1;stroke-dasharray:1.066978,3.200935;stroke-miterlimit:1;" d="M 80.308594 20.628906 L 80.308594 20.628906 "/>
<path style="fill:none;stroke-width:1.066978;stroke-linecap:butt;stroke-linejoin:round;stroke:rgb(0%,0%,0%);stroke-opacity:1;stroke-dasharray:1.066978,3.200935;stroke-miterlimit:1;" d="M 80.308594 29.714844 L 80.308594 11.539062 "/>
<path style="fill:none;stroke-width:1.066978;stroke-linecap:butt;stroke-linejoin:round;stroke:rgb(0%,0%,0%);stroke-opacity:1;stroke-dasharray:1.066978,3.200935;stroke-miterlimit:1;" d="M 189.441406 47.894531 L 189.441406 29.714844 "/>
<path style="fill:none;stroke-width:1.066978;stroke-linecap:butt;stroke-linejoin:round;stroke:rgb(0%,0%,0%);stroke-opacity:1;stroke-dasharray:1.066978,3.200935;stroke-miterlimit:1;" d="M 189.441406 38.804688 L 189.441406 38.804688 "/>
<path style="fill:none;stroke-width:1.066978;stroke-linecap:butt;stroke-linejoin:round;stroke:rgb(0%,0%,0%);stroke-opacity:1;stroke-dasharray:1.066978,3.200935;stroke-miterlimit:1;" d="M 189.441406 47.894531 L 189.441406 29.714844 "/>
<g clip-path="url(#clip16)" clip-rule="nonzero">
<path style="fill:none;stroke-width:1.066978;stroke-linecap:round;stroke-linejoin:round;stroke:rgb(20%,20%,20%);stroke-opacity:1;stroke-miterlimit:10;" d="M 44.53125 255.929688 L 437.664062 255.929688 L 437.664062 5.480469 L 44.53125 5.480469 Z M 44.53125 255.929688 "/>
</g>
<g style="fill:rgb(30.196078%,30.196078%,30.196078%);fill-opacity:1;">
  <use xlink:href="#glyph0-1" x="23.597656" y="235.099609"/>
  <use xlink:href="#glyph0-2" x="29.466797" y="235.099609"/>
  <use xlink:href="#glyph0-3" x="34.359375" y="235.099609"/>
</g>
<g style="fill:rgb(30.196078%,30.196078%,30.196078%);fill-opacity:1;">
  <use xlink:href="#glyph0-1" x="23.597656" y="194.705078"/>
  <use xlink:href="#glyph0-4" x="29.466797" y="194.705078"/>
  <use xlink:href="#glyph0-5" x="34.359375" y="194.705078"/>
</g>
<g style="fill:rgb(30.196078%,30.196078%,30.196078%);fill-opacity:1;">
  <use xlink:href="#glyph0-1" x="23.597656" y="154.310547"/>
  <use xlink:href="#glyph0-6" x="29.466797" y="154.310547"/>
  <use xlink:href="#glyph0-3" x="34.359375" y="154.310547"/>
</g>
<g style="fill:rgb(30.196078%,30.196078%,30.196078%);fill-opacity:1;">
  <use xlink:href="#glyph0-1" x="23.597656" y="113.916016"/>
  <use xlink:href="#glyph0-2" x="29.466797" y="113.916016"/>
  <use xlink:href="#glyph0-7" x="34.359375" y="113.916016"/>
</g>
<g style="fill:rgb(30.196078%,30.196078%,30.196078%);fill-opacity:1;">
  <use xlink:href="#glyph1-1" x="23.597656" y="73.512695"/>
  <use xlink:href="#glyph1-2" x="29.466797" y="73.512695"/>
  <use xlink:href="#glyph1-3" x="34.359375" y="73.512695"/>
</g>
<g style="fill:rgb(30.196078%,30.196078%,30.196078%);fill-opacity:1;">
  <use xlink:href="#glyph1-1" x="22.597656" y="33.114258"/>
  <use xlink:href="#glyph1-2" x="28.466797" y="33.114258"/>
  <use xlink:href="#glyph1-4" x="33.359375" y="33.114258"/>
</g>
<path style="fill:none;stroke-width:1.066978;stroke-linecap:butt;stroke-linejoin:round;stroke:rgb(20%,20%,20%);stroke-opacity:1;stroke-miterlimit:10;" d="M 41.789062 231.691406 L 44.53125 231.691406 "/>
<path style="fill:none;stroke-width:1.066978;stroke-linecap:butt;stroke-linejoin:round;stroke:rgb(20%,20%,20%);stroke-opacity:1;stroke-miterlimit:10;" d="M 41.789062 191.296875 L 44.53125 191.296875 "/>
<path style="fill:none;stroke-width:1.066978;stroke-linecap:butt;stroke-linejoin:round;stroke:rgb(20%,20%,20%);stroke-opacity:1;stroke-miterlimit:10;" d="M 41.789062 150.902344 L 44.53125 150.902344 "/>
<path style="fill:none;stroke-width:1.066978;stroke-linecap:butt;stroke-linejoin:round;stroke:rgb(20%,20%,20%);stroke-opacity:1;stroke-miterlimit:10;" d="M 41.789062 110.507812 L 44.53125 110.507812 "/>
<path style="fill:none;stroke-width:1.066978;stroke-linecap:butt;stroke-linejoin:round;stroke:rgb(20%,20%,20%);stroke-opacity:1;stroke-miterlimit:10;" d="M 41.789062 70.113281 L 44.53125 70.113281 "/>
<path style="fill:none;stroke-width:1.066978;stroke-linecap:butt;stroke-linejoin:round;stroke:rgb(20%,20%,20%);stroke-opacity:1;stroke-miterlimit:10;" d="M 41.789062 29.714844 L 44.53125 29.714844 "/>
<path style="fill:none;stroke-width:1.066978;stroke-linecap:butt;stroke-linejoin:round;stroke:rgb(20%,20%,20%);stroke-opacity:1;stroke-miterlimit:10;" d="M 62.398438 258.667969 L 62.398438 255.929688 "/>
<path style="fill:none;stroke-width:1.066978;stroke-linecap:butt;stroke-linejoin:round;stroke:rgb(20%,20%,20%);stroke-opacity:1;stroke-miterlimit:10;" d="M 168.355469 258.667969 L 168.355469 255.929688 "/>
<path style="fill:none;stroke-width:1.066978;stroke-linecap:butt;stroke-linejoin:round;stroke:rgb(20%,20%,20%);stroke-opacity:1;stroke-miterlimit:10;" d="M 274.3125 258.667969 L 274.3125 255.929688 "/>
<path style="fill:none;stroke-width:1.066978;stroke-linecap:butt;stroke-linejoin:round;stroke:rgb(20%,20%,20%);stroke-opacity:1;stroke-miterlimit:10;" d="M 380.269531 258.667969 L 380.269531 255.929688 "/>
<g style="fill:rgb(30.196078%,30.196078%,30.196078%);fill-opacity:1;">
  <use xlink:href="#glyph2-1" x="59.898438" y="266.961914"/>
</g>
<g style="fill:rgb(30.196078%,30.196078%,30.196078%);fill-opacity:1;">
  <use xlink:href="#glyph2-2" x="158.355469" y="266.961914"/>
  <use xlink:href="#glyph2-1" x="163.248047" y="266.961914"/>
  <use xlink:href="#glyph2-1" x="168.140625" y="266.961914"/>
  <use xlink:href="#glyph2-1" x="173.033203" y="266.961914"/>
</g>
<g style="fill:rgb(30.196078%,30.196078%,30.196078%);fill-opacity:1;">
  <use xlink:href="#glyph2-3" x="264.3125" y="266.961914"/>
  <use xlink:href="#glyph2-1" x="269.205078" y="266.961914"/>
  <use xlink:href="#glyph2-1" x="274.097656" y="266.961914"/>
  <use xlink:href="#glyph2-1" x="278.990234" y="266.961914"/>
</g>
<g style="fill:rgb(30.196078%,30.196078%,30.196078%);fill-opacity:1;">
  <use xlink:href="#glyph2-4" x="370.269531" y="266.961914"/>
  <use xlink:href="#glyph2-1" x="375.162109" y="266.961914"/>
  <use xlink:href="#glyph2-1" x="380.054688" y="266.961914"/>
  <use xlink:href="#glyph2-1" x="384.947266" y="266.961914"/>
</g>
<g style="fill:rgb(0%,0%,0%);fill-opacity:1;">
  <use xlink:href="#glyph3-1" x="227.597656" y="281.967773"/>
  <use xlink:href="#glyph3-2" x="232.87793" y="281.967773"/>
  <use xlink:href="#glyph3-3" x="238.994141" y="281.967773"/>
  <use xlink:href="#glyph3-4" x="241.436523" y="281.967773"/>
  <use xlink:href="#glyph3-5" x="247.552734" y="281.967773"/>
</g>
<g style="fill:rgb(0%,0%,0%);fill-opacity:1;">
  <use xlink:href="#glyph4-1" x="14.108398" y="145.203125"/>
  <use xlink:href="#glyph4-2" x="14.108398" y="139.086914"/>
  <use xlink:href="#glyph4-3" x="14.108398" y="135.478516"/>
  <use xlink:href="#glyph4-4" x="14.108398" y="129.362305"/>
  <use xlink:href="#glyph4-5" x="14.108398" y="123.246094"/>
</g>
<path style=" stroke:none;fill-rule:nonzero;fill:rgb(100%,100%,100%);fill-opacity:1;" d="M 449 159.761719 L 498.519531 159.761719 L 498.519531 101.644531 L 449 101.644531 Z M 449 159.761719 "/>
<g style="fill:rgb(0%,0%,0%);fill-opacity:1;">
  <use xlink:href="#glyph3-1" x="454.671875" y="115.393555"/>
  <use xlink:href="#glyph3-2" x="459.952148" y="115.393555"/>
  <use xlink:href="#glyph3-6" x="466.068359" y="115.393555"/>
  <use xlink:href="#glyph3-7" x="469.731445" y="115.393555"/>
  <use xlink:href="#glyph3-2" x="472.173828" y="115.393555"/>
  <use xlink:href="#glyph3-8" x="478.290039" y="115.393555"/>
  <use xlink:href="#glyph3-3" x="484.40625" y="115.393555"/>
  <use xlink:href="#glyph3-5" x="486.848633" y="115.393555"/>
</g>
<path style=" stroke:none;fill-rule:nonzero;fill:rgb(100%,100%,100%);fill-opacity:1;" d="M 454.671875 136.8125 L 471.953125 136.8125 L 471.953125 119.53125 L 454.671875 119.53125 Z M 454.671875 136.8125 "/>
<path style=" stroke:none;fill-rule:nonzero;fill:rgb(50.196078%,50.196078%,50.196078%);fill-opacity:1;" d="M 455.378906 136.105469 L 471.242188 136.105469 L 471.242188 120.242188 L 455.378906 120.242188 Z M 455.378906 136.105469 "/>
<path style=" stroke:none;fill-rule:nonzero;fill:rgb(100%,100%,100%);fill-opacity:1;" d="M 454.671875 154.09375 L 471.953125 154.09375 L 471.953125 136.8125 L 454.671875 136.8125 Z M 454.671875 154.09375 "/>
<path style=" stroke:none;fill-rule:nonzero;fill:rgb(90.196078%,90.196078%,90.196078%);fill-opacity:1;" d="M 455.378906 153.386719 L 471.242188 153.386719 L 471.242188 137.523438 L 455.378906 137.523438 Z M 455.378906 153.386719 "/>
<g style="fill:rgb(0%,0%,0%);fill-opacity:1;">
  <use xlink:href="#glyph2-5" x="474.109375" y="130.774414"/>
</g>
<g style="fill:rgb(0%,0%,0%);fill-opacity:1;">
  <use xlink:href="#glyph2-6" x="474.109375" y="148.055664"/>
  <use xlink:href="#glyph2-7" x="477.040039" y="148.055664"/>
</g>
</g>
</svg>
