<?xml version="1.0" encoding="UTF-8"?>
<svg xmlns="http://www.w3.org/2000/svg" xmlns:xlink="http://www.w3.org/1999/xlink" width="288pt" height="144pt" viewBox="0 0 288 144" version="1.1">
<defs>
<g>
<symbol overflow="visible" id="glyph0-0">
<path style="stroke:none;" d="M 0.453125 1.59375 L 0.453125 -6.34375 L 4.953125 -6.34375 L 4.953125 1.59375 Z M 0.953125 1.09375 L 4.453125 1.09375 L 4.453125 -5.84375 L 0.953125 -5.84375 Z M 0.953125 1.09375 "/>
</symbol>
<symbol overflow="visible" id="glyph0-1">
<path style="stroke:none;" d="M 1.765625 -5.828125 L 1.765625 -3.359375 L 2.890625 -3.359375 C 3.296875 -3.359375 3.613281 -3.46875 3.84375 -3.6875 C 4.070312 -3.90625 4.1875 -4.207031 4.1875 -4.59375 C 4.1875 -4.988281 4.070312 -5.289062 3.84375 -5.5 C 3.613281 -5.71875 3.296875 -5.828125 2.890625 -5.828125 Z M 0.890625 -6.5625 L 2.890625 -6.5625 C 3.617188 -6.5625 4.171875 -6.394531 4.546875 -6.0625 C 4.929688 -5.726562 5.125 -5.238281 5.125 -4.59375 C 5.125 -3.945312 4.929688 -3.457031 4.546875 -3.125 C 4.171875 -2.800781 3.617188 -2.640625 2.890625 -2.640625 L 1.765625 -2.640625 L 1.765625 0 L 0.890625 0 Z M 0.890625 -6.5625 "/>
</symbol>
<symbol overflow="visible" id="glyph0-2">
<path style="stroke:none;" d="M 2.796875 -6.828125 C 2.398438 -6.148438 2.101562 -5.484375 1.90625 -4.828125 C 1.71875 -4.171875 1.625 -3.503906 1.625 -2.828125 C 1.625 -2.148438 1.71875 -1.476562 1.90625 -0.8125 C 2.101562 -0.144531 2.398438 0.519531 2.796875 1.1875 L 2.09375 1.1875 C 1.644531 0.5 1.3125 -0.175781 1.09375 -0.84375 C 0.882812 -1.507812 0.78125 -2.171875 0.78125 -2.828125 C 0.78125 -3.484375 0.882812 -4.140625 1.09375 -4.796875 C 1.3125 -5.460938 1.644531 -6.140625 2.09375 -6.828125 Z M 2.796875 -6.828125 "/>
</symbol>
<symbol overflow="visible" id="glyph0-3">
<path style="stroke:none;" d="M 4.8125 -6.34375 L 4.8125 -5.484375 C 4.476562 -5.640625 4.160156 -5.753906 3.859375 -5.828125 C 3.566406 -5.910156 3.28125 -5.953125 3 -5.953125 C 2.507812 -5.953125 2.132812 -5.859375 1.875 -5.671875 C 1.613281 -5.484375 1.484375 -5.21875 1.484375 -4.875 C 1.484375 -4.582031 1.570312 -4.363281 1.75 -4.21875 C 1.925781 -4.070312 2.253906 -3.953125 2.734375 -3.859375 L 3.28125 -3.75 C 3.9375 -3.625 4.421875 -3.398438 4.734375 -3.078125 C 5.054688 -2.765625 5.21875 -2.34375 5.21875 -1.8125 C 5.21875 -1.175781 5.003906 -0.691406 4.578125 -0.359375 C 4.148438 -0.0351562 3.523438 0.125 2.703125 0.125 C 2.390625 0.125 2.054688 0.0859375 1.703125 0.015625 C 1.359375 -0.046875 1 -0.148438 0.625 -0.296875 L 0.625 -1.203125 C 0.976562 -1.003906 1.328125 -0.851562 1.671875 -0.75 C 2.023438 -0.644531 2.367188 -0.59375 2.703125 -0.59375 C 3.203125 -0.59375 3.585938 -0.691406 3.859375 -0.890625 C 4.140625 -1.085938 4.28125 -1.375 4.28125 -1.75 C 4.28125 -2.070312 4.179688 -2.320312 3.984375 -2.5 C 3.785156 -2.675781 3.460938 -2.8125 3.015625 -2.90625 L 2.46875 -3.015625 C 1.8125 -3.148438 1.332031 -3.359375 1.03125 -3.640625 C 0.738281 -3.921875 0.59375 -4.3125 0.59375 -4.8125 C 0.59375 -5.382812 0.796875 -5.835938 1.203125 -6.171875 C 1.609375 -6.515625 2.171875 -6.6875 2.890625 -6.6875 C 3.203125 -6.6875 3.515625 -6.65625 3.828125 -6.59375 C 4.148438 -6.539062 4.476562 -6.457031 4.8125 -6.34375 Z M 4.8125 -6.34375 "/>
</symbol>
<symbol overflow="visible" id="glyph0-4">
<path style="stroke:none;" d="M 1.109375 -0.75 L 2.5625 -0.75 L 2.5625 -5.75 L 0.984375 -5.4375 L 0.984375 -6.25 L 2.5625 -6.5625 L 3.453125 -6.5625 L 3.453125 -0.75 L 4.890625 -0.75 L 4.890625 0 L 1.109375 0 Z M 1.109375 -0.75 "/>
</symbol>
<symbol overflow="visible" id="glyph0-5">
<path style="stroke:none;" d="M 1.890625 -6.875 L 1.890625 2.125 L 1.140625 2.125 L 1.140625 -6.875 Z M 1.890625 -6.875 "/>
</symbol>
<symbol overflow="visible" id="glyph0-6">
<path style="stroke:none;" d="M 4.828125 -4.921875 L 4.828125 0 L 4.015625 0 L 4.015625 -4.296875 L 1.796875 -4.296875 L 1.796875 0 L 0.984375 0 L 0.984375 -4.296875 L 0.203125 -4.296875 L 0.203125 -4.921875 L 0.984375 -4.921875 L 0.984375 -5.265625 C 0.984375 -5.796875 1.109375 -6.191406 1.359375 -6.453125 C 1.609375 -6.710938 2 -6.84375 2.53125 -6.84375 L 3.34375 -6.84375 L 3.34375 -6.171875 L 2.5625 -6.171875 C 2.269531 -6.171875 2.066406 -6.109375 1.953125 -5.984375 C 1.847656 -5.867188 1.796875 -5.660156 1.796875 -5.359375 L 1.796875 -4.921875 Z M 4.015625 -6.828125 L 4.828125 -6.828125 L 4.828125 -5.8125 L 4.015625 -5.8125 Z M 4.015625 -6.828125 "/>
</symbol>
<symbol overflow="visible" id="glyph0-7">
<path style="stroke:none;" d="M 1.0625 -1.109375 L 1.984375 -1.109375 L 1.984375 -0.359375 L 1.265625 1.046875 L 0.6875 1.046875 L 1.0625 -0.359375 Z M 1.0625 -1.109375 "/>
</symbol>
<symbol overflow="visible" id="glyph0-8">
<path style="stroke:none;" d="M 4.9375 -2.96875 L 4.9375 0 L 4.125 0 L 4.125 -2.9375 C 4.125 -3.40625 4.035156 -3.753906 3.859375 -3.984375 C 3.679688 -4.222656 3.410156 -4.34375 3.046875 -4.34375 C 2.609375 -4.34375 2.257812 -4.203125 2 -3.921875 C 1.75 -3.640625 1.625 -3.257812 1.625 -2.78125 L 1.625 0 L 0.8125 0 L 0.8125 -4.921875 L 1.625 -4.921875 L 1.625 -4.15625 C 1.820312 -4.445312 2.050781 -4.664062 2.3125 -4.8125 C 2.570312 -4.96875 2.875 -5.046875 3.21875 -5.046875 C 3.78125 -5.046875 4.207031 -4.867188 4.5 -4.515625 C 4.789062 -4.160156 4.9375 -3.644531 4.9375 -2.96875 Z M 4.9375 -2.96875 "/>
</symbol>
<symbol overflow="visible" id="glyph0-9">
<path style="stroke:none;" d="M 2.75 -4.359375 C 2.320312 -4.359375 1.976562 -4.1875 1.71875 -3.84375 C 1.46875 -3.507812 1.34375 -3.046875 1.34375 -2.453125 C 1.34375 -1.867188 1.46875 -1.40625 1.71875 -1.0625 C 1.96875 -0.726562 2.3125 -0.5625 2.75 -0.5625 C 3.1875 -0.5625 3.53125 -0.726562 3.78125 -1.0625 C 4.03125 -1.40625 4.15625 -1.867188 4.15625 -2.453125 C 4.15625 -3.035156 4.03125 -3.5 3.78125 -3.84375 C 3.53125 -4.1875 3.1875 -4.359375 2.75 -4.359375 Z M 2.75 -5.046875 C 3.457031 -5.046875 4.007812 -4.816406 4.40625 -4.359375 C 4.8125 -3.898438 5.015625 -3.265625 5.015625 -2.453125 C 5.015625 -1.648438 4.8125 -1.019531 4.40625 -0.5625 C 4.007812 -0.101562 3.457031 0.125 2.75 0.125 C 2.050781 0.125 1.5 -0.101562 1.09375 -0.5625 C 0.695312 -1.019531 0.5 -1.648438 0.5 -2.453125 C 0.5 -3.265625 0.695312 -3.898438 1.09375 -4.359375 C 1.5 -4.816406 2.050781 -5.046875 2.75 -5.046875 Z M 2.75 -5.046875 "/>
</symbol>
<symbol overflow="visible" id="glyph0-10">
<path style="stroke:none;" d=""/>
</symbol>
<symbol overflow="visible" id="glyph0-11">
<path style="stroke:none;" d="M 0.765625 -1.9375 L 0.765625 -4.921875 L 1.578125 -4.921875 L 1.578125 -1.96875 C 1.578125 -1.507812 1.664062 -1.160156 1.84375 -0.921875 C 2.03125 -0.691406 2.300781 -0.578125 2.65625 -0.578125 C 3.09375 -0.578125 3.4375 -0.710938 3.6875 -0.984375 C 3.945312 -1.265625 4.078125 -1.644531 4.078125 -2.125 L 4.078125 -4.921875 L 4.890625 -4.921875 L 4.890625 0 L 4.078125 0 L 4.078125 -0.75 C 3.878906 -0.457031 3.648438 -0.238281 3.390625 -0.09375 C 3.128906 0.0507812 2.828125 0.125 2.484375 0.125 C 1.921875 0.125 1.492188 -0.046875 1.203125 -0.390625 C 0.910156 -0.742188 0.765625 -1.257812 0.765625 -1.9375 Z M 2.796875 -5.046875 Z M 2.796875 -5.046875 "/>
</symbol>
<symbol overflow="visible" id="glyph0-12">
<path style="stroke:none;" d="M 4.6875 -3.984375 C 4.882812 -4.335938 5.125 -4.601562 5.40625 -4.78125 C 5.6875 -4.957031 6.019531 -5.046875 6.40625 -5.046875 C 6.914062 -5.046875 7.304688 -4.863281 7.578125 -4.5 C 7.859375 -4.144531 8 -3.632812 8 -2.96875 L 8 0 L 7.1875 0 L 7.1875 -2.9375 C 7.1875 -3.414062 7.101562 -3.769531 6.9375 -4 C 6.769531 -4.226562 6.515625 -4.34375 6.171875 -4.34375 C 5.753906 -4.34375 5.421875 -4.203125 5.171875 -3.921875 C 4.929688 -3.640625 4.8125 -3.257812 4.8125 -2.78125 L 4.8125 0 L 4 0 L 4 -2.9375 C 4 -3.414062 3.914062 -3.769531 3.75 -4 C 3.582031 -4.226562 3.328125 -4.34375 2.984375 -4.34375 C 2.566406 -4.34375 2.234375 -4.203125 1.984375 -3.921875 C 1.742188 -3.640625 1.625 -3.257812 1.625 -2.78125 L 1.625 0 L 0.8125 0 L 0.8125 -4.921875 L 1.625 -4.921875 L 1.625 -4.15625 C 1.8125 -4.457031 2.035156 -4.679688 2.296875 -4.828125 C 2.554688 -4.972656 2.863281 -5.046875 3.21875 -5.046875 C 3.570312 -5.046875 3.875 -4.953125 4.125 -4.765625 C 4.375 -4.585938 4.5625 -4.328125 4.6875 -3.984375 Z M 4.6875 -3.984375 "/>
</symbol>
<symbol overflow="visible" id="glyph0-13">
<path style="stroke:none;" d="M 5.0625 -2.65625 L 5.0625 -2.265625 L 1.34375 -2.265625 C 1.375 -1.710938 1.539062 -1.289062 1.84375 -1 C 2.144531 -0.707031 2.5625 -0.5625 3.09375 -0.5625 C 3.40625 -0.5625 3.707031 -0.597656 4 -0.671875 C 4.289062 -0.742188 4.582031 -0.859375 4.875 -1.015625 L 4.875 -0.25 C 4.582031 -0.125 4.28125 -0.03125 3.96875 0.03125 C 3.664062 0.09375 3.359375 0.125 3.046875 0.125 C 2.265625 0.125 1.644531 -0.101562 1.1875 -0.5625 C 0.726562 -1.019531 0.5 -1.632812 0.5 -2.40625 C 0.5 -3.21875 0.710938 -3.859375 1.140625 -4.328125 C 1.578125 -4.804688 2.164062 -5.046875 2.90625 -5.046875 C 3.570312 -5.046875 4.097656 -4.832031 4.484375 -4.40625 C 4.867188 -3.976562 5.0625 -3.394531 5.0625 -2.65625 Z M 4.25 -2.90625 C 4.238281 -3.34375 4.113281 -3.691406 3.875 -3.953125 C 3.632812 -4.222656 3.316406 -4.359375 2.921875 -4.359375 C 2.460938 -4.359375 2.097656 -4.226562 1.828125 -3.96875 C 1.554688 -3.71875 1.398438 -3.359375 1.359375 -2.890625 Z M 4.25 -2.90625 "/>
</symbol>
<symbol overflow="visible" id="glyph0-14">
<path style="stroke:none;" d="M 3.703125 -4.171875 C 3.609375 -4.222656 3.507812 -4.257812 3.40625 -4.28125 C 3.300781 -4.300781 3.179688 -4.3125 3.046875 -4.3125 C 2.585938 -4.3125 2.234375 -4.160156 1.984375 -3.859375 C 1.742188 -3.566406 1.625 -3.144531 1.625 -2.59375 L 1.625 0 L 0.8125 0 L 0.8125 -4.921875 L 1.625 -4.921875 L 1.625 -4.15625 C 1.800781 -4.457031 2.023438 -4.679688 2.296875 -4.828125 C 2.566406 -4.972656 2.894531 -5.046875 3.28125 -5.046875 C 3.34375 -5.046875 3.40625 -5.039062 3.46875 -5.03125 C 3.539062 -5.019531 3.617188 -5.007812 3.703125 -5 Z M 3.703125 -4.171875 "/>
</symbol>
<symbol overflow="visible" id="glyph0-15">
<path style="stroke:none;" d="M 3.078125 -2.46875 C 2.429688 -2.46875 1.976562 -2.394531 1.71875 -2.25 C 1.46875 -2.101562 1.34375 -1.847656 1.34375 -1.484375 C 1.34375 -1.203125 1.4375 -0.972656 1.625 -0.796875 C 1.820312 -0.628906 2.082031 -0.546875 2.40625 -0.546875 C 2.851562 -0.546875 3.210938 -0.703125 3.484375 -1.015625 C 3.753906 -1.335938 3.890625 -1.765625 3.890625 -2.296875 L 3.890625 -2.46875 Z M 4.703125 -2.8125 L 4.703125 0 L 3.890625 0 L 3.890625 -0.75 C 3.703125 -0.445312 3.46875 -0.222656 3.1875 -0.078125 C 2.914062 0.0546875 2.582031 0.125 2.1875 0.125 C 1.6875 0.125 1.285156 -0.015625 0.984375 -0.296875 C 0.691406 -0.578125 0.546875 -0.957031 0.546875 -1.4375 C 0.546875 -1.988281 0.726562 -2.40625 1.09375 -2.6875 C 1.46875 -2.96875 2.019531 -3.109375 2.75 -3.109375 L 3.890625 -3.109375 L 3.890625 -3.1875 C 3.890625 -3.5625 3.765625 -3.847656 3.515625 -4.046875 C 3.273438 -4.253906 2.929688 -4.359375 2.484375 -4.359375 C 2.203125 -4.359375 1.925781 -4.320312 1.65625 -4.25 C 1.394531 -4.1875 1.144531 -4.085938 0.90625 -3.953125 L 0.90625 -4.703125 C 1.195312 -4.816406 1.484375 -4.898438 1.765625 -4.953125 C 2.046875 -5.015625 2.316406 -5.046875 2.578125 -5.046875 C 3.285156 -5.046875 3.816406 -4.859375 4.171875 -4.484375 C 4.523438 -4.117188 4.703125 -3.5625 4.703125 -2.8125 Z M 4.703125 -2.8125 "/>
</symbol>
<symbol overflow="visible" id="glyph0-16">
<path style="stroke:none;" d="M 0.84375 -6.84375 L 1.65625 -6.84375 L 1.65625 0 L 0.84375 0 Z M 0.84375 -6.84375 "/>
</symbol>
<symbol overflow="visible" id="glyph0-17">
<path style="stroke:none;" d="M 0.71875 -6.828125 L 1.421875 -6.828125 C 1.859375 -6.140625 2.1875 -5.460938 2.40625 -4.796875 C 2.625 -4.140625 2.734375 -3.484375 2.734375 -2.828125 C 2.734375 -2.171875 2.625 -1.507812 2.40625 -0.84375 C 2.1875 -0.175781 1.859375 0.5 1.421875 1.1875 L 0.71875 1.1875 C 1.113281 0.519531 1.40625 -0.144531 1.59375 -0.8125 C 1.78125 -1.476562 1.875 -2.148438 1.875 -2.828125 C 1.875 -3.503906 1.78125 -4.171875 1.59375 -4.828125 C 1.40625 -5.484375 1.113281 -6.148438 0.71875 -6.828125 Z M 0.71875 -6.828125 "/>
</symbol>
<symbol overflow="visible" id="glyph0-18">
<path style="stroke:none;" d="M 4.9375 -2.96875 L 4.9375 0 L 4.125 0 L 4.125 -2.9375 C 4.125 -3.40625 4.035156 -3.753906 3.859375 -3.984375 C 3.679688 -4.222656 3.410156 -4.34375 3.046875 -4.34375 C 2.609375 -4.34375 2.257812 -4.203125 2 -3.921875 C 1.75 -3.640625 1.625 -3.257812 1.625 -2.78125 L 1.625 0 L 0.8125 0 L 0.8125 -6.84375 L 1.625 -6.84375 L 1.625 -4.15625 C 1.820312 -4.445312 2.050781 -4.664062 2.3125 -4.8125 C 2.570312 -4.96875 2.875 -5.046875 3.21875 -5.046875 C 3.78125 -5.046875 4.207031 -4.867188 4.5 -4.515625 C 4.789062 -4.160156 4.9375 -3.644531 4.9375 -2.96875 Z M 4.9375 -2.96875 "/>
</symbol>
<symbol overflow="visible" id="glyph0-19">
<path style="stroke:none;" d="M 3.984375 -4.78125 L 3.984375 -4.015625 C 3.753906 -4.128906 3.515625 -4.210938 3.265625 -4.265625 C 3.023438 -4.328125 2.773438 -4.359375 2.515625 -4.359375 C 2.109375 -4.359375 1.804688 -4.296875 1.609375 -4.171875 C 1.410156 -4.054688 1.3125 -3.875 1.3125 -3.625 C 1.3125 -3.4375 1.378906 -3.289062 1.515625 -3.1875 C 1.660156 -3.082031 1.953125 -2.976562 2.390625 -2.875 L 2.65625 -2.8125 C 3.238281 -2.6875 3.648438 -2.507812 3.890625 -2.28125 C 4.128906 -2.0625 4.25 -1.753906 4.25 -1.359375 C 4.25 -0.898438 4.066406 -0.535156 3.703125 -0.265625 C 3.347656 -0.00390625 2.851562 0.125 2.21875 0.125 C 1.945312 0.125 1.671875 0.0976562 1.390625 0.046875 C 1.109375 -0.00390625 0.804688 -0.0820312 0.484375 -0.1875 L 0.484375 -1.015625 C 0.785156 -0.859375 1.082031 -0.738281 1.375 -0.65625 C 1.664062 -0.582031 1.953125 -0.546875 2.234375 -0.546875 C 2.609375 -0.546875 2.898438 -0.609375 3.109375 -0.734375 C 3.316406 -0.867188 3.421875 -1.054688 3.421875 -1.296875 C 3.421875 -1.515625 3.34375 -1.679688 3.1875 -1.796875 C 3.039062 -1.921875 2.71875 -2.035156 2.21875 -2.140625 L 1.9375 -2.203125 C 1.4375 -2.304688 1.070312 -2.46875 0.84375 -2.6875 C 0.625 -2.90625 0.515625 -3.207031 0.515625 -3.59375 C 0.515625 -4.050781 0.675781 -4.40625 1 -4.65625 C 1.332031 -4.914062 1.800781 -5.046875 2.40625 -5.046875 C 2.707031 -5.046875 2.988281 -5.019531 3.25 -4.96875 C 3.519531 -4.925781 3.765625 -4.863281 3.984375 -4.78125 Z M 3.984375 -4.78125 "/>
</symbol>
<symbol overflow="visible" id="glyph0-20">
<path style="stroke:none;" d="M 0.4375 -2.828125 L 2.8125 -2.828125 L 2.8125 -2.109375 L 0.4375 -2.109375 Z M 0.4375 -2.828125 "/>
</symbol>
<symbol overflow="visible" id="glyph0-21">
<path style="stroke:none;" d="M 2.859375 -5.984375 C 2.398438 -5.984375 2.054688 -5.753906 1.828125 -5.296875 C 1.597656 -4.847656 1.484375 -4.175781 1.484375 -3.28125 C 1.484375 -2.375 1.597656 -1.695312 1.828125 -1.25 C 2.054688 -0.800781 2.398438 -0.578125 2.859375 -0.578125 C 3.316406 -0.578125 3.660156 -0.800781 3.890625 -1.25 C 4.117188 -1.695312 4.234375 -2.375 4.234375 -3.28125 C 4.234375 -4.175781 4.117188 -4.847656 3.890625 -5.296875 C 3.660156 -5.753906 3.316406 -5.984375 2.859375 -5.984375 Z M 2.859375 -6.6875 C 3.597656 -6.6875 4.160156 -6.394531 4.546875 -5.8125 C 4.929688 -5.226562 5.125 -4.382812 5.125 -3.28125 C 5.125 -2.175781 4.929688 -1.332031 4.546875 -0.75 C 4.160156 -0.164062 3.597656 0.125 2.859375 0.125 C 2.128906 0.125 1.566406 -0.164062 1.171875 -0.75 C 0.785156 -1.332031 0.59375 -2.175781 0.59375 -3.28125 C 0.59375 -4.382812 0.785156 -5.226562 1.171875 -5.8125 C 1.566406 -6.394531 2.128906 -6.6875 2.859375 -6.6875 Z M 2.859375 -6.6875 "/>
</symbol>
<symbol overflow="visible" id="glyph0-22">
<path style="stroke:none;" d="M 0.96875 -1.109375 L 1.890625 -1.109375 L 1.890625 0 L 0.96875 0 Z M 0.96875 -1.109375 "/>
</symbol>
<symbol overflow="visible" id="glyph0-23">
<path style="stroke:none;" d="M 0.96875 -6.5625 L 4.453125 -6.5625 L 4.453125 -5.8125 L 1.78125 -5.8125 L 1.78125 -4.203125 C 1.914062 -4.242188 2.046875 -4.273438 2.171875 -4.296875 C 2.296875 -4.328125 2.425781 -4.34375 2.5625 -4.34375 C 3.289062 -4.34375 3.867188 -4.140625 4.296875 -3.734375 C 4.722656 -3.335938 4.9375 -2.796875 4.9375 -2.109375 C 4.9375 -1.398438 4.71875 -0.847656 4.28125 -0.453125 C 3.84375 -0.0664062 3.222656 0.125 2.421875 0.125 C 2.148438 0.125 1.867188 0.0976562 1.578125 0.046875 C 1.296875 0.00390625 1 -0.0625 0.6875 -0.15625 L 0.6875 -1.046875 C 0.957031 -0.898438 1.234375 -0.789062 1.515625 -0.71875 C 1.796875 -0.65625 2.09375 -0.625 2.40625 -0.625 C 2.914062 -0.625 3.316406 -0.753906 3.609375 -1.015625 C 3.898438 -1.285156 4.046875 -1.648438 4.046875 -2.109375 C 4.046875 -2.566406 3.898438 -2.925781 3.609375 -3.1875 C 3.316406 -3.457031 2.914062 -3.59375 2.40625 -3.59375 C 2.164062 -3.59375 1.925781 -3.566406 1.6875 -3.515625 C 1.457031 -3.460938 1.21875 -3.378906 0.96875 -3.265625 Z M 0.96875 -6.5625 "/>
</symbol>
<symbol overflow="visible" id="glyph1-0">
<path style="stroke:none;" d="M 0.546875 1.9375 L 0.546875 -7.75 L 6.046875 -7.75 L 6.046875 1.9375 Z M 1.171875 1.328125 L 5.4375 1.328125 L 5.4375 -7.140625 L 1.171875 -7.140625 Z M 1.171875 1.328125 "/>
</symbol>
<symbol overflow="visible" id="glyph1-1">
<path style="stroke:none;" d="M 1.078125 -8.015625 L 2.171875 -8.015625 L 2.171875 -4.734375 L 6.109375 -4.734375 L 6.109375 -8.015625 L 7.1875 -8.015625 L 7.1875 0 L 6.109375 0 L 6.109375 -3.8125 L 2.171875 -3.8125 L 2.171875 0 L 1.078125 0 Z M 1.078125 -8.015625 "/>
</symbol>
<symbol overflow="visible" id="glyph1-2">
<path style="stroke:none;" d="M 2.171875 -7.125 L 2.171875 -4.109375 L 3.53125 -4.109375 C 4.03125 -4.109375 4.414062 -4.238281 4.6875 -4.5 C 4.96875 -4.769531 5.109375 -5.144531 5.109375 -5.625 C 5.109375 -6.101562 4.96875 -6.472656 4.6875 -6.734375 C 4.414062 -6.992188 4.03125 -7.125 3.53125 -7.125 Z M 1.078125 -8.015625 L 3.53125 -8.015625 C 4.425781 -8.015625 5.101562 -7.8125 5.5625 -7.40625 C 6.019531 -7 6.25 -6.40625 6.25 -5.625 C 6.25 -4.832031 6.019531 -4.234375 5.5625 -3.828125 C 5.101562 -3.421875 4.425781 -3.21875 3.53125 -3.21875 L 2.171875 -3.21875 L 2.171875 0 L 1.078125 0 Z M 1.078125 -8.015625 "/>
</symbol>
<symbol overflow="visible" id="glyph1-3">
<path style="stroke:none;" d="M 2.171875 -7.125 L 2.171875 -0.890625 L 3.46875 -0.890625 C 4.582031 -0.890625 5.394531 -1.140625 5.90625 -1.640625 C 6.414062 -2.140625 6.671875 -2.929688 6.671875 -4.015625 C 6.671875 -5.085938 6.414062 -5.875 5.90625 -6.375 C 5.394531 -6.875 4.582031 -7.125 3.46875 -7.125 Z M 1.078125 -8.015625 L 3.3125 -8.015625 C 4.863281 -8.015625 6.003906 -7.691406 6.734375 -7.046875 C 7.460938 -6.398438 7.828125 -5.390625 7.828125 -4.015625 C 7.828125 -2.628906 7.457031 -1.613281 6.71875 -0.96875 C 5.988281 -0.320312 4.851562 0 3.3125 0 L 1.078125 0 Z M 1.078125 -8.015625 "/>
</symbol>
<symbol overflow="visible" id="glyph2-0">
<path style="stroke:none;" d="M 1.9375 -0.546875 L -7.75 -0.546875 L -7.75 -6.046875 L 1.9375 -6.046875 Z M 1.328125 -1.171875 L 1.328125 -5.4375 L -7.140625 -5.4375 L -7.140625 -1.171875 Z M 1.328125 -1.171875 "/>
</symbol>
<symbol overflow="visible" id="glyph2-1">
<path style="stroke:none;" d="M -7.125 -2.171875 L -4.109375 -2.171875 L -4.109375 -3.53125 C -4.109375 -4.03125 -4.238281 -4.414062 -4.5 -4.6875 C -4.769531 -4.96875 -5.144531 -5.109375 -5.625 -5.109375 C -6.101562 -5.109375 -6.472656 -4.96875 -6.734375 -4.6875 C -6.992188 -4.414062 -7.125 -4.03125 -7.125 -3.53125 Z M -8.015625 -1.078125 L -8.015625 -3.53125 C -8.015625 -4.425781 -7.8125 -5.101562 -7.40625 -5.5625 C -7 -6.019531 -6.40625 -6.25 -5.625 -6.25 C -4.832031 -6.25 -4.234375 -6.019531 -3.828125 -5.5625 C -3.421875 -5.101562 -3.21875 -4.425781 -3.21875 -3.53125 L -3.21875 -2.171875 L 0 -2.171875 L 0 -1.078125 Z M -8.015625 -1.078125 "/>
</symbol>
<symbol overflow="visible" id="glyph2-2">
<path style="stroke:none;" d="M -3.03125 -3.765625 C -3.03125 -2.972656 -2.9375 -2.421875 -2.75 -2.109375 C -2.5625 -1.804688 -2.25 -1.65625 -1.8125 -1.65625 C -1.46875 -1.65625 -1.191406 -1.769531 -0.984375 -2 C -0.773438 -2.226562 -0.671875 -2.539062 -0.671875 -2.9375 C -0.671875 -3.488281 -0.863281 -3.925781 -1.25 -4.25 C -1.644531 -4.582031 -2.160156 -4.75 -2.796875 -4.75 L -3.03125 -4.75 Z M -3.4375 -5.734375 L 0 -5.734375 L 0 -4.75 L -0.90625 -4.75 C -0.539062 -4.53125 -0.269531 -4.25 -0.09375 -3.90625 C 0.0703125 -3.570312 0.15625 -3.160156 0.15625 -2.671875 C 0.15625 -2.054688 -0.015625 -1.566406 -0.359375 -1.203125 C -0.703125 -0.835938 -1.164062 -0.65625 -1.75 -0.65625 C -2.425781 -0.65625 -2.9375 -0.878906 -3.28125 -1.328125 C -3.625 -1.785156 -3.796875 -2.46875 -3.796875 -3.375 L -3.796875 -4.75 L -3.890625 -4.75 C -4.347656 -4.75 -4.703125 -4.597656 -4.953125 -4.296875 C -5.203125 -4.003906 -5.328125 -3.585938 -5.328125 -3.046875 C -5.328125 -2.703125 -5.285156 -2.363281 -5.203125 -2.03125 C -5.117188 -1.707031 -4.992188 -1.394531 -4.828125 -1.09375 L -5.734375 -1.09375 C -5.878906 -1.457031 -5.984375 -1.8125 -6.046875 -2.15625 C -6.117188 -2.5 -6.15625 -2.828125 -6.15625 -3.140625 C -6.15625 -4.015625 -5.929688 -4.664062 -5.484375 -5.09375 C -5.035156 -5.519531 -4.351562 -5.734375 -3.4375 -5.734375 Z M -3.4375 -5.734375 "/>
</symbol>
<symbol overflow="visible" id="glyph2-3">
<path style="stroke:none;" d="M -5.09375 -4.515625 C -5.15625 -4.410156 -5.203125 -4.289062 -5.234375 -4.15625 C -5.265625 -4.03125 -5.28125 -3.890625 -5.28125 -3.734375 C -5.28125 -3.171875 -5.097656 -2.738281 -4.734375 -2.4375 C -4.367188 -2.144531 -3.847656 -2 -3.171875 -2 L 0 -2 L 0 -1 L -6.015625 -1 L -6.015625 -2 L -5.078125 -2 C -5.441406 -2.195312 -5.710938 -2.460938 -5.890625 -2.796875 C -6.066406 -3.128906 -6.15625 -3.535156 -6.15625 -4.015625 C -6.15625 -4.085938 -6.148438 -4.160156 -6.140625 -4.234375 C -6.140625 -4.316406 -6.128906 -4.410156 -6.109375 -4.515625 Z M -5.09375 -4.515625 "/>
</symbol>
<symbol overflow="visible" id="glyph2-4">
<path style="stroke:none;" d="M -4.859375 -5.71875 C -5.304688 -5.96875 -5.632812 -6.265625 -5.84375 -6.609375 C -6.050781 -6.953125 -6.15625 -7.359375 -6.15625 -7.828125 C -6.15625 -8.453125 -5.9375 -8.929688 -5.5 -9.265625 C -5.0625 -9.609375 -4.4375 -9.78125 -3.625 -9.78125 L 0 -9.78125 L 0 -8.78125 L -3.59375 -8.78125 C -4.175781 -8.78125 -4.601562 -8.675781 -4.875 -8.46875 C -5.15625 -8.269531 -5.296875 -7.960938 -5.296875 -7.546875 C -5.296875 -7.035156 -5.125 -6.628906 -4.78125 -6.328125 C -4.445312 -6.035156 -3.988281 -5.890625 -3.40625 -5.890625 L 0 -5.890625 L 0 -4.890625 L -3.59375 -4.890625 C -4.175781 -4.890625 -4.601562 -4.785156 -4.875 -4.578125 C -5.15625 -4.378906 -5.296875 -4.066406 -5.296875 -3.640625 C -5.296875 -3.140625 -5.125 -2.738281 -4.78125 -2.4375 C -4.445312 -2.144531 -3.988281 -2 -3.40625 -2 L 0 -2 L 0 -1 L -6.015625 -1 L -6.015625 -2 L -5.078125 -2 C -5.453125 -2.21875 -5.722656 -2.484375 -5.890625 -2.796875 C -6.066406 -3.117188 -6.15625 -3.492188 -6.15625 -3.921875 C -6.15625 -4.359375 -6.046875 -4.726562 -5.828125 -5.03125 C -5.609375 -5.34375 -5.285156 -5.570312 -4.859375 -5.71875 Z M -4.859375 -5.71875 "/>
</symbol>
<symbol overflow="visible" id="glyph2-5">
<path style="stroke:none;" d="M -3.25 -6.1875 L -2.765625 -6.1875 L -2.765625 -1.640625 C -2.085938 -1.679688 -1.570312 -1.882812 -1.21875 -2.25 C -0.863281 -2.613281 -0.6875 -3.125 -0.6875 -3.78125 C -0.6875 -4.164062 -0.734375 -4.535156 -0.828125 -4.890625 C -0.921875 -5.242188 -1.054688 -5.597656 -1.234375 -5.953125 L -0.3125 -5.953125 C -0.15625 -5.597656 -0.0390625 -5.234375 0.03125 -4.859375 C 0.113281 -4.484375 0.15625 -4.109375 0.15625 -3.734375 C 0.15625 -2.765625 -0.117188 -2 -0.671875 -1.4375 C -1.234375 -0.882812 -1.992188 -0.609375 -2.953125 -0.609375 C -3.929688 -0.609375 -4.707031 -0.875 -5.28125 -1.40625 C -5.863281 -1.9375 -6.15625 -2.65625 -6.15625 -3.5625 C -6.15625 -4.363281 -5.894531 -5 -5.375 -5.46875 C -4.851562 -5.945312 -4.144531 -6.1875 -3.25 -6.1875 Z M -3.546875 -5.1875 C -4.085938 -5.1875 -4.519531 -5.035156 -4.84375 -4.734375 C -5.164062 -4.441406 -5.328125 -4.050781 -5.328125 -3.5625 C -5.328125 -3.007812 -5.171875 -2.566406 -4.859375 -2.234375 C -4.546875 -1.910156 -4.109375 -1.722656 -3.546875 -1.671875 Z M -3.546875 -5.1875 "/>
</symbol>
<symbol overflow="visible" id="glyph2-6">
<path style="stroke:none;" d="M -7.71875 -2.015625 L -6.015625 -2.015625 L -6.015625 -4.046875 L -5.25 -4.046875 L -5.25 -2.015625 L -1.984375 -2.015625 C -1.492188 -2.015625 -1.175781 -2.082031 -1.03125 -2.21875 C -0.894531 -2.351562 -0.828125 -2.625 -0.828125 -3.03125 L -0.828125 -4.046875 L 0 -4.046875 L 0 -3.03125 C 0 -2.269531 -0.140625 -1.742188 -0.421875 -1.453125 C -0.710938 -1.160156 -1.234375 -1.015625 -1.984375 -1.015625 L -5.25 -1.015625 L -5.25 -0.296875 L -6.015625 -0.296875 L -6.015625 -1.015625 L -7.71875 -1.015625 Z M -7.71875 -2.015625 "/>
</symbol>
</g>
<clipPath id="clip1">
  <path d="M 117.070312 5.480469 L 283 5.480469 L 283 113 L 117.070312 113 Z M 117.070312 5.480469 "/>
</clipPath>
<clipPath id="clip2">
  <path d="M 118 5.480469 L 119 5.480469 L 119 113 L 118 113 Z M 118 5.480469 "/>
</clipPath>
<clipPath id="clip3">
  <path d="M 150 5.480469 L 152 5.480469 L 152 113 L 150 113 Z M 150 5.480469 "/>
</clipPath>
<clipPath id="clip4">
  <path d="M 183 5.480469 L 184 5.480469 L 184 113 L 183 113 Z M 183 5.480469 "/>
</clipPath>
<clipPath id="clip5">
  <path d="M 215 5.480469 L 217 5.480469 L 217 113 L 215 113 Z M 215 5.480469 "/>
</clipPath>
<clipPath id="clip6">
  <path d="M 248 5.480469 L 249 5.480469 L 249 113 L 248 113 Z M 248 5.480469 "/>
</clipPath>
<clipPath id="clip7">
  <path d="M 280 5.480469 L 282 5.480469 L 282 113 L 280 113 Z M 280 5.480469 "/>
</clipPath>
<clipPath id="clip8">
  <path d="M 117.070312 82 L 283.519531 82 L 283.519531 84 L 117.070312 84 Z M 117.070312 82 "/>
</clipPath>
<clipPath id="clip9">
  <path d="M 117.070312 34 L 283.519531 34 L 283.519531 36 L 117.070312 36 Z M 117.070312 34 "/>
</clipPath>
<clipPath id="clip10">
  <path d="M 134 5.480469 L 136 5.480469 L 136 113 L 134 113 Z M 134 5.480469 "/>
</clipPath>
<clipPath id="clip11">
  <path d="M 166 5.480469 L 168 5.480469 L 168 113 L 166 113 Z M 166 5.480469 "/>
</clipPath>
<clipPath id="clip12">
  <path d="M 199 5.480469 L 201 5.480469 L 201 113 L 199 113 Z M 199 5.480469 "/>
</clipPath>
<clipPath id="clip13">
  <path d="M 231 5.480469 L 233 5.480469 L 233 113 L 231 113 Z M 231 5.480469 "/>
</clipPath>
<clipPath id="clip14">
  <path d="M 264 5.480469 L 266 5.480469 L 266 113 L 264 113 Z M 264 5.480469 "/>
</clipPath>
<clipPath id="clip15">
  <path d="M 199 5.480469 L 201 5.480469 L 201 113 L 199 113 Z M 199 5.480469 "/>
</clipPath>
<clipPath id="clip16">
  <path d="M 117.070312 5.480469 L 283.519531 5.480469 L 283.519531 113 L 117.070312 113 Z M 117.070312 5.480469 "/>
</clipPath>
</defs>
<g id="surface319">
<rect x="0" y="0" width="288" height="144" style="fill:rgb(100%,100%,100%);fill-opacity:1;stroke:none;"/>
<rect x="0" y="0" width="288" height="144" style="fill:rgb(100%,100%,100%);fill-opacity:1;stroke:none;"/>
<path style="fill:none;stroke-width:1.066978;stroke-linecap:round;stroke-linejoin:round;stroke:rgb(100%,100%,100%);stroke-opacity:1;stroke-miterlimit:10;" d="M 0 144 L 288 144 L 288 0 L 0 0 Z M 0 144 "/>
<g clip-path="url(#clip1)" clip-rule="nonzero">
<path style=" stroke:none;fill-rule:nonzero;fill:rgb(100%,100%,100%);fill-opacity:1;" d="M 117.070312 112.109375 L 282.519531 112.109375 L 282.519531 5.480469 L 117.070312 5.480469 Z M 117.070312 112.109375 "/>
</g>
<g clip-path="url(#clip2)" clip-rule="nonzero">
<path style="fill:none;stroke-width:0.533489;stroke-linecap:butt;stroke-linejoin:round;stroke:rgb(92.156863%,92.156863%,92.156863%);stroke-opacity:1;stroke-miterlimit:10;" d="M 118.464844 112.109375 L 118.464844 5.480469 "/>
</g>
<g clip-path="url(#clip3)" clip-rule="nonzero">
<path style="fill:none;stroke-width:0.533489;stroke-linecap:butt;stroke-linejoin:round;stroke:rgb(92.156863%,92.156863%,92.156863%);stroke-opacity:1;stroke-miterlimit:10;" d="M 150.996094 112.109375 L 150.996094 5.480469 "/>
</g>
<g clip-path="url(#clip4)" clip-rule="nonzero">
<path style="fill:none;stroke-width:0.533489;stroke-linecap:butt;stroke-linejoin:round;stroke:rgb(92.156863%,92.156863%,92.156863%);stroke-opacity:1;stroke-miterlimit:10;" d="M 183.53125 112.109375 L 183.53125 5.480469 "/>
</g>
<g clip-path="url(#clip5)" clip-rule="nonzero">
<path style="fill:none;stroke-width:0.533489;stroke-linecap:butt;stroke-linejoin:round;stroke:rgb(92.156863%,92.156863%,92.156863%);stroke-opacity:1;stroke-miterlimit:10;" d="M 216.0625 112.109375 L 216.0625 5.480469 "/>
</g>
<g clip-path="url(#clip6)" clip-rule="nonzero">
<path style="fill:none;stroke-width:0.533489;stroke-linecap:butt;stroke-linejoin:round;stroke:rgb(92.156863%,92.156863%,92.156863%);stroke-opacity:1;stroke-miterlimit:10;" d="M 248.59375 112.109375 L 248.59375 5.480469 "/>
</g>
<g clip-path="url(#clip7)" clip-rule="nonzero">
<path style="fill:none;stroke-width:0.533489;stroke-linecap:butt;stroke-linejoin:round;stroke:rgb(92.156863%,92.156863%,92.156863%);stroke-opacity:1;stroke-miterlimit:10;" d="M 281.125 112.109375 L 281.125 5.480469 "/>
</g>
<g clip-path="url(#clip8)" clip-rule="nonzero">
<path style="fill:none;stroke-width:1.066978;stroke-linecap:butt;stroke-linejoin:round;stroke:rgb(92.156863%,92.156863%,92.156863%);stroke-opacity:1;stroke-miterlimit:10;" d="M 117.070312 83.027344 L 282.519531 83.027344 "/>
</g>
<g clip-path="url(#clip9)" clip-rule="nonzero">
<path style="fill:none;stroke-width:1.066978;stroke-linecap:butt;stroke-linejoin:round;stroke:rgb(92.156863%,92.156863%,92.156863%);stroke-opacity:1;stroke-miterlimit:10;" d="M 117.070312 34.558594 L 282.519531 34.558594 "/>
</g>
<g clip-path="url(#clip10)" clip-rule="nonzero">
<path style="fill:none;stroke-width:1.066978;stroke-linecap:butt;stroke-linejoin:round;stroke:rgb(92.156863%,92.156863%,92.156863%);stroke-opacity:1;stroke-miterlimit:10;" d="M 134.730469 112.109375 L 134.730469 5.480469 "/>
</g>
<g clip-path="url(#clip11)" clip-rule="nonzero">
<path style="fill:none;stroke-width:1.066978;stroke-linecap:butt;stroke-linejoin:round;stroke:rgb(92.156863%,92.156863%,92.156863%);stroke-opacity:1;stroke-miterlimit:10;" d="M 167.261719 112.109375 L 167.261719 5.480469 "/>
</g>
<g clip-path="url(#clip12)" clip-rule="nonzero">
<path style="fill:none;stroke-width:1.066978;stroke-linecap:butt;stroke-linejoin:round;stroke:rgb(92.156863%,92.156863%,92.156863%);stroke-opacity:1;stroke-miterlimit:10;" d="M 199.796875 112.109375 L 199.796875 5.480469 "/>
</g>
<g clip-path="url(#clip13)" clip-rule="nonzero">
<path style="fill:none;stroke-width:1.066978;stroke-linecap:butt;stroke-linejoin:round;stroke:rgb(92.156863%,92.156863%,92.156863%);stroke-opacity:1;stroke-miterlimit:10;" d="M 232.328125 112.109375 L 232.328125 5.480469 "/>
</g>
<g clip-path="url(#clip14)" clip-rule="nonzero">
<path style="fill:none;stroke-width:1.066978;stroke-linecap:butt;stroke-linejoin:round;stroke:rgb(92.156863%,92.156863%,92.156863%);stroke-opacity:1;stroke-miterlimit:10;" d="M 264.859375 112.109375 L 264.859375 5.480469 "/>
</g>
<path style="fill-rule:nonzero;fill:rgb(65.098039%,65.098039%,65.098039%);fill-opacity:1;stroke-width:0.708661;stroke-linecap:round;stroke-linejoin:round;stroke:rgb(65.098039%,65.098039%,65.098039%);stroke-opacity:1;stroke-miterlimit:10;" d="M 270.714844 34.558594 C 270.714844 39.300781 263.605469 39.300781 263.605469 34.558594 C 263.605469 29.820312 270.714844 29.820312 270.714844 34.558594 "/>
<path style="fill-rule:nonzero;fill:rgb(65.098039%,65.098039%,65.098039%);fill-opacity:1;stroke-width:0.708661;stroke-linecap:round;stroke-linejoin:round;stroke:rgb(65.098039%,65.098039%,65.098039%);stroke-opacity:1;stroke-miterlimit:10;" d="M 135.984375 83.027344 C 135.984375 87.769531 128.875 87.769531 128.875 83.027344 C 128.875 78.289062 135.984375 78.289062 135.984375 83.027344 "/>
<path style="fill:none;stroke-width:3.200935;stroke-linecap:butt;stroke-linejoin:round;stroke:rgb(65.098039%,65.098039%,65.098039%);stroke-opacity:1;stroke-miterlimit:10;" d="M 260.535156 34.558594 L 273.761719 34.558594 "/>
<path style="fill:none;stroke-width:3.200935;stroke-linecap:butt;stroke-linejoin:round;stroke:rgb(65.098039%,65.098039%,65.098039%);stroke-opacity:1;stroke-miterlimit:10;" d="M 125.832031 83.027344 L 139.054688 83.027344 "/>
<path style="fill:none;stroke-width:1.066978;stroke-linecap:butt;stroke-linejoin:round;stroke:rgb(65.098039%,65.098039%,65.098039%);stroke-opacity:1;stroke-miterlimit:10;" d="M 259.230469 34.558594 L 275 34.558594 "/>
<path style="fill:none;stroke-width:1.066978;stroke-linecap:butt;stroke-linejoin:round;stroke:rgb(65.098039%,65.098039%,65.098039%);stroke-opacity:1;stroke-miterlimit:10;" d="M 124.589844 83.027344 L 140.359375 83.027344 "/>
<g clip-path="url(#clip15)" clip-rule="nonzero">
<path style="fill:none;stroke-width:1.066978;stroke-linecap:butt;stroke-linejoin:round;stroke:rgb(0%,0%,0%);stroke-opacity:1;stroke-dasharray:1.066978,3.200935;stroke-miterlimit:10;" d="M 199.796875 112.109375 L 199.796875 5.480469 "/>
</g>
<g clip-path="url(#clip16)" clip-rule="nonzero">
<path style="fill:none;stroke-width:1.066978;stroke-linecap:round;stroke-linejoin:round;stroke:rgb(20%,20%,20%);stroke-opacity:1;stroke-miterlimit:10;" d="M 117.070312 112.109375 L 282.519531 112.109375 L 282.519531 5.480469 L 117.070312 5.480469 Z M 117.070312 112.109375 "/>
</g>
<g style="fill:rgb(30.196078%,30.196078%,30.196078%);fill-opacity:1;">
  <use xlink:href="#glyph0-1" x="25.140625" y="85.695312"/>
  <use xlink:href="#glyph0-2" x="30.568359" y="85.695312"/>
  <use xlink:href="#glyph0-3" x="34.080078" y="85.695312"/>
  <use xlink:href="#glyph0-4" x="39.792969" y="85.695312"/>
  <use xlink:href="#glyph0-5" x="45.519531" y="85.695312"/>
  <use xlink:href="#glyph0-6" x="48.551758" y="85.695312"/>
  <use xlink:href="#glyph0-7" x="54.220703" y="85.695312"/>
  <use xlink:href="#glyph0-8" x="57.082031" y="85.695312"/>
  <use xlink:href="#glyph0-9" x="62.786133" y="85.695312"/>
  <use xlink:href="#glyph0-10" x="68.292969" y="85.695312"/>
  <use xlink:href="#glyph0-8" x="71.154297" y="85.695312"/>
  <use xlink:href="#glyph0-11" x="76.858398" y="85.695312"/>
  <use xlink:href="#glyph0-12" x="82.5625" y="85.695312"/>
  <use xlink:href="#glyph0-13" x="91.330078" y="85.695312"/>
  <use xlink:href="#glyph0-14" x="96.867188" y="85.695312"/>
  <use xlink:href="#glyph0-15" x="100.567383" y="85.695312"/>
  <use xlink:href="#glyph0-16" x="106.083008" y="85.695312"/>
  <use xlink:href="#glyph0-17" x="108.583984" y="85.695312"/>
</g>
<g style="fill:rgb(30.196078%,30.196078%,30.196078%);fill-opacity:1;">
  <use xlink:href="#glyph0-1" x="20.140625" y="37.226562"/>
  <use xlink:href="#glyph0-2" x="25.568359" y="37.226562"/>
  <use xlink:href="#glyph0-3" x="29.080078" y="37.226562"/>
  <use xlink:href="#glyph0-4" x="34.792969" y="37.226562"/>
  <use xlink:href="#glyph0-5" x="40.519531" y="37.226562"/>
  <use xlink:href="#glyph0-6" x="43.551758" y="37.226562"/>
  <use xlink:href="#glyph0-7" x="49.220703" y="37.226562"/>
  <use xlink:href="#glyph0-18" x="52.082031" y="37.226562"/>
  <use xlink:href="#glyph0-15" x="57.786133" y="37.226562"/>
  <use xlink:href="#glyph0-19" x="63.301758" y="37.226562"/>
  <use xlink:href="#glyph0-10" x="67.991211" y="37.226562"/>
  <use xlink:href="#glyph0-8" x="70.852539" y="37.226562"/>
  <use xlink:href="#glyph0-11" x="76.556641" y="37.226562"/>
  <use xlink:href="#glyph0-12" x="82.260742" y="37.226562"/>
  <use xlink:href="#glyph0-13" x="91.02832" y="37.226562"/>
  <use xlink:href="#glyph0-14" x="96.56543" y="37.226562"/>
  <use xlink:href="#glyph0-15" x="100.265625" y="37.226562"/>
  <use xlink:href="#glyph0-16" x="105.78125" y="37.226562"/>
  <use xlink:href="#glyph0-17" x="108.282227" y="37.226562"/>
</g>
<path style="fill:none;stroke-width:1.066978;stroke-linecap:butt;stroke-linejoin:round;stroke:rgb(20%,20%,20%);stroke-opacity:1;stroke-miterlimit:10;" d="M 114.332031 83.027344 L 117.070312 83.027344 "/>
<path style="fill:none;stroke-width:1.066978;stroke-linecap:butt;stroke-linejoin:round;stroke:rgb(20%,20%,20%);stroke-opacity:1;stroke-miterlimit:10;" d="M 114.332031 34.558594 L 117.070312 34.558594 "/>
<path style="fill:none;stroke-width:1.066978;stroke-linecap:butt;stroke-linejoin:round;stroke:rgb(20%,20%,20%);stroke-opacity:1;stroke-miterlimit:10;" d="M 134.730469 114.847656 L 134.730469 112.109375 "/>
<path style="fill:none;stroke-width:1.066978;stroke-linecap:butt;stroke-linejoin:round;stroke:rgb(20%,20%,20%);stroke-opacity:1;stroke-miterlimit:10;" d="M 167.261719 114.847656 L 167.261719 112.109375 "/>
<path style="fill:none;stroke-width:1.066978;stroke-linecap:butt;stroke-linejoin:round;stroke:rgb(20%,20%,20%);stroke-opacity:1;stroke-miterlimit:10;" d="M 199.796875 114.847656 L 199.796875 112.109375 "/>
<path style="fill:none;stroke-width:1.066978;stroke-linecap:butt;stroke-linejoin:round;stroke:rgb(20%,20%,20%);stroke-opacity:1;stroke-miterlimit:10;" d="M 232.328125 114.847656 L 232.328125 112.109375 "/>
<path style="fill:none;stroke-width:1.066978;stroke-linecap:butt;stroke-linejoin:round;stroke:rgb(20%,20%,20%);stroke-opacity:1;stroke-miterlimit:10;" d="M 264.859375 114.847656 L 264.859375 112.109375 "/>
<g style="fill:rgb(30.196078%,30.196078%,30.196078%);fill-opacity:1;">
  <use xlink:href="#glyph0-20" x="122.730469" y="123.210938"/>
  <use xlink:href="#glyph0-21" x="125.978516" y="123.210938"/>
  <use xlink:href="#glyph0-22" x="131.705078" y="123.210938"/>
  <use xlink:href="#glyph0-4" x="134.566406" y="123.210938"/>
  <use xlink:href="#glyph0-21" x="140.292969" y="123.210938"/>
</g>
<g style="fill:rgb(30.196078%,30.196078%,30.196078%);fill-opacity:1;">
  <use xlink:href="#glyph0-20" x="155.261719" y="123.210938"/>
  <use xlink:href="#glyph0-21" x="158.509766" y="123.210938"/>
  <use xlink:href="#glyph0-22" x="164.236328" y="123.210938"/>
  <use xlink:href="#glyph0-21" x="167.097656" y="123.210938"/>
  <use xlink:href="#glyph0-23" x="172.824219" y="123.210938"/>
</g>
<g style="fill:rgb(30.196078%,30.196078%,30.196078%);fill-opacity:1;">
  <use xlink:href="#glyph0-21" x="189.296875" y="123.210938"/>
  <use xlink:href="#glyph0-22" x="195.023438" y="123.210938"/>
  <use xlink:href="#glyph0-21" x="197.884766" y="123.210938"/>
  <use xlink:href="#glyph0-21" x="203.611328" y="123.210938"/>
</g>
<g style="fill:rgb(30.196078%,30.196078%,30.196078%);fill-opacity:1;">
  <use xlink:href="#glyph0-21" x="221.828125" y="123.210938"/>
  <use xlink:href="#glyph0-22" x="227.554688" y="123.210938"/>
  <use xlink:href="#glyph0-21" x="230.416016" y="123.210938"/>
  <use xlink:href="#glyph0-23" x="236.142578" y="123.210938"/>
</g>
<g style="fill:rgb(30.196078%,30.196078%,30.196078%);fill-opacity:1;">
  <use xlink:href="#glyph0-21" x="254.359375" y="123.210938"/>
  <use xlink:href="#glyph0-22" x="260.085938" y="123.210938"/>
  <use xlink:href="#glyph0-4" x="262.947266" y="123.210938"/>
  <use xlink:href="#glyph0-21" x="268.673828" y="123.210938"/>
</g>
<g style="fill:rgb(0%,0%,0%);fill-opacity:1;">
  <use xlink:href="#glyph1-1" x="187.796875" y="137.730469"/>
  <use xlink:href="#glyph1-2" x="196.068359" y="137.730469"/>
  <use xlink:href="#glyph1-3" x="202.702148" y="137.730469"/>
</g>
<g style="fill:rgb(0%,0%,0%);fill-opacity:1;">
  <use xlink:href="#glyph2-1" x="13.691406" y="87.792969"/>
  <use xlink:href="#glyph2-2" x="13.691406" y="81.65332"/>
  <use xlink:href="#glyph2-3" x="13.691406" y="74.912109"/>
  <use xlink:href="#glyph2-2" x="13.691406" y="70.389648"/>
  <use xlink:href="#glyph2-4" x="13.691406" y="63.648438"/>
  <use xlink:href="#glyph2-5" x="13.691406" y="52.932617"/>
  <use xlink:href="#glyph2-6" x="13.691406" y="46.165039"/>
  <use xlink:href="#glyph2-5" x="13.691406" y="41.851562"/>
  <use xlink:href="#glyph2-3" x="13.691406" y="35.083984"/>
</g>
</g>
</svg>
