<?xml version="1.0" encoding="UTF-8"?>
<svg xmlns="http://www.w3.org/2000/svg" xmlns:xlink="http://www.w3.org/1999/xlink" width="360pt" height="72pt" viewBox="0 0 360 72" version="1.1">
<defs>
<g>
<symbol overflow="visible" id="glyph0-0">
<path style="stroke:none;" d=""/>
</symbol>
<symbol overflow="visible" id="glyph0-1">
<path style="stroke:none;" d="M 1.625 -2.71875 L 3.640625 -2.71875 C 4.140625 -2.71875 4.53125 -2.875 4.875 -3.171875 C 5.265625 -3.53125 5.421875 -3.9375 5.421875 -4.53125 C 5.421875 -5.734375 4.71875 -6.40625 3.453125 -6.40625 L 0.796875 -6.40625 L 0.796875 0 L 1.625 0 Z M 1.625 -3.4375 L 1.625 -5.6875 L 3.328125 -5.6875 C 4.109375 -5.6875 4.578125 -5.265625 4.578125 -4.5625 C 4.578125 -3.859375 4.109375 -3.4375 3.328125 -3.4375 Z M 1.625 -3.4375 "/>
</symbol>
<symbol overflow="visible" id="glyph0-2">
<path style="stroke:none;" d="M 2.078125 -6.40625 C 1.203125 -5.265625 0.640625 -3.65625 0.640625 -2.28125 C 0.640625 -0.890625 1.203125 0.71875 2.078125 1.859375 L 2.5625 1.859375 C 1.78125 0.609375 1.359375 -0.875 1.359375 -2.28125 C 1.359375 -3.671875 1.78125 -5.15625 2.5625 -6.40625 Z M 2.078125 -6.40625 "/>
</symbol>
<symbol overflow="visible" id="glyph0-3">
<path style="stroke:none;" d="M 5.25 -4.53125 C 5.234375 -5.78125 4.375 -6.515625 2.890625 -6.515625 C 1.484375 -6.515625 0.609375 -5.796875 0.609375 -4.640625 C 0.609375 -3.859375 1.03125 -3.359375 1.875 -3.140625 L 3.46875 -2.71875 C 4.28125 -2.5 4.640625 -2.1875 4.640625 -1.6875 C 4.640625 -1.34375 4.453125 -0.984375 4.1875 -0.796875 C 3.9375 -0.609375 3.53125 -0.515625 3.015625 -0.515625 C 2.3125 -0.515625 1.84375 -0.6875 1.53125 -1.0625 C 1.296875 -1.34375 1.1875 -1.640625 1.203125 -2.046875 L 0.421875 -2.046875 C 0.4375 -1.453125 0.546875 -1.0625 0.796875 -0.71875 C 1.234375 -0.109375 1.984375 0.203125 2.953125 0.203125 C 3.71875 0.203125 4.34375 0.03125 4.765625 -0.296875 C 5.1875 -0.640625 5.46875 -1.203125 5.46875 -1.765625 C 5.46875 -2.546875 4.96875 -3.125 4.09375 -3.375 L 2.484375 -3.796875 C 1.71875 -4.015625 1.4375 -4.25 1.4375 -4.75 C 1.4375 -5.40625 2 -5.828125 2.875 -5.828125 C 3.890625 -5.828125 4.453125 -5.359375 4.46875 -4.53125 Z M 5.25 -4.53125 "/>
</symbol>
<symbol overflow="visible" id="glyph0-4">
<path style="stroke:none;" d="M 4.453125 -0.765625 L 1.171875 -0.765625 C 1.25 -1.28125 1.53125 -1.59375 2.296875 -2.046875 L 3.171875 -2.53125 C 4.046875 -3 4.5 -3.640625 4.5 -4.40625 C 4.5 -4.921875 4.28125 -5.40625 3.921875 -5.75 C 3.546875 -6.078125 3.09375 -6.234375 2.5 -6.234375 C 1.703125 -6.234375 1.125 -5.953125 0.78125 -5.421875 C 0.546875 -5.09375 0.453125 -4.703125 0.4375 -4.078125 L 1.21875 -4.078125 C 1.234375 -4.5 1.296875 -4.75 1.40625 -4.953125 C 1.59375 -5.328125 2 -5.5625 2.46875 -5.5625 C 3.171875 -5.5625 3.703125 -5.0625 3.703125 -4.390625 C 3.703125 -3.890625 3.40625 -3.46875 2.859375 -3.15625 L 2.046875 -2.703125 C 0.75 -1.96875 0.375 -1.375 0.296875 0 L 4.453125 0 Z M 4.453125 -0.765625 "/>
</symbol>
<symbol overflow="visible" id="glyph0-5">
<path style="stroke:none;" d="M 2.015625 -6.40625 L -0.078125 0.171875 L 0.40625 0.171875 L 2.5 -6.40625 Z M 2.015625 -6.40625 "/>
</symbol>
<symbol overflow="visible" id="glyph0-6">
<path style="stroke:none;" d="M 1.9375 -2.859375 L 2.046875 -2.859375 L 2.359375 -2.875 C 3.21875 -2.875 3.65625 -2.484375 3.65625 -1.734375 C 3.65625 -0.953125 3.171875 -0.484375 2.359375 -0.484375 C 1.515625 -0.484375 1.109375 -0.90625 1.0625 -1.8125 L 0.28125 -1.8125 C 0.3125 -1.3125 0.40625 -0.984375 0.546875 -0.703125 C 0.875 -0.109375 1.484375 0.203125 2.34375 0.203125 C 3.625 0.203125 4.453125 -0.5625 4.453125 -1.734375 C 4.453125 -2.53125 4.140625 -2.96875 3.390625 -3.234375 C 3.96875 -3.453125 4.265625 -3.890625 4.265625 -4.515625 C 4.265625 -5.59375 3.546875 -6.234375 2.359375 -6.234375 C 1.109375 -6.234375 0.4375 -5.546875 0.40625 -4.21875 L 1.1875 -4.21875 C 1.203125 -4.59375 1.234375 -4.8125 1.328125 -5 C 1.5 -5.34375 1.890625 -5.5625 2.375 -5.5625 C 3.0625 -5.5625 3.46875 -5.15625 3.46875 -4.5 C 3.46875 -4.0625 3.3125 -3.796875 2.96875 -3.65625 C 2.765625 -3.5625 2.484375 -3.53125 1.9375 -3.515625 Z M 1.9375 -2.859375 "/>
</symbol>
<symbol overflow="visible" id="glyph0-7">
<path style="stroke:none;" d="M 0.875 -6.40625 L 0.875 1.859375 L 1.40625 1.859375 L 1.40625 -6.40625 Z M 0.875 -6.40625 "/>
</symbol>
<symbol overflow="visible" id="glyph0-8">
<path style="stroke:none;" d="M 0.609375 -4.609375 L 0.609375 0 L 1.359375 0 L 1.359375 -2.546875 C 1.359375 -3.484375 1.84375 -4.09375 2.609375 -4.09375 C 3.1875 -4.09375 3.546875 -3.75 3.546875 -3.1875 L 3.546875 0 L 4.28125 0 L 4.28125 -3.484375 C 4.28125 -4.25 3.71875 -4.734375 2.828125 -4.734375 C 2.140625 -4.734375 1.703125 -4.484375 1.296875 -3.828125 L 1.296875 -4.609375 Z M 0.609375 -4.609375 "/>
</symbol>
<symbol overflow="visible" id="glyph0-9">
<path style="stroke:none;" d="M 2.390625 -4.734375 C 1.09375 -4.734375 0.3125 -3.8125 0.3125 -2.265625 C 0.3125 -0.71875 1.09375 0.203125 2.40625 0.203125 C 3.6875 0.203125 4.484375 -0.71875 4.484375 -2.234375 C 4.484375 -3.828125 3.71875 -4.734375 2.390625 -4.734375 Z M 2.40625 -4.0625 C 3.234375 -4.0625 3.71875 -3.390625 3.71875 -2.25 C 3.71875 -1.15625 3.203125 -0.46875 2.40625 -0.46875 C 1.578125 -0.46875 1.078125 -1.15625 1.078125 -2.265625 C 1.078125 -3.375 1.578125 -4.0625 2.40625 -4.0625 Z M 2.40625 -4.0625 "/>
</symbol>
<symbol overflow="visible" id="glyph0-10">
<path style="stroke:none;" d=""/>
</symbol>
<symbol overflow="visible" id="glyph0-11">
<path style="stroke:none;" d="M 4.234375 0 L 4.234375 -4.609375 L 3.515625 -4.609375 L 3.515625 -2 C 3.515625 -1.0625 3.015625 -0.4375 2.25 -0.4375 C 1.671875 -0.4375 1.296875 -0.796875 1.296875 -1.34375 L 1.296875 -4.609375 L 0.578125 -4.609375 L 0.578125 -1.0625 C 0.578125 -0.296875 1.140625 0.203125 2.046875 0.203125 C 2.71875 0.203125 3.15625 -0.03125 3.578125 -0.640625 L 3.578125 0 Z M 4.234375 0 "/>
</symbol>
<symbol overflow="visible" id="glyph0-12">
<path style="stroke:none;" d="M 0.609375 -4.609375 L 0.609375 0 L 1.359375 0 L 1.359375 -2.890625 C 1.359375 -3.5625 1.84375 -4.09375 2.4375 -4.09375 C 2.984375 -4.09375 3.296875 -3.765625 3.296875 -3.171875 L 3.296875 0 L 4.03125 0 L 4.03125 -2.890625 C 4.03125 -3.5625 4.515625 -4.09375 5.109375 -4.09375 C 5.640625 -4.09375 5.96875 -3.75 5.96875 -3.171875 L 5.96875 0 L 6.703125 0 L 6.703125 -3.453125 C 6.703125 -4.28125 6.234375 -4.734375 5.359375 -4.734375 C 4.75 -4.734375 4.375 -4.5625 3.953125 -4.03125 C 3.671875 -4.53125 3.3125 -4.734375 2.703125 -4.734375 C 2.09375 -4.734375 1.6875 -4.515625 1.296875 -3.953125 L 1.296875 -4.609375 Z M 0.609375 -4.609375 "/>
</symbol>
<symbol overflow="visible" id="glyph0-13">
<path style="stroke:none;" d="M 4.515625 -2.0625 C 4.515625 -2.765625 4.453125 -3.1875 4.328125 -3.53125 C 4.03125 -4.28125 3.328125 -4.734375 2.46875 -4.734375 C 1.171875 -4.734375 0.359375 -3.75 0.359375 -2.25 C 0.359375 -0.734375 1.15625 0.203125 2.453125 0.203125 C 3.5 0.203125 4.234375 -0.390625 4.421875 -1.40625 L 3.671875 -1.40625 C 3.46875 -0.796875 3.0625 -0.46875 2.46875 -0.46875 C 2 -0.46875 1.609375 -0.6875 1.359375 -1.078125 C 1.1875 -1.34375 1.125 -1.59375 1.125 -2.0625 Z M 1.140625 -2.65625 C 1.203125 -3.515625 1.71875 -4.0625 2.453125 -4.0625 C 3.171875 -4.0625 3.734375 -3.46875 3.734375 -2.703125 C 3.734375 -2.6875 3.734375 -2.671875 3.71875 -2.65625 Z M 1.140625 -2.65625 "/>
</symbol>
<symbol overflow="visible" id="glyph0-14">
<path style="stroke:none;" d="M 0.609375 -4.609375 L 0.609375 0 L 1.34375 0 L 1.34375 -2.390625 C 1.34375 -3.046875 1.515625 -3.484375 1.859375 -3.734375 C 2.09375 -3.90625 2.3125 -3.953125 2.828125 -3.96875 L 2.828125 -4.71875 C 2.703125 -4.734375 2.640625 -4.734375 2.546875 -4.734375 C 2.0625 -4.734375 1.703125 -4.453125 1.28125 -3.78125 L 1.28125 -4.609375 Z M 0.609375 -4.609375 "/>
</symbol>
<symbol overflow="visible" id="glyph0-15">
<path style="stroke:none;" d="M 4.703125 -0.4375 C 4.625 -0.40625 4.59375 -0.40625 4.546875 -0.40625 C 4.296875 -0.40625 4.15625 -0.546875 4.15625 -0.78125 L 4.15625 -3.484375 C 4.15625 -4.296875 3.546875 -4.734375 2.421875 -4.734375 C 1.75 -4.734375 1.203125 -4.546875 0.890625 -4.203125 C 0.671875 -3.96875 0.59375 -3.703125 0.578125 -3.25 L 1.3125 -3.25 C 1.375 -3.8125 1.703125 -4.0625 2.390625 -4.0625 C 3.046875 -4.0625 3.421875 -3.8125 3.421875 -3.375 L 3.421875 -3.1875 C 3.421875 -2.875 3.234375 -2.75 2.65625 -2.671875 C 1.625 -2.546875 1.453125 -2.5 1.171875 -2.390625 C 0.640625 -2.171875 0.375 -1.765625 0.375 -1.15625 C 0.375 -0.328125 0.953125 0.203125 1.875 0.203125 C 2.46875 0.203125 2.921875 0 3.453125 -0.46875 C 3.5 -0.015625 3.734375 0.203125 4.203125 0.203125 C 4.359375 0.203125 4.46875 0.1875 4.703125 0.125 Z M 3.421875 -1.453125 C 3.421875 -1.203125 3.359375 -1.0625 3.125 -0.859375 C 2.828125 -0.578125 2.46875 -0.4375 2.046875 -0.4375 C 1.46875 -0.4375 1.140625 -0.71875 1.140625 -1.171875 C 1.140625 -1.65625 1.453125 -1.90625 2.25 -2.015625 C 3.015625 -2.125 3.171875 -2.15625 3.421875 -2.28125 Z M 3.421875 -1.453125 "/>
</symbol>
<symbol overflow="visible" id="glyph0-16">
<path style="stroke:none;" d="M 1.34375 -6.40625 L 0.59375 -6.40625 L 0.59375 0 L 1.34375 0 Z M 1.34375 -6.40625 "/>
</symbol>
<symbol overflow="visible" id="glyph0-17">
<path style="stroke:none;" d="M 0.8125 1.859375 C 1.703125 0.71875 2.25 -0.890625 2.25 -2.265625 C 2.25 -3.65625 1.703125 -5.265625 0.8125 -6.40625 L 0.328125 -6.40625 C 1.109375 -5.15625 1.546875 -3.671875 1.546875 -2.265625 C 1.546875 -0.875 1.109375 0.609375 0.328125 1.859375 Z M 0.8125 1.859375 "/>
</symbol>
<symbol overflow="visible" id="glyph0-18">
<path style="stroke:none;" d="M 0.609375 -6.40625 L 0.609375 0 L 1.34375 0 L 1.34375 -2.546875 C 1.34375 -3.484375 1.84375 -4.09375 2.59375 -4.09375 C 2.828125 -4.09375 3.0625 -4.015625 3.25 -3.890625 C 3.453125 -3.734375 3.546875 -3.515625 3.546875 -3.1875 L 3.546875 0 L 4.28125 0 L 4.28125 -3.484375 C 4.28125 -4.25 3.71875 -4.734375 2.828125 -4.734375 C 2.171875 -4.734375 1.78125 -4.546875 1.34375 -3.96875 L 1.34375 -6.40625 Z M 0.609375 -6.40625 "/>
</symbol>
<symbol overflow="visible" id="glyph0-19">
<path style="stroke:none;" d="M 3.859375 -3.328125 C 3.84375 -4.234375 3.25 -4.734375 2.1875 -4.734375 C 1.109375 -4.734375 0.40625 -4.1875 0.40625 -3.328125 C 0.40625 -2.609375 0.78125 -2.265625 1.875 -2 L 2.5625 -1.84375 C 3.0625 -1.71875 3.265625 -1.53125 3.265625 -1.203125 C 3.265625 -0.765625 2.84375 -0.46875 2.203125 -0.46875 C 1.796875 -0.46875 1.46875 -0.59375 1.28125 -0.78125 C 1.171875 -0.921875 1.125 -1.046875 1.078125 -1.375 L 0.296875 -1.375 C 0.328125 -0.3125 0.9375 0.203125 2.140625 0.203125 C 3.296875 0.203125 4.03125 -0.375 4.03125 -1.265625 C 4.03125 -1.9375 3.65625 -2.328125 2.734375 -2.546875 L 2.03125 -2.703125 C 1.4375 -2.84375 1.171875 -3.046875 1.171875 -3.375 C 1.171875 -3.796875 1.5625 -4.0625 2.15625 -4.0625 C 2.75 -4.0625 3.0625 -3.8125 3.078125 -3.328125 Z M 3.859375 -3.328125 "/>
</symbol>
<symbol overflow="visible" id="glyph0-20">
<path style="stroke:none;" d="M 2.5 -2.75 L 0.40625 -2.75 L 0.40625 -2.109375 L 2.5 -2.109375 Z M 2.5 -2.75 "/>
</symbol>
<symbol overflow="visible" id="glyph0-21">
<path style="stroke:none;" d="M 2.28125 -4.4375 L 2.28125 0 L 3.046875 0 L 3.046875 -6.234375 L 2.546875 -6.234375 C 2.265625 -5.28125 2.09375 -5.140625 0.890625 -5 L 0.890625 -4.4375 Z M 2.28125 -4.4375 "/>
</symbol>
<symbol overflow="visible" id="glyph0-22">
<path style="stroke:none;" d="M 2.421875 -6.234375 C 1.84375 -6.234375 1.3125 -5.984375 0.984375 -5.546875 C 0.578125 -5 0.375 -4.171875 0.375 -3.015625 C 0.375 -0.921875 1.078125 0.203125 2.421875 0.203125 C 3.734375 0.203125 4.453125 -0.921875 4.453125 -2.96875 C 4.453125 -4.171875 4.265625 -4.984375 3.859375 -5.546875 C 3.53125 -5.984375 3.015625 -6.234375 2.421875 -6.234375 Z M 2.421875 -5.546875 C 3.25 -5.546875 3.671875 -4.703125 3.671875 -3.03125 C 3.671875 -1.265625 3.265625 -0.4375 2.40625 -0.4375 C 1.578125 -0.4375 1.171875 -1.296875 1.171875 -3.015625 C 1.171875 -4.71875 1.578125 -5.546875 2.421875 -5.546875 Z M 2.421875 -5.546875 "/>
</symbol>
<symbol overflow="visible" id="glyph1-0">
<path style="stroke:none;" d=""/>
</symbol>
<symbol overflow="visible" id="glyph1-1">
<path style="stroke:none;" d="M 6.0625 -3.65625 L 6.0625 0 L 7.078125 0 L 7.078125 -8.015625 L 6.0625 -8.015625 L 6.0625 -4.546875 L 1.9375 -4.546875 L 1.9375 -8.015625 L 0.90625 -8.015625 L 0.90625 0 L 1.953125 0 L 1.953125 -3.65625 Z M 6.0625 -3.65625 "/>
</symbol>
<symbol overflow="visible" id="glyph1-2">
<path style="stroke:none;" d="M 2.03125 -3.40625 L 4.546875 -3.40625 C 5.171875 -3.40625 5.671875 -3.59375 6.09375 -3.96875 C 6.578125 -4.40625 6.78125 -4.921875 6.78125 -5.671875 C 6.78125 -7.171875 5.890625 -8.015625 4.3125 -8.015625 L 1 -8.015625 L 1 0 L 2.03125 0 Z M 2.03125 -4.296875 L 2.03125 -7.109375 L 4.15625 -7.109375 C 5.140625 -7.109375 5.71875 -6.59375 5.71875 -5.703125 C 5.71875 -4.828125 5.140625 -4.296875 4.15625 -4.296875 Z M 2.03125 -4.296875 "/>
</symbol>
<symbol overflow="visible" id="glyph1-3">
<path style="stroke:none;" d="M 0.984375 0 L 4.0625 0 C 6.09375 0 7.34375 -1.515625 7.34375 -4.015625 C 7.34375 -6.5 6.109375 -8.015625 4.0625 -8.015625 L 0.984375 -8.015625 Z M 2 -0.90625 L 2 -7.109375 L 3.890625 -7.109375 C 5.484375 -7.109375 6.3125 -6.046875 6.3125 -4 C 6.3125 -1.984375 5.484375 -0.90625 3.890625 -0.90625 Z M 2 -0.90625 "/>
</symbol>
<symbol overflow="visible" id="glyph2-0">
<path style="stroke:none;" d=""/>
</symbol>
<symbol overflow="visible" id="glyph2-1">
<path style="stroke:none;" d="M -3.40625 -2.03125 L -3.40625 -4.546875 C -3.40625 -5.171875 -3.59375 -5.671875 -3.96875 -6.09375 C -4.40625 -6.578125 -4.921875 -6.78125 -5.671875 -6.78125 C -7.171875 -6.78125 -8.015625 -5.890625 -8.015625 -4.3125 L -8.015625 -1 L 0 -1 L 0 -2.03125 Z M -4.296875 -2.03125 L -7.109375 -2.03125 L -7.109375 -4.15625 C -7.109375 -5.140625 -6.59375 -5.71875 -5.703125 -5.71875 C -4.828125 -5.71875 -4.296875 -5.140625 -4.296875 -4.15625 Z M -4.296875 -2.03125 "/>
</symbol>
<symbol overflow="visible" id="glyph2-2">
<path style="stroke:none;" d="M -0.53125 -5.890625 C -0.515625 -5.78125 -0.515625 -5.734375 -0.515625 -5.6875 C -0.515625 -5.375 -0.6875 -5.1875 -0.96875 -5.1875 L -4.359375 -5.1875 C -5.375 -5.1875 -5.921875 -4.4375 -5.921875 -3.03125 C -5.921875 -2.1875 -5.6875 -1.5 -5.265625 -1.109375 C -4.96875 -0.84375 -4.625 -0.734375 -4.0625 -0.71875 L -4.0625 -1.640625 C -4.765625 -1.71875 -5.078125 -2.140625 -5.078125 -2.984375 C -5.078125 -3.8125 -4.78125 -4.28125 -4.21875 -4.28125 L -3.984375 -4.28125 C -3.59375 -4.28125 -3.4375 -4.046875 -3.34375 -3.328125 C -3.171875 -2.03125 -3.140625 -1.828125 -2.984375 -1.46875 C -2.71875 -0.796875 -2.203125 -0.46875 -1.453125 -0.46875 C -0.40625 -0.46875 0.25 -1.1875 0.25 -2.359375 C 0.25 -3.078125 0 -3.65625 -0.59375 -4.3125 C -0.015625 -4.375 0.25 -4.65625 0.25 -5.265625 C 0.25 -5.4375 0.234375 -5.59375 0.15625 -5.890625 Z M -1.8125 -4.28125 C -1.5 -4.28125 -1.3125 -4.1875 -1.0625 -3.921875 C -0.71875 -3.546875 -0.546875 -3.09375 -0.546875 -2.546875 C -0.546875 -1.84375 -0.890625 -1.421875 -1.46875 -1.421875 C -2.078125 -1.421875 -2.390625 -1.828125 -2.53125 -2.8125 C -2.65625 -3.765625 -2.703125 -3.96875 -2.84375 -4.28125 Z M -1.8125 -4.28125 "/>
</symbol>
<symbol overflow="visible" id="glyph2-3">
<path style="stroke:none;" d="M -5.765625 -0.765625 L 0 -0.765625 L 0 -1.6875 L -2.984375 -1.6875 C -3.8125 -1.6875 -4.359375 -1.890625 -4.671875 -2.328125 C -4.890625 -2.625 -4.953125 -2.890625 -4.96875 -3.53125 L -5.890625 -3.53125 C -5.921875 -3.375 -5.921875 -3.296875 -5.921875 -3.171875 C -5.921875 -2.578125 -5.578125 -2.140625 -4.71875 -1.609375 L -5.765625 -1.609375 Z M -5.765625 -0.765625 "/>
</symbol>
<symbol overflow="visible" id="glyph2-4">
<path style="stroke:none;" d="M -5.765625 -0.765625 L 0 -0.765625 L 0 -1.6875 L -3.625 -1.6875 C -4.453125 -1.6875 -5.125 -2.296875 -5.125 -3.046875 C -5.125 -3.734375 -4.703125 -4.109375 -3.96875 -4.109375 L 0 -4.109375 L 0 -5.03125 L -3.625 -5.03125 C -4.453125 -5.03125 -5.125 -5.640625 -5.125 -6.390625 C -5.125 -7.0625 -4.703125 -7.453125 -3.96875 -7.453125 L 0 -7.453125 L 0 -8.375 L -4.328125 -8.375 C -5.359375 -8.375 -5.921875 -7.78125 -5.921875 -6.703125 C -5.921875 -5.9375 -5.703125 -5.484375 -5.046875 -4.9375 C -5.671875 -4.59375 -5.921875 -4.140625 -5.921875 -3.390625 C -5.921875 -2.625 -5.640625 -2.109375 -4.953125 -1.609375 L -5.765625 -1.609375 Z M -5.765625 -0.765625 "/>
</symbol>
<symbol overflow="visible" id="glyph2-5">
<path style="stroke:none;" d="M -2.578125 -5.640625 C -3.453125 -5.640625 -3.984375 -5.578125 -4.40625 -5.40625 C -5.359375 -5.03125 -5.921875 -4.15625 -5.921875 -3.078125 C -5.921875 -1.46875 -4.703125 -0.4375 -2.8125 -0.4375 C -0.90625 -0.4375 0.25 -1.4375 0.25 -3.0625 C 0.25 -4.375 -0.5 -5.296875 -1.75 -5.515625 L -1.75 -4.59375 C -0.984375 -4.34375 -0.59375 -3.828125 -0.59375 -3.09375 C -0.59375 -2.515625 -0.859375 -2.015625 -1.34375 -1.703125 C -1.671875 -1.484375 -2 -1.40625 -2.578125 -1.390625 Z M -3.328125 -1.421875 C -4.390625 -1.5 -5.078125 -2.140625 -5.078125 -3.0625 C -5.078125 -3.96875 -4.328125 -4.65625 -3.390625 -4.65625 C -3.359375 -4.65625 -3.34375 -4.65625 -3.328125 -4.65625 Z M -3.328125 -1.421875 "/>
</symbol>
<symbol overflow="visible" id="glyph2-6">
<path style="stroke:none;" d="M -5.765625 -2.796875 L -5.765625 -1.84375 L -7.34375 -1.84375 L -7.34375 -0.9375 L -5.765625 -0.9375 L -5.765625 -0.15625 L -5.015625 -0.15625 L -5.015625 -0.9375 L -0.65625 -0.9375 C -0.078125 -0.9375 0.25 -1.328125 0.25 -2.046875 C 0.25 -2.265625 0.234375 -2.484375 0.171875 -2.796875 L -0.59375 -2.796875 C -0.5625 -2.671875 -0.546875 -2.53125 -0.546875 -2.359375 C -0.546875 -1.953125 -0.65625 -1.84375 -1.0625 -1.84375 L -5.015625 -1.84375 L -5.015625 -2.796875 Z M -5.765625 -2.796875 "/>
</symbol>
</g>
<clipPath id="clip1">
  <path d="M 112.070312 5.480469 L 355 5.480469 L 355 41 L 112.070312 41 Z M 112.070312 5.480469 "/>
</clipPath>
<clipPath id="clip2">
  <path d="M 163 5.480469 L 165 5.480469 L 165 41 L 163 41 Z M 163 5.480469 "/>
</clipPath>
<clipPath id="clip3">
  <path d="M 245 5.480469 L 246 5.480469 L 246 41 L 245 41 Z M 245 5.480469 "/>
</clipPath>
<clipPath id="clip4">
  <path d="M 326 5.480469 L 328 5.480469 L 328 41 L 326 41 Z M 326 5.480469 "/>
</clipPath>
<clipPath id="clip5">
  <path d="M 112.070312 30 L 355.519531 30 L 355.519531 32 L 112.070312 32 Z M 112.070312 30 "/>
</clipPath>
<clipPath id="clip6">
  <path d="M 112.070312 14 L 355.519531 14 L 355.519531 16 L 112.070312 16 Z M 112.070312 14 "/>
</clipPath>
<clipPath id="clip7">
  <path d="M 122 5.480469 L 124 5.480469 L 124 41 L 122 41 Z M 122 5.480469 "/>
</clipPath>
<clipPath id="clip8">
  <path d="M 204 5.480469 L 206 5.480469 L 206 41 L 204 41 Z M 204 5.480469 "/>
</clipPath>
<clipPath id="clip9">
  <path d="M 285 5.480469 L 287 5.480469 L 287 41 L 285 41 Z M 285 5.480469 "/>
</clipPath>
<clipPath id="clip10">
  <path d="M 204 5.480469 L 206 5.480469 L 206 41 L 204 41 Z M 204 5.480469 "/>
</clipPath>
<clipPath id="clip11">
  <path d="M 112.070312 5.480469 L 355.519531 5.480469 L 355.519531 41 L 112.070312 41 Z M 112.070312 5.480469 "/>
</clipPath>
</defs>
<g id="surface956">
<rect x="0" y="0" width="360" height="72" style="fill:rgb(100%,100%,100%);fill-opacity:1;stroke:none;"/>
<rect x="0" y="0" width="360" height="72" style="fill:rgb(100%,100%,100%);fill-opacity:1;stroke:none;"/>
<path style="fill:none;stroke-width:1.066978;stroke-linecap:round;stroke-linejoin:round;stroke:rgb(100%,100%,100%);stroke-opacity:1;stroke-miterlimit:10;" d="M 0 72 L 360 72 L 360 0 L 0 0 Z M 0 72 "/>
<g clip-path="url(#clip1)" clip-rule="nonzero">
<path style=" stroke:none;fill-rule:nonzero;fill:rgb(100%,100%,100%);fill-opacity:1;" d="M 112.070312 40.109375 L 354.519531 40.109375 L 354.519531 5.480469 L 112.070312 5.480469 Z M 112.070312 40.109375 "/>
</g>
<g clip-path="url(#clip2)" clip-rule="nonzero">
<path style="fill:none;stroke-width:0.533489;stroke-linecap:butt;stroke-linejoin:round;stroke:rgb(92.156863%,92.156863%,92.156863%);stroke-opacity:1;stroke-miterlimit:10;" d="M 163.90625 40.109375 L 163.90625 5.480469 "/>
</g>
<g clip-path="url(#clip3)" clip-rule="nonzero">
<path style="fill:none;stroke-width:0.533489;stroke-linecap:butt;stroke-linejoin:round;stroke:rgb(92.156863%,92.156863%,92.156863%);stroke-opacity:1;stroke-miterlimit:10;" d="M 245.539062 40.109375 L 245.539062 5.480469 "/>
</g>
<g clip-path="url(#clip4)" clip-rule="nonzero">
<path style="fill:none;stroke-width:0.533489;stroke-linecap:butt;stroke-linejoin:round;stroke:rgb(92.156863%,92.156863%,92.156863%);stroke-opacity:1;stroke-miterlimit:10;" d="M 327.171875 40.109375 L 327.171875 5.480469 "/>
</g>
<g clip-path="url(#clip5)" clip-rule="nonzero">
<path style="fill:none;stroke-width:1.066978;stroke-linecap:butt;stroke-linejoin:round;stroke:rgb(92.156863%,92.156863%,92.156863%);stroke-opacity:1;stroke-miterlimit:10;" d="M 112.070312 30.664062 L 354.519531 30.664062 "/>
</g>
<g clip-path="url(#clip6)" clip-rule="nonzero">
<path style="fill:none;stroke-width:1.066978;stroke-linecap:butt;stroke-linejoin:round;stroke:rgb(92.156863%,92.156863%,92.156863%);stroke-opacity:1;stroke-miterlimit:10;" d="M 112.070312 14.925781 L 354.519531 14.925781 "/>
</g>
<g clip-path="url(#clip7)" clip-rule="nonzero">
<path style="fill:none;stroke-width:1.066978;stroke-linecap:butt;stroke-linejoin:round;stroke:rgb(92.156863%,92.156863%,92.156863%);stroke-opacity:1;stroke-miterlimit:10;" d="M 123.089844 40.109375 L 123.089844 5.480469 "/>
</g>
<g clip-path="url(#clip8)" clip-rule="nonzero">
<path style="fill:none;stroke-width:1.066978;stroke-linecap:butt;stroke-linejoin:round;stroke:rgb(92.156863%,92.156863%,92.156863%);stroke-opacity:1;stroke-miterlimit:10;" d="M 204.722656 40.109375 L 204.722656 5.480469 "/>
</g>
<g clip-path="url(#clip9)" clip-rule="nonzero">
<path style="fill:none;stroke-width:1.066978;stroke-linecap:butt;stroke-linejoin:round;stroke:rgb(92.156863%,92.156863%,92.156863%);stroke-opacity:1;stroke-miterlimit:10;" d="M 286.355469 40.109375 L 286.355469 5.480469 "/>
</g>
<path style="fill-rule:nonzero;fill:rgb(65.098039%,65.098039%,65.098039%);fill-opacity:1;stroke-width:0.708661;stroke-linecap:round;stroke-linejoin:round;stroke:rgb(65.098039%,65.098039%,65.098039%);stroke-opacity:1;stroke-miterlimit:10;" d="M 209.503906 14.925781 C 209.503906 19.664062 202.390625 19.664062 202.390625 14.925781 C 202.390625 10.183594 209.503906 10.183594 209.503906 14.925781 "/>
<path style="fill-rule:nonzero;fill:rgb(65.098039%,65.098039%,65.098039%);fill-opacity:1;stroke-width:0.708661;stroke-linecap:round;stroke-linejoin:round;stroke:rgb(65.098039%,65.098039%,65.098039%);stroke-opacity:1;stroke-miterlimit:10;" d="M 207.054688 30.664062 C 207.054688 35.40625 199.945312 35.40625 199.945312 30.664062 C 199.945312 25.925781 207.054688 25.925781 207.054688 30.664062 "/>
<path style="fill:none;stroke-width:3.200935;stroke-linecap:butt;stroke-linejoin:round;stroke:rgb(65.098039%,65.098039%,65.098039%);stroke-opacity:1;stroke-miterlimit:10;" d="M 204.433594 14.925781 L 207.492188 14.925781 "/>
<path style="fill:none;stroke-width:3.200935;stroke-linecap:butt;stroke-linejoin:round;stroke:rgb(65.098039%,65.098039%,65.098039%);stroke-opacity:1;stroke-miterlimit:10;" d="M 201.957031 30.664062 L 205.011719 30.664062 "/>
<path style="fill:none;stroke-width:1.066978;stroke-linecap:butt;stroke-linejoin:round;stroke:rgb(65.098039%,65.098039%,65.098039%);stroke-opacity:1;stroke-miterlimit:10;" d="M 204.15625 14.925781 L 207.777344 14.925781 "/>
<path style="fill:none;stroke-width:1.066978;stroke-linecap:butt;stroke-linejoin:round;stroke:rgb(65.098039%,65.098039%,65.098039%);stroke-opacity:1;stroke-miterlimit:10;" d="M 201.671875 30.664062 L 205.292969 30.664062 "/>
<g clip-path="url(#clip10)" clip-rule="nonzero">
<path style="fill:none;stroke-width:1.066978;stroke-linecap:butt;stroke-linejoin:round;stroke:rgb(0%,0%,0%);stroke-opacity:1;stroke-dasharray:1.066978,3.200935;stroke-miterlimit:10;" d="M 204.722656 40.109375 L 204.722656 5.480469 "/>
</g>
<g clip-path="url(#clip11)" clip-rule="nonzero">
<path style="fill:none;stroke-width:1.066978;stroke-linecap:round;stroke-linejoin:round;stroke:rgb(20%,20%,20%);stroke-opacity:1;stroke-miterlimit:10;" d="M 112.070312 40.109375 L 354.519531 40.109375 L 354.519531 5.480469 L 112.070312 5.480469 Z M 112.070312 40.109375 "/>
</g>
<g style="fill:rgb(30.196078%,30.196078%,30.196078%);fill-opacity:1;">
  <use xlink:href="#glyph0-1" x="24.140625" y="33.549805"/>
  <use xlink:href="#glyph0-2" x="30.009766" y="33.549805"/>
  <use xlink:href="#glyph0-3" x="32.94043" y="33.549805"/>
  <use xlink:href="#glyph0-4" x="38.80957" y="33.549805"/>
  <use xlink:href="#glyph0-5" x="43.702148" y="33.549805"/>
  <use xlink:href="#glyph0-3" x="46.148438" y="33.549805"/>
  <use xlink:href="#glyph0-6" x="52.017578" y="33.549805"/>
  <use xlink:href="#glyph0-7" x="56.910156" y="33.549805"/>
  <use xlink:href="#glyph0-8" x="59.198242" y="33.549805"/>
  <use xlink:href="#glyph0-9" x="64.09082" y="33.549805"/>
  <use xlink:href="#glyph0-10" x="68.983398" y="33.549805"/>
  <use xlink:href="#glyph0-8" x="71.429688" y="33.549805"/>
  <use xlink:href="#glyph0-11" x="76.322266" y="33.549805"/>
  <use xlink:href="#glyph0-12" x="81.214844" y="33.549805"/>
  <use xlink:href="#glyph0-13" x="88.544922" y="33.549805"/>
  <use xlink:href="#glyph0-14" x="93.4375" y="33.549805"/>
  <use xlink:href="#glyph0-15" x="96.368164" y="33.549805"/>
  <use xlink:href="#glyph0-16" x="101.260742" y="33.549805"/>
  <use xlink:href="#glyph0-17" x="103.213867" y="33.549805"/>
</g>
<g style="fill:rgb(30.196078%,30.196078%,30.196078%);fill-opacity:1;">
  <use xlink:href="#glyph0-1" x="20.140625" y="17.811523"/>
  <use xlink:href="#glyph0-2" x="26.009766" y="17.811523"/>
  <use xlink:href="#glyph0-3" x="28.94043" y="17.811523"/>
  <use xlink:href="#glyph0-4" x="34.80957" y="17.811523"/>
  <use xlink:href="#glyph0-5" x="39.702148" y="17.811523"/>
  <use xlink:href="#glyph0-3" x="42.148438" y="17.811523"/>
  <use xlink:href="#glyph0-6" x="48.017578" y="17.811523"/>
  <use xlink:href="#glyph0-7" x="52.910156" y="17.811523"/>
  <use xlink:href="#glyph0-18" x="55.198242" y="17.811523"/>
  <use xlink:href="#glyph0-15" x="60.09082" y="17.811523"/>
  <use xlink:href="#glyph0-19" x="64.983398" y="17.811523"/>
  <use xlink:href="#glyph0-10" x="69.383789" y="17.811523"/>
  <use xlink:href="#glyph0-8" x="71.830078" y="17.811523"/>
  <use xlink:href="#glyph0-11" x="76.722656" y="17.811523"/>
  <use xlink:href="#glyph0-12" x="81.615234" y="17.811523"/>
  <use xlink:href="#glyph0-13" x="88.945312" y="17.811523"/>
  <use xlink:href="#glyph0-14" x="93.837891" y="17.811523"/>
  <use xlink:href="#glyph0-15" x="96.768555" y="17.811523"/>
  <use xlink:href="#glyph0-16" x="101.661133" y="17.811523"/>
  <use xlink:href="#glyph0-17" x="103.614258" y="17.811523"/>
</g>
<path style="fill:none;stroke-width:1.066978;stroke-linecap:butt;stroke-linejoin:round;stroke:rgb(20%,20%,20%);stroke-opacity:1;stroke-miterlimit:10;" d="M 109.332031 30.664062 L 112.070312 30.664062 "/>
<path style="fill:none;stroke-width:1.066978;stroke-linecap:butt;stroke-linejoin:round;stroke:rgb(20%,20%,20%);stroke-opacity:1;stroke-miterlimit:10;" d="M 109.332031 14.925781 L 112.070312 14.925781 "/>
<path style="fill:none;stroke-width:1.066978;stroke-linecap:butt;stroke-linejoin:round;stroke:rgb(20%,20%,20%);stroke-opacity:1;stroke-miterlimit:10;" d="M 123.089844 42.847656 L 123.089844 40.109375 "/>
<path style="fill:none;stroke-width:1.066978;stroke-linecap:butt;stroke-linejoin:round;stroke:rgb(20%,20%,20%);stroke-opacity:1;stroke-miterlimit:10;" d="M 204.722656 42.847656 L 204.722656 40.109375 "/>
<path style="fill:none;stroke-width:1.066978;stroke-linecap:butt;stroke-linejoin:round;stroke:rgb(20%,20%,20%);stroke-opacity:1;stroke-miterlimit:10;" d="M 286.355469 42.847656 L 286.355469 40.109375 "/>
<g style="fill:rgb(30.196078%,30.196078%,30.196078%);fill-opacity:1;">
  <use xlink:href="#glyph0-20" x="119.089844" y="51.428711"/>
  <use xlink:href="#glyph0-21" x="122.020508" y="51.428711"/>
</g>
<g style="fill:rgb(30.196078%,30.196078%,30.196078%);fill-opacity:1;">
  <use xlink:href="#glyph0-22" x="202.222656" y="51.428711"/>
</g>
<g style="fill:rgb(30.196078%,30.196078%,30.196078%);fill-opacity:1;">
  <use xlink:href="#glyph0-21" x="283.855469" y="51.428711"/>
</g>
<g style="fill:rgb(0%,0%,0%);fill-opacity:1;">
  <use xlink:href="#glyph1-1" x="221.296875" y="66.00293"/>
  <use xlink:href="#glyph1-2" x="229.239258" y="66.00293"/>
  <use xlink:href="#glyph1-3" x="236.576172" y="66.00293"/>
</g>
<g style="fill:rgb(0%,0%,0%);fill-opacity:1;">
  <use xlink:href="#glyph2-1" x="13.963867" y="48.792969"/>
  <use xlink:href="#glyph2-2" x="13.963867" y="41.456055"/>
  <use xlink:href="#glyph2-3" x="13.963867" y="35.339844"/>
  <use xlink:href="#glyph2-2" x="13.963867" y="31.676758"/>
  <use xlink:href="#glyph2-4" x="13.963867" y="25.560547"/>
  <use xlink:href="#glyph2-5" x="13.963867" y="16.397461"/>
  <use xlink:href="#glyph2-6" x="13.963867" y="10.28125"/>
  <use xlink:href="#glyph2-5" x="13.963867" y="7.223633"/>
  <use xlink:href="#glyph2-3" x="13.963867" y="1.107422"/>
</g>
</g>
</svg>
