<?xml version="1.0" encoding="UTF-8"?>
<svg xmlns="http://www.w3.org/2000/svg" xmlns:xlink="http://www.w3.org/1999/xlink" width="576pt" height="165pt" viewBox="0 0 576 165" version="1.1">
<defs>
<g>
<symbol overflow="visible" id="glyph0-0">
<path style="stroke:none;" d=""/>
</symbol>
<symbol overflow="visible" id="glyph0-1">
<path style="stroke:none;" d="M 2.140625 -2.46875 L 3.921875 -2.46875 C 5.203125 -2.46875 6.015625 -3.375 6.015625 -4.78125 C 6.015625 -6.171875 5.21875 -6.921875 3.78125 -6.921875 L 0.71875 -6.921875 L 0.71875 0 L 2.140625 0 Z M 2.140625 -3.65625 L 2.140625 -5.734375 L 3.484375 -5.734375 C 4.234375 -5.734375 4.59375 -5.40625 4.59375 -4.6875 C 4.59375 -3.984375 4.234375 -3.65625 3.484375 -3.65625 Z M 2.140625 -3.65625 "/>
</symbol>
<symbol overflow="visible" id="glyph0-2">
<path style="stroke:none;" d="M 1.96875 -5.125 L 0.640625 -5.125 L 0.640625 0 L 1.96875 0 Z M 1.96875 -6.921875 L 0.640625 -6.921875 L 0.640625 -5.734375 L 1.96875 -5.734375 Z M 1.96875 -6.921875 "/>
</symbol>
<symbol overflow="visible" id="glyph0-3">
<path style="stroke:none;" d="M 2.859375 -5.03125 L 2.125 -5.03125 L 2.125 -6.40625 L 0.78125 -6.40625 L 0.78125 -5.03125 L 0.140625 -5.03125 L 0.140625 -4.140625 L 0.78125 -4.140625 L 0.78125 -0.984375 C 0.78125 -0.1875 1.21875 0.21875 2.09375 0.21875 C 2.390625 0.21875 2.625 0.1875 2.859375 0.109375 L 2.859375 -0.8125 C 2.71875 -0.796875 2.65625 -0.78125 2.5625 -0.78125 C 2.203125 -0.78125 2.125 -0.890625 2.125 -1.34375 L 2.125 -4.140625 L 2.859375 -4.140625 Z M 2.859375 -5.03125 "/>
</symbol>
<symbol overflow="visible" id="glyph0-4">
<path style="stroke:none;" d="M 1.890625 -3.140625 L 1.890625 -6.921875 L 0.5625 -6.921875 L 0.5625 0 L 1.890625 0 L 1.890625 -1.6875 L 2.421875 -2.265625 L 3.640625 0 L 5.203125 0 L 3.328125 -3.1875 L 5.078125 -5.125 L 3.578125 -5.125 Z M 1.890625 -3.140625 "/>
</symbol>
<symbol overflow="visible" id="glyph0-5">
<path style="stroke:none;" d="M 4.984375 -0.15625 C 4.734375 -0.375 4.671875 -0.515625 4.671875 -0.78125 L 4.671875 -3.640625 C 4.671875 -4.6875 3.96875 -5.21875 2.578125 -5.21875 C 1.1875 -5.21875 0.46875 -4.625 0.375 -3.4375 L 1.65625 -3.4375 C 1.734375 -3.96875 1.953125 -4.140625 2.609375 -4.140625 C 3.109375 -4.140625 3.375 -3.96875 3.375 -3.625 C 3.375 -3.453125 3.28125 -3.3125 3.140625 -3.234375 C 2.96875 -3.140625 2.96875 -3.140625 2.3125 -3.03125 L 1.78125 -2.9375 C 0.765625 -2.765625 0.265625 -2.234375 0.265625 -1.328125 C 0.265625 -0.890625 0.390625 -0.515625 0.625 -0.265625 C 0.921875 0.03125 1.375 0.21875 1.828125 0.21875 C 2.390625 0.21875 2.921875 -0.03125 3.375 -0.515625 C 3.375 -0.25 3.40625 -0.15625 3.53125 0 L 4.984375 0 Z M 3.375 -2.0625 C 3.375 -1.296875 3 -0.859375 2.3125 -0.859375 C 1.875 -0.859375 1.59375 -1.09375 1.59375 -1.46875 C 1.59375 -1.875 1.8125 -2.0625 2.359375 -2.171875 L 2.8125 -2.265625 C 3.15625 -2.328125 3.21875 -2.34375 3.375 -2.421875 Z M 2.21875 -7.0625 L 1.171875 -7.0625 L 1.171875 -5.90625 L 2.21875 -5.90625 Z M 3.984375 -7.0625 L 2.9375 -7.0625 L 2.9375 -5.90625 L 3.984375 -5.90625 Z M 3.984375 -7.0625 "/>
</symbol>
<symbol overflow="visible" id="glyph0-6">
<path style="stroke:none;" d=""/>
</symbol>
<symbol overflow="visible" id="glyph0-7">
<path style="stroke:none;" d="M 4.796875 -3.484375 C 4.78125 -4.5625 3.9375 -5.21875 2.5625 -5.21875 C 1.265625 -5.21875 0.453125 -4.5625 0.453125 -3.5 C 0.453125 -3.15625 0.5625 -2.875 0.734375 -2.671875 C 0.921875 -2.484375 1.078125 -2.40625 1.578125 -2.234375 L 3.15625 -1.75 C 3.5 -1.640625 3.609375 -1.53125 3.609375 -1.328125 C 3.609375 -1.015625 3.234375 -0.828125 2.625 -0.828125 C 2.28125 -0.828125 2 -0.890625 1.828125 -1 C 1.6875 -1.109375 1.640625 -1.21875 1.578125 -1.484375 L 0.28125 -1.484375 C 0.3125 -0.375 1.140625 0.21875 2.703125 0.21875 C 3.40625 0.21875 3.953125 0.0625 4.328125 -0.234375 C 4.71875 -0.546875 4.9375 -1.015625 4.9375 -1.515625 C 4.9375 -2.1875 4.609375 -2.609375 3.9375 -2.8125 L 2.25 -3.296875 C 1.875 -3.40625 1.78125 -3.484375 1.78125 -3.703125 C 1.78125 -3.984375 2.09375 -4.171875 2.5625 -4.171875 C 3.1875 -4.171875 3.5 -3.9375 3.515625 -3.484375 Z M 4.796875 -3.484375 "/>
</symbol>
<symbol overflow="visible" id="glyph0-8">
<path style="stroke:none;" d="M 5.140625 0 L 5.140625 -5.125 L 3.8125 -5.125 L 3.8125 -1.921875 C 3.8125 -1.3125 3.375 -0.90625 2.734375 -0.90625 C 2.171875 -0.90625 1.875 -1.21875 1.875 -1.828125 L 1.875 -5.125 L 0.546875 -5.125 L 0.546875 -1.5625 C 0.546875 -0.421875 1.171875 0.21875 2.265625 0.21875 C 2.96875 0.21875 3.421875 -0.03125 3.8125 -0.609375 L 3.8125 0 Z M 5.140625 0 "/>
</symbol>
<symbol overflow="visible" id="glyph0-9">
<path style="stroke:none;" d="M 0.5625 -6.921875 L 0.5625 0 L 1.890625 0 L 1.890625 -0.515625 C 2.21875 -0.015625 2.65625 0.21875 3.3125 0.21875 C 4.53125 0.21875 5.46875 -0.953125 5.46875 -2.5 C 5.46875 -3.1875 5.25 -3.890625 4.90625 -4.390625 C 4.5625 -4.890625 3.9375 -5.21875 3.3125 -5.21875 C 2.671875 -5.21875 2.21875 -4.984375 1.890625 -4.46875 L 1.890625 -6.921875 Z M 3.015625 -4.109375 C 3.671875 -4.109375 4.125 -3.4375 4.125 -2.484375 C 4.125 -1.5625 3.671875 -0.890625 3.015625 -0.890625 C 2.34375 -0.890625 1.890625 -1.53125 1.890625 -2.515625 C 1.890625 -3.453125 2.34375 -4.109375 3.015625 -4.109375 Z M 3.015625 -4.109375 "/>
</symbol>
<symbol overflow="visible" id="glyph0-10">
<path style="stroke:none;" d="M 2 -5.125 L 0.671875 -5.125 L 0.671875 0.59375 C 0.671875 0.890625 0.5625 1 0.28125 1 C 0.1875 1 0.140625 0.984375 0.03125 0.953125 L 0.03125 2.03125 C 0.296875 2.046875 0.640625 2.078125 0.828125 2.078125 C 1.65625 2.078125 2 1.734375 2 0.890625 Z M 2 -6.921875 L 0.671875 -6.921875 L 0.671875 -5.734375 L 2 -5.734375 Z M 2 -6.921875 "/>
</symbol>
<symbol overflow="visible" id="glyph0-11">
<path style="stroke:none;" d="M 4.984375 -2.140625 C 4.984375 -2.265625 4.984375 -2.3125 4.984375 -2.375 C 4.984375 -2.890625 4.90625 -3.359375 4.78125 -3.71875 C 4.453125 -4.65625 3.625 -5.21875 2.578125 -5.21875 C 1.109375 -5.21875 0.203125 -4.15625 0.203125 -2.4375 C 0.203125 -0.78125 1.109375 0.21875 2.5625 0.21875 C 3.703125 0.21875 4.640625 -0.4375 4.9375 -1.4375 L 3.625 -1.4375 C 3.453125 -1.03125 3.09375 -0.796875 2.609375 -0.796875 C 2.21875 -0.796875 1.921875 -0.953125 1.734375 -1.25 C 1.609375 -1.4375 1.5625 -1.65625 1.53125 -2.140625 Z M 1.5625 -3.03125 C 1.640625 -3.8125 1.96875 -4.203125 2.5625 -4.203125 C 2.890625 -4.203125 3.203125 -4.03125 3.390625 -3.765625 C 3.515625 -3.578125 3.578125 -3.375 3.59375 -3.03125 Z M 1.5625 -3.03125 "/>
</symbol>
<symbol overflow="visible" id="glyph0-12">
<path style="stroke:none;" d="M 4.984375 -0.15625 C 4.734375 -0.375 4.671875 -0.515625 4.671875 -0.78125 L 4.671875 -3.640625 C 4.671875 -4.6875 3.96875 -5.21875 2.578125 -5.21875 C 1.1875 -5.21875 0.46875 -4.625 0.375 -3.4375 L 1.65625 -3.4375 C 1.734375 -3.96875 1.953125 -4.140625 2.609375 -4.140625 C 3.109375 -4.140625 3.375 -3.96875 3.375 -3.625 C 3.375 -3.453125 3.28125 -3.3125 3.140625 -3.234375 C 2.96875 -3.140625 2.96875 -3.140625 2.3125 -3.03125 L 1.78125 -2.9375 C 0.765625 -2.765625 0.265625 -2.234375 0.265625 -1.328125 C 0.265625 -0.890625 0.390625 -0.515625 0.625 -0.265625 C 0.921875 0.03125 1.375 0.21875 1.828125 0.21875 C 2.390625 0.21875 2.921875 -0.03125 3.375 -0.515625 C 3.375 -0.25 3.40625 -0.15625 3.53125 0 L 4.984375 0 Z M 3.375 -2.0625 C 3.375 -1.296875 3 -0.859375 2.3125 -0.859375 C 1.875 -0.859375 1.59375 -1.09375 1.59375 -1.46875 C 1.59375 -1.875 1.8125 -2.0625 2.359375 -2.171875 L 2.8125 -2.265625 C 3.15625 -2.328125 3.21875 -2.34375 3.375 -2.421875 Z M 3.375 -2.0625 "/>
</symbol>
<symbol overflow="visible" id="glyph0-13">
<path style="stroke:none;" d="M 2.859375 -5.21875 C 1.296875 -5.21875 0.328125 -4.1875 0.328125 -2.5 C 0.328125 -0.8125 1.296875 0.21875 2.875 0.21875 C 4.421875 0.21875 5.40625 -0.8125 5.40625 -2.453125 C 5.40625 -4.203125 4.46875 -5.21875 2.859375 -5.21875 Z M 2.875 -4.140625 C 3.59375 -4.140625 4.078125 -3.484375 4.078125 -2.484375 C 4.078125 -1.515625 3.578125 -0.859375 2.875 -0.859375 C 2.140625 -0.859375 1.65625 -1.515625 1.65625 -2.5 C 1.65625 -3.484375 2.140625 -4.140625 2.875 -4.140625 Z M 2.875 -4.140625 "/>
</symbol>
<symbol overflow="visible" id="glyph0-14">
<path style="stroke:none;" d="M 0.5625 -5.125 L 0.5625 0 L 1.90625 0 L 1.90625 -3.078125 C 1.90625 -3.703125 2.234375 -4.078125 2.8125 -4.078125 C 3.265625 -4.078125 3.53125 -3.828125 3.53125 -3.421875 L 3.53125 0 L 4.859375 0 L 4.859375 -3.078125 C 4.859375 -3.703125 5.203125 -4.078125 5.78125 -4.078125 C 6.21875 -4.078125 6.5 -3.828125 6.5 -3.421875 L 6.5 0 L 7.828125 0 L 7.828125 -3.625 C 7.828125 -4.625 7.21875 -5.21875 6.1875 -5.21875 C 5.546875 -5.21875 5.09375 -4.984375 4.6875 -4.453125 C 4.453125 -4.9375 3.9375 -5.21875 3.296875 -5.21875 C 2.703125 -5.21875 2.328125 -5.015625 1.890625 -4.5 L 1.890625 -5.125 Z M 0.5625 -5.125 "/>
</symbol>
<symbol overflow="visible" id="glyph0-15">
<path style="stroke:none;" d="M 0.59375 -5.125 L 0.59375 0 L 1.921875 0 L 1.921875 -3.078125 C 1.921875 -3.6875 2.359375 -4.078125 3 -4.078125 C 3.578125 -4.078125 3.859375 -3.765625 3.859375 -3.15625 L 3.859375 0 L 5.1875 0 L 5.1875 -3.4375 C 5.1875 -4.5625 4.5625 -5.21875 3.46875 -5.21875 C 2.78125 -5.21875 2.3125 -4.953125 1.921875 -4.390625 L 1.921875 -5.125 Z M 0.59375 -5.125 "/>
</symbol>
<symbol overflow="visible" id="glyph0-16">
<path style="stroke:none;" d="M 5.765625 -4.8125 C 5.765625 -5.453125 5.625 -5.875 5.28125 -6.25 C 4.8125 -6.765625 4.046875 -7.046875 3.046875 -7.046875 C 1.390625 -7.046875 0.421875 -6.265625 0.421875 -4.90625 C 0.421875 -3.84375 0.96875 -3.3125 2.375 -3.046875 L 3.34375 -2.859375 C 4.296875 -2.671875 4.640625 -2.40625 4.640625 -1.859375 C 4.640625 -1.265625 4.109375 -0.921875 3.25 -0.921875 C 2.28125 -0.921875 1.734375 -1.328125 1.6875 -2.078125 L 0.296875 -2.078125 C 0.390625 -0.59375 1.40625 0.21875 3.171875 0.21875 C 4.953125 0.21875 6.015625 -0.625 6.015625 -2.03125 C 6.015625 -3.109375 5.46875 -3.6875 4.1875 -3.9375 L 3.09375 -4.140625 C 2.078125 -4.34375 1.78125 -4.546875 1.78125 -5.046875 C 1.78125 -5.5625 2.25 -5.90625 2.984375 -5.90625 C 3.890625 -5.90625 4.390625 -5.515625 4.4375 -4.8125 Z M 5.765625 -4.8125 "/>
</symbol>
<symbol overflow="visible" id="glyph0-17">
<path style="stroke:none;" d="M 4.859375 -1.1875 L 2.015625 -1.1875 C 2.1875 -1.546875 2.390625 -1.734375 3.375 -2.453125 C 4.546875 -3.3125 4.890625 -3.828125 4.890625 -4.734375 C 4.890625 -6.046875 4 -6.875 2.578125 -6.875 C 1.1875 -6.875 0.375 -6.046875 0.375 -4.625 C 0.375 -4.5625 0.375 -4.5 0.375 -4.390625 L 1.65625 -4.390625 L 1.65625 -4.609375 C 1.65625 -5.359375 2 -5.796875 2.609375 -5.796875 C 3.203125 -5.796875 3.5625 -5.390625 3.5625 -4.71875 C 3.5625 -3.96875 3.328125 -3.671875 1.84375 -2.625 C 0.703125 -1.84375 0.34375 -1.25 0.28125 0 L 4.859375 0 Z M 4.859375 -1.1875 "/>
</symbol>
<symbol overflow="visible" id="glyph0-18">
<path style="stroke:none;" d="M 1.96875 -6.78125 L 0.015625 0.140625 L 0.65625 0.140625 L 2.609375 -6.78125 Z M 1.96875 -6.78125 "/>
</symbol>
<symbol overflow="visible" id="glyph0-19">
<path style="stroke:none;" d="M 2.0625 -3.015625 C 2.53125 -3.015625 2.609375 -3 2.84375 -2.9375 C 3.28125 -2.828125 3.578125 -2.4375 3.578125 -1.9375 C 3.578125 -1.34375 3.15625 -0.921875 2.578125 -0.921875 C 1.953125 -0.921875 1.609375 -1.28125 1.5625 -1.96875 L 0.28125 -1.96875 C 0.28125 -0.625 1.171875 0.21875 2.546875 0.21875 C 3.984375 0.21875 4.90625 -0.625 4.90625 -1.9375 C 4.90625 -2.71875 4.5625 -3.234375 3.796875 -3.609375 C 4.421875 -4 4.6875 -4.421875 4.6875 -5.046875 C 4.6875 -6.171875 3.84375 -6.875 2.546875 -6.875 C 1.78125 -6.875 1.125 -6.609375 0.75 -6.125 C 0.484375 -5.78125 0.359375 -5.328125 0.359375 -4.734375 L 0.359375 -4.609375 L 1.59375 -4.609375 C 1.609375 -4.984375 1.640625 -5.15625 1.703125 -5.328125 C 1.828125 -5.625 2.125 -5.796875 2.515625 -5.796875 C 3.046875 -5.796875 3.359375 -5.484375 3.359375 -4.921875 C 3.359375 -4.25 2.96875 -3.90625 2.171875 -3.90625 L 2.0625 -3.90625 Z M 2.0625 -3.015625 "/>
</symbol>
<symbol overflow="visible" id="glyph0-20">
<path style="stroke:none;" d="M 3.328125 0 L 5.09375 -5.125 L 3.6875 -5.125 L 2.65625 -1.375 L 1.53125 -5.125 L 0.140625 -5.125 L 1.921875 0 Z M 3.328125 0 "/>
</symbol>
<symbol overflow="visible" id="glyph0-21">
<path style="stroke:none;" d="M 2.265625 -4.640625 L 2.265625 0 L 3.59375 0 L 3.59375 -6.734375 L 2.703125 -6.734375 C 2.5 -5.9375 1.8125 -5.53125 0.640625 -5.53125 L 0.640625 -4.640625 Z M 2.265625 -4.640625 "/>
</symbol>
<symbol overflow="visible" id="glyph1-0">
<path style="stroke:none;" d=""/>
</symbol>
<symbol overflow="visible" id="glyph1-1">
<path style="stroke:none;" d="M 2.25 -2.46875 L 0.359375 -2.46875 L 0.359375 -1.90625 L 2.25 -1.90625 Z M 2.25 -2.46875 "/>
</symbol>
<symbol overflow="visible" id="glyph1-2">
<path style="stroke:none;" d="M 2.171875 -5.609375 C 1.65625 -5.609375 1.1875 -5.390625 0.890625 -5 C 0.515625 -4.5 0.34375 -3.75 0.34375 -2.71875 C 0.34375 -0.828125 0.96875 0.1875 2.171875 0.1875 C 3.359375 0.1875 4.015625 -0.828125 4.015625 -2.671875 C 4.015625 -3.765625 3.84375 -4.484375 3.46875 -5 C 3.171875 -5.390625 2.703125 -5.609375 2.171875 -5.609375 Z M 2.171875 -5 C 2.9375 -5 3.296875 -4.234375 3.296875 -2.734375 C 3.296875 -1.140625 2.9375 -0.390625 2.15625 -0.390625 C 1.421875 -0.390625 1.046875 -1.171875 1.046875 -2.703125 C 1.046875 -4.25 1.421875 -5 2.171875 -5 Z M 2.171875 -5 "/>
</symbol>
<symbol overflow="visible" id="glyph1-3">
<path style="stroke:none;" d="M 1.515625 -0.828125 L 0.6875 -0.828125 L 0.6875 0 L 1.515625 0 Z M 1.515625 -0.828125 "/>
</symbol>
<symbol overflow="visible" id="glyph1-4">
<path style="stroke:none;" d="M 3.765625 -5.609375 L 0.875 -5.609375 L 0.453125 -2.5625 L 1.09375 -2.5625 C 1.421875 -2.953125 1.6875 -3.078125 2.125 -3.078125 C 2.875 -3.078125 3.34375 -2.5625 3.34375 -1.734375 C 3.34375 -0.921875 2.890625 -0.4375 2.125 -0.4375 C 1.515625 -0.4375 1.140625 -0.75 0.96875 -1.375 L 0.28125 -1.375 C 0.375 -0.921875 0.453125 -0.703125 0.625 -0.484375 C 0.9375 -0.0625 1.5 0.1875 2.140625 0.1875 C 3.265625 0.1875 4.0625 -0.640625 4.0625 -1.828125 C 4.0625 -2.9375 3.328125 -3.703125 2.25 -3.703125 C 1.859375 -3.703125 1.53125 -3.59375 1.21875 -3.359375 L 1.4375 -4.921875 L 3.765625 -4.921875 Z M 3.765625 -5.609375 "/>
</symbol>
<symbol overflow="visible" id="glyph1-5">
<path style="stroke:none;" d="M 2.046875 -4 L 2.046875 0 L 2.75 0 L 2.75 -5.609375 L 2.296875 -5.609375 C 2.046875 -4.75 1.890625 -4.640625 0.8125 -4.5 L 0.8125 -4 Z M 2.046875 -4 "/>
</symbol>
<symbol overflow="visible" id="glyph1-6">
<path style="stroke:none;" d="M 4.015625 -0.6875 L 1.046875 -0.6875 C 1.125 -1.15625 1.375 -1.4375 2.0625 -1.84375 L 2.859375 -2.28125 C 3.640625 -2.703125 4.046875 -3.28125 4.046875 -3.96875 C 4.046875 -4.4375 3.859375 -4.875 3.53125 -5.171875 C 3.1875 -5.46875 2.78125 -5.609375 2.25 -5.609375 C 1.53125 -5.609375 1 -5.359375 0.703125 -4.890625 C 0.5 -4.59375 0.40625 -4.234375 0.390625 -3.671875 L 1.09375 -3.671875 C 1.109375 -4.046875 1.171875 -4.28125 1.265625 -4.453125 C 1.4375 -4.796875 1.8125 -5 2.21875 -5 C 2.859375 -5 3.328125 -4.5625 3.328125 -3.953125 C 3.328125 -3.515625 3.078125 -3.125 2.578125 -2.84375 L 1.84375 -2.4375 C 0.671875 -1.765625 0.328125 -1.234375 0.265625 0 L 4.015625 0 Z M 4.015625 -0.6875 "/>
</symbol>
<symbol overflow="visible" id="glyph1-7">
<path style="stroke:none;" d="M 0.546875 -4.15625 L 0.546875 0 L 1.21875 0 L 1.21875 -2.609375 C 1.21875 -3.203125 1.65625 -3.6875 2.1875 -3.6875 C 2.6875 -3.6875 2.96875 -3.390625 2.96875 -2.859375 L 2.96875 0 L 3.625 0 L 3.625 -2.609375 C 3.625 -3.203125 4.0625 -3.6875 4.609375 -3.6875 C 5.078125 -3.6875 5.375 -3.375 5.375 -2.859375 L 5.375 0 L 6.03125 0 L 6.03125 -3.109375 C 6.03125 -3.859375 5.609375 -4.265625 4.828125 -4.265625 C 4.28125 -4.265625 3.9375 -4.109375 3.5625 -3.640625 C 3.3125 -4.078125 2.984375 -4.265625 2.4375 -4.265625 C 1.890625 -4.265625 1.515625 -4.0625 1.171875 -3.5625 L 1.171875 -4.15625 Z M 0.546875 -4.15625 "/>
</symbol>
<symbol overflow="visible" id="glyph1-8">
<path style="stroke:none;" d="M 2.15625 -4.265625 C 0.984375 -4.265625 0.28125 -3.4375 0.28125 -2.046875 C 0.28125 -0.65625 0.984375 0.1875 2.15625 0.1875 C 3.328125 0.1875 4.046875 -0.65625 4.046875 -2.015625 C 4.046875 -3.453125 3.34375 -4.265625 2.15625 -4.265625 Z M 2.15625 -3.65625 C 2.90625 -3.65625 3.34375 -3.046875 3.34375 -2.015625 C 3.34375 -1.046875 2.890625 -0.421875 2.15625 -0.421875 C 1.421875 -0.421875 0.96875 -1.03125 0.96875 -2.046875 C 0.96875 -3.046875 1.421875 -3.65625 2.15625 -3.65625 Z M 2.15625 -3.65625 "/>
</symbol>
<symbol overflow="visible" id="glyph1-9">
<path style="stroke:none;" d="M 3.921875 -5.78125 L 3.265625 -5.78125 L 3.265625 -3.625 C 2.984375 -4.046875 2.546875 -4.265625 1.984375 -4.265625 C 0.90625 -4.265625 0.203125 -3.40625 0.203125 -2.078125 C 0.203125 -0.6875 0.890625 0.1875 2.015625 0.1875 C 2.578125 0.1875 2.984375 -0.03125 3.328125 -0.546875 L 3.328125 0 L 3.921875 0 Z M 2.09375 -3.65625 C 2.8125 -3.65625 3.265625 -3.015625 3.265625 -2.03125 C 3.265625 -1.0625 2.796875 -0.4375 2.109375 -0.4375 C 1.375 -0.4375 0.890625 -1.078125 0.890625 -2.046875 C 0.890625 -3.015625 1.375 -3.65625 2.09375 -3.65625 Z M 2.09375 -3.65625 "/>
</symbol>
<symbol overflow="visible" id="glyph1-10">
<path style="stroke:none;" d="M 4.0625 -1.859375 C 4.0625 -2.484375 4.015625 -2.875 3.890625 -3.171875 C 3.625 -3.859375 3 -4.265625 2.21875 -4.265625 C 1.0625 -4.265625 0.3125 -3.375 0.3125 -2.015625 C 0.3125 -0.65625 1.03125 0.1875 2.203125 0.1875 C 3.15625 0.1875 3.8125 -0.359375 3.984375 -1.265625 L 3.3125 -1.265625 C 3.125 -0.71875 2.75 -0.421875 2.21875 -0.421875 C 1.8125 -0.421875 1.453125 -0.625 1.234375 -0.96875 C 1.0625 -1.203125 1.015625 -1.4375 1 -1.859375 Z M 1.015625 -2.390625 C 1.078125 -3.15625 1.546875 -3.65625 2.203125 -3.65625 C 2.859375 -3.65625 3.359375 -3.125 3.359375 -2.4375 C 3.359375 -2.421875 3.359375 -2.40625 3.34375 -2.390625 Z M 1.015625 -2.390625 "/>
</symbol>
<symbol overflow="visible" id="glyph1-11">
<path style="stroke:none;" d="M 3.9375 -4.15625 C 3.8125 -5.0625 3.203125 -5.609375 2.359375 -5.609375 C 1.734375 -5.609375 1.1875 -5.3125 0.84375 -4.8125 C 0.5 -4.265625 0.34375 -3.578125 0.34375 -2.5625 C 0.34375 -1.609375 0.484375 -1.015625 0.8125 -0.515625 C 1.109375 -0.0625 1.609375 0.1875 2.21875 0.1875 C 3.296875 0.1875 4.0625 -0.609375 4.0625 -1.71875 C 4.0625 -2.75 3.34375 -3.5 2.34375 -3.5 C 1.796875 -3.5 1.359375 -3.28125 1.046875 -2.875 C 1.0625 -4.234375 1.5 -5 2.3125 -5 C 2.796875 -5 3.140625 -4.6875 3.25 -4.15625 Z M 2.25 -2.875 C 2.9375 -2.875 3.34375 -2.40625 3.34375 -1.65625 C 3.34375 -0.953125 2.875 -0.4375 2.234375 -0.4375 C 1.578125 -0.4375 1.09375 -0.96875 1.09375 -1.6875 C 1.09375 -2.390625 1.5625 -2.875 2.25 -2.875 Z M 2.25 -2.875 "/>
</symbol>
<symbol overflow="visible" id="glyph1-12">
<path style="stroke:none;" d="M 0.421875 -1.28125 C 0.546875 -0.359375 1.15625 0.1875 2.015625 0.1875 C 2.625 0.1875 3.1875 -0.125 3.515625 -0.625 C 3.875 -1.171875 4.03125 -1.859375 4.03125 -2.875 C 4.03125 -3.8125 3.890625 -4.421875 3.5625 -4.921875 C 3.25 -5.375 2.75 -5.609375 2.140625 -5.609375 C 1.0625 -5.609375 0.296875 -4.828125 0.296875 -3.71875 C 0.296875 -2.671875 1.015625 -1.9375 2.03125 -1.9375 C 2.5625 -1.9375 2.953125 -2.125 3.3125 -2.5625 C 3.296875 -1.203125 2.859375 -0.4375 2.0625 -0.4375 C 1.5625 -0.4375 1.234375 -0.75 1.109375 -1.28125 Z M 2.125 -5 C 2.78125 -5 3.265625 -4.46875 3.265625 -3.734375 C 3.265625 -3.046875 2.78125 -2.5625 2.109375 -2.5625 C 1.4375 -2.5625 1.015625 -3.03125 1.015625 -3.78125 C 1.015625 -4.484375 1.484375 -5 2.125 -5 Z M 2.125 -5 "/>
</symbol>
<symbol overflow="visible" id="glyph1-13">
<path style="stroke:none;" d="M 1.578125 -5.421875 C 0.84375 -5.421875 0.234375 -4.8125 0.234375 -4.078125 C 0.234375 -3.328125 0.84375 -2.71875 1.578125 -2.71875 C 2.328125 -2.71875 2.9375 -3.328125 2.9375 -4.0625 C 2.9375 -4.828125 2.34375 -5.421875 1.578125 -5.421875 Z M 1.578125 -4.875 C 2.03125 -4.875 2.390625 -4.515625 2.390625 -4.0625 C 2.390625 -3.625 2.015625 -3.265625 1.578125 -3.265625 C 1.140625 -3.265625 0.78125 -3.640625 0.78125 -4.078125 C 0.78125 -4.515625 1.140625 -4.875 1.578125 -4.875 Z M 4.828125 -5.609375 L 1.6875 0.15625 L 2.21875 0.15625 L 5.34375 -5.609375 Z M 5.453125 -2.546875 C 4.71875 -2.546875 4.109375 -1.9375 4.109375 -1.203125 C 4.109375 -0.453125 4.71875 0.15625 5.453125 0.15625 C 6.1875 0.15625 6.8125 -0.453125 6.8125 -1.1875 C 6.8125 -1.953125 6.203125 -2.546875 5.453125 -2.546875 Z M 5.453125 -2 C 5.90625 -2 6.265625 -1.640625 6.265625 -1.1875 C 6.265625 -0.765625 5.890625 -0.40625 5.453125 -0.40625 C 5.015625 -0.40625 4.65625 -0.765625 4.65625 -1.203125 C 4.65625 -1.640625 5.015625 -2 5.453125 -2 Z M 5.453125 -2 "/>
</symbol>
<symbol overflow="visible" id="glyph1-14">
<path style="stroke:none;" d=""/>
</symbol>
<symbol overflow="visible" id="glyph1-15">
<path style="stroke:none;" d="M 4.359375 -2.625 L 4.359375 0 L 5.109375 0 L 5.109375 -5.78125 L 4.359375 -5.78125 L 4.359375 -3.28125 L 1.390625 -3.28125 L 1.390625 -5.78125 L 0.65625 -5.78125 L 0.65625 0 L 1.40625 0 L 1.40625 -2.625 Z M 4.359375 -2.625 "/>
</symbol>
<symbol overflow="visible" id="glyph1-16">
<path style="stroke:none;" d="M 0.703125 0 L 2.9375 0 C 4.390625 0 5.28125 -1.09375 5.28125 -2.890625 C 5.28125 -4.6875 4.390625 -5.78125 2.9375 -5.78125 L 0.703125 -5.78125 Z M 1.4375 -0.65625 L 1.4375 -5.125 L 2.796875 -5.125 C 3.9375 -5.125 4.546875 -4.359375 4.546875 -2.890625 C 4.546875 -1.421875 3.9375 -0.65625 2.796875 -0.65625 Z M 1.4375 -0.65625 "/>
</symbol>
<symbol overflow="visible" id="glyph1-17">
<path style="stroke:none;" d="M 1.53125 -5.78125 L 0.796875 -5.78125 L 0.796875 0 L 1.53125 0 Z M 1.53125 -5.78125 "/>
</symbol>
<symbol overflow="visible" id="glyph1-18">
<path style="stroke:none;" d="M 4.125 -5.609375 L 0.359375 -5.609375 L 0.359375 -4.921875 L 3.40625 -4.921875 C 2.0625 -3.015625 1.515625 -1.84375 1.09375 0 L 1.84375 0 C 2.140625 -1.796875 2.859375 -3.34375 4.125 -5.03125 Z M 4.125 -5.609375 "/>
</symbol>
<symbol overflow="visible" id="glyph1-19">
<path style="stroke:none;" d="M 1.75 -2.578125 L 2.125 -2.578125 C 2.90625 -2.578125 3.296875 -2.234375 3.296875 -1.5625 C 3.296875 -0.859375 2.859375 -0.4375 2.125 -0.4375 C 1.375 -0.4375 1 -0.8125 0.953125 -1.625 L 0.25 -1.625 C 0.28125 -1.1875 0.359375 -0.890625 0.5 -0.640625 C 0.78125 -0.09375 1.34375 0.1875 2.109375 0.1875 C 3.265625 0.1875 4.015625 -0.5 4.015625 -1.5625 C 4.015625 -2.28125 3.734375 -2.671875 3.0625 -2.90625 C 3.578125 -3.109375 3.84375 -3.515625 3.84375 -4.078125 C 3.84375 -5.03125 3.203125 -5.609375 2.125 -5.609375 C 1 -5.609375 0.390625 -5 0.375 -3.796875 L 1.0625 -3.796875 C 1.078125 -4.140625 1.109375 -4.328125 1.203125 -4.5 C 1.359375 -4.8125 1.703125 -5 2.140625 -5 C 2.75 -5 3.125 -4.640625 3.125 -4.046875 C 3.125 -3.65625 2.984375 -3.421875 2.671875 -3.28125 C 2.484375 -3.203125 2.234375 -3.171875 1.75 -3.171875 Z M 1.75 -2.578125 "/>
</symbol>
<symbol overflow="visible" id="glyph1-20">
<path style="stroke:none;" d="M 2.59375 -1.34375 L 2.59375 0 L 3.28125 0 L 3.28125 -1.34375 L 4.125 -1.34375 L 4.125 -1.96875 L 3.28125 -1.96875 L 3.28125 -5.609375 L 2.765625 -5.609375 L 0.21875 -2.078125 L 0.21875 -1.34375 Z M 2.59375 -1.96875 L 0.828125 -1.96875 L 2.59375 -4.421875 Z M 2.59375 -1.96875 "/>
</symbol>
<symbol overflow="visible" id="glyph2-0">
<path style="stroke:none;" d=""/>
</symbol>
<symbol overflow="visible" id="glyph2-1">
<path style="stroke:none;" d="M 4.25 -3.09375 L 0.09375 -3.09375 L 0.09375 -2.65625 L 4.25 -2.65625 Z M 4.25 -1.5625 L 0.09375 -1.5625 L 0.09375 -1.125 L 4.25 -1.125 Z M 4.25 -1.5625 "/>
</symbol>
</g>
</defs>
<g id="surface996">
<rect x="0" y="0" width="576" height="165" style="fill:rgb(100%,100%,100%);fill-opacity:1;stroke:none;"/>
<g style="fill:rgb(0%,0%,0%);fill-opacity:1;">
  <use xlink:href="#glyph0-1" x="60.5" y="6.605469"/>
  <use xlink:href="#glyph0-2" x="66.838867" y="6.605469"/>
  <use xlink:href="#glyph0-3" x="69.480469" y="6.605469"/>
  <use xlink:href="#glyph0-4" x="72.645508" y="6.605469"/>
  <use xlink:href="#glyph0-5" x="77.929688" y="6.605469"/>
  <use xlink:href="#glyph0-3" x="83.213867" y="6.605469"/>
  <use xlink:href="#glyph0-6" x="86.378906" y="6.605469"/>
  <use xlink:href="#glyph0-7" x="89.020508" y="6.605469"/>
  <use xlink:href="#glyph0-8" x="94.304688" y="6.605469"/>
  <use xlink:href="#glyph0-9" x="100.111328" y="6.605469"/>
  <use xlink:href="#glyph0-10" x="105.917969" y="6.605469"/>
  <use xlink:href="#glyph0-11" x="108.55957" y="6.605469"/>
  <use xlink:href="#glyph0-4" x="113.84375" y="6.605469"/>
  <use xlink:href="#glyph0-3" x="119.12793" y="6.605469"/>
  <use xlink:href="#glyph0-2" x="122.292969" y="6.605469"/>
  <use xlink:href="#glyph0-3" x="124.93457" y="6.605469"/>
  <use xlink:href="#glyph0-6" x="128.099609" y="6.605469"/>
</g>
<g style="fill:rgb(0%,0%,0%);fill-opacity:1;">
  <use xlink:href="#glyph0-6" x="56.5" y="18.011719"/>
  <use xlink:href="#glyph0-10" x="59.141602" y="18.011719"/>
  <use xlink:href="#glyph0-12" x="61.783203" y="18.011719"/>
  <use xlink:href="#glyph0-6" x="67.067383" y="18.011719"/>
  <use xlink:href="#glyph0-7" x="69.708984" y="18.011719"/>
  <use xlink:href="#glyph0-8" x="74.993164" y="18.011719"/>
  <use xlink:href="#glyph0-13" x="80.799805" y="18.011719"/>
  <use xlink:href="#glyph0-14" x="86.606445" y="18.011719"/>
  <use xlink:href="#glyph0-11" x="95.055664" y="18.011719"/>
  <use xlink:href="#glyph0-15" x="100.339844" y="18.011719"/>
  <use xlink:href="#glyph0-6" x="106.146484" y="18.011719"/>
  <use xlink:href="#glyph0-16" x="108.788086" y="18.011719"/>
  <use xlink:href="#glyph0-17" x="115.126953" y="18.011719"/>
  <use xlink:href="#glyph0-18" x="120.411133" y="18.011719"/>
  <use xlink:href="#glyph0-16" x="123.052734" y="18.011719"/>
  <use xlink:href="#glyph0-19" x="129.391602" y="18.011719"/>
</g>
<path style="fill:none;stroke-width:0.75;stroke-linecap:round;stroke-linejoin:round;stroke:rgb(0%,0%,0%);stroke-opacity:1;stroke-miterlimit:10;" d="M 20.585938 126.984375 L 172.515625 126.984375 "/>
<path style="fill:none;stroke-width:0.75;stroke-linecap:round;stroke-linejoin:round;stroke:rgb(0%,0%,0%);stroke-opacity:1;stroke-miterlimit:10;" d="M 20.585938 126.984375 L 20.585938 131.734375 "/>
<path style="fill:none;stroke-width:0.75;stroke-linecap:round;stroke-linejoin:round;stroke:rgb(0%,0%,0%);stroke-opacity:1;stroke-miterlimit:10;" d="M 50.96875 126.984375 L 50.96875 131.734375 "/>
<path style="fill:none;stroke-width:0.75;stroke-linecap:round;stroke-linejoin:round;stroke:rgb(0%,0%,0%);stroke-opacity:1;stroke-miterlimit:10;" d="M 81.355469 126.984375 L 81.355469 131.734375 "/>
<path style="fill:none;stroke-width:0.75;stroke-linecap:round;stroke-linejoin:round;stroke:rgb(0%,0%,0%);stroke-opacity:1;stroke-miterlimit:10;" d="M 111.742188 126.984375 L 111.742188 131.734375 "/>
<path style="fill:none;stroke-width:0.75;stroke-linecap:round;stroke-linejoin:round;stroke:rgb(0%,0%,0%);stroke-opacity:1;stroke-miterlimit:10;" d="M 142.128906 126.984375 L 142.128906 131.734375 "/>
<path style="fill:none;stroke-width:0.75;stroke-linecap:round;stroke-linejoin:round;stroke:rgb(0%,0%,0%);stroke-opacity:1;stroke-miterlimit:10;" d="M 172.515625 126.984375 L 172.515625 131.734375 "/>
<g style="fill:rgb(0%,0%,0%);fill-opacity:1;">
  <use xlink:href="#glyph1-1" x="11.085938" y="143.636719"/>
  <use xlink:href="#glyph1-2" x="13.722656" y="143.636719"/>
  <use xlink:href="#glyph1-3" x="18.125977" y="143.636719"/>
  <use xlink:href="#glyph1-2" x="20.327148" y="143.636719"/>
  <use xlink:href="#glyph1-4" x="24.730469" y="143.636719"/>
</g>
<g style="fill:rgb(0%,0%,0%);fill-opacity:1;">
  <use xlink:href="#glyph1-2" x="42.96875" y="143.636719"/>
  <use xlink:href="#glyph1-3" x="47.37207" y="143.636719"/>
  <use xlink:href="#glyph1-2" x="49.573242" y="143.636719"/>
  <use xlink:href="#glyph1-2" x="53.976562" y="143.636719"/>
</g>
<g style="fill:rgb(0%,0%,0%);fill-opacity:1;">
  <use xlink:href="#glyph1-2" x="73.355469" y="143.636719"/>
  <use xlink:href="#glyph1-3" x="77.758789" y="143.636719"/>
  <use xlink:href="#glyph1-2" x="79.959961" y="143.636719"/>
  <use xlink:href="#glyph1-4" x="84.363281" y="143.636719"/>
</g>
<g style="fill:rgb(0%,0%,0%);fill-opacity:1;">
  <use xlink:href="#glyph1-2" x="103.742188" y="143.636719"/>
  <use xlink:href="#glyph1-3" x="108.145508" y="143.636719"/>
  <use xlink:href="#glyph1-5" x="110.34668" y="143.636719"/>
  <use xlink:href="#glyph1-2" x="114.75" y="143.636719"/>
</g>
<g style="fill:rgb(0%,0%,0%);fill-opacity:1;">
  <use xlink:href="#glyph1-2" x="134.128906" y="143.636719"/>
  <use xlink:href="#glyph1-3" x="138.532227" y="143.636719"/>
  <use xlink:href="#glyph1-5" x="140.733398" y="143.636719"/>
  <use xlink:href="#glyph1-4" x="145.136719" y="143.636719"/>
</g>
<g style="fill:rgb(0%,0%,0%);fill-opacity:1;">
  <use xlink:href="#glyph1-2" x="164.515625" y="143.636719"/>
  <use xlink:href="#glyph1-3" x="168.918945" y="143.636719"/>
  <use xlink:href="#glyph1-6" x="171.120117" y="143.636719"/>
  <use xlink:href="#glyph1-2" x="175.523438" y="143.636719"/>
</g>
<path style="fill-rule:nonzero;fill:rgb(82.745098%,82.745098%,82.745098%);fill-opacity:1;stroke-width:0.75;stroke-linecap:round;stroke-linejoin:round;stroke:rgb(100%,100%,100%);stroke-opacity:1;stroke-miterlimit:10;" d="M 24.710938 122.984375 L 27.996094 122.984375 L 27.996094 122.976562 L 24.710938 122.976562 Z M 24.710938 122.984375 "/>
<path style="fill-rule:nonzero;fill:rgb(82.745098%,82.745098%,82.745098%);fill-opacity:1;stroke-width:0.75;stroke-linecap:round;stroke-linejoin:round;stroke:rgb(100%,100%,100%);stroke-opacity:1;stroke-miterlimit:10;" d="M 27.996094 122.984375 L 31.28125 122.984375 L 31.28125 122.96875 L 27.996094 122.96875 Z M 27.996094 122.984375 "/>
<path style="fill-rule:nonzero;fill:rgb(82.745098%,82.745098%,82.745098%);fill-opacity:1;stroke-width:0.75;stroke-linecap:round;stroke-linejoin:round;stroke:rgb(100%,100%,100%);stroke-opacity:1;stroke-miterlimit:10;" d="M 31.28125 122.984375 L 34.566406 122.984375 L 34.566406 122.960938 L 31.28125 122.960938 Z M 31.28125 122.984375 "/>
<path style="fill-rule:nonzero;fill:rgb(82.745098%,82.745098%,82.745098%);fill-opacity:1;stroke-width:0.75;stroke-linecap:round;stroke-linejoin:round;stroke:rgb(100%,100%,100%);stroke-opacity:1;stroke-miterlimit:10;" d="M 34.566406 122.984375 L 37.851562 122.984375 L 37.851562 122.925781 L 34.566406 122.925781 Z M 34.566406 122.984375 "/>
<path style="fill-rule:nonzero;fill:rgb(82.745098%,82.745098%,82.745098%);fill-opacity:1;stroke-width:0.75;stroke-linecap:round;stroke-linejoin:round;stroke:rgb(100%,100%,100%);stroke-opacity:1;stroke-miterlimit:10;" d="M 37.847656 122.984375 L 41.132812 122.984375 L 41.132812 122.789062 L 37.847656 122.789062 Z M 37.847656 122.984375 "/>
<path style="fill-rule:nonzero;fill:rgb(82.745098%,82.745098%,82.745098%);fill-opacity:1;stroke-width:0.75;stroke-linecap:round;stroke-linejoin:round;stroke:rgb(100%,100%,100%);stroke-opacity:1;stroke-miterlimit:10;" d="M 41.132812 122.984375 L 44.417969 122.984375 L 44.417969 122.582031 L 41.132812 122.582031 Z M 41.132812 122.984375 "/>
<path style="fill-rule:nonzero;fill:rgb(82.745098%,82.745098%,82.745098%);fill-opacity:1;stroke-width:0.75;stroke-linecap:round;stroke-linejoin:round;stroke:rgb(100%,100%,100%);stroke-opacity:1;stroke-miterlimit:10;" d="M 44.417969 122.984375 L 47.703125 122.984375 L 47.703125 122.230469 L 44.417969 122.230469 Z M 44.417969 122.984375 "/>
<path style="fill-rule:nonzero;fill:rgb(82.745098%,82.745098%,82.745098%);fill-opacity:1;stroke-width:0.75;stroke-linecap:round;stroke-linejoin:round;stroke:rgb(100%,100%,100%);stroke-opacity:1;stroke-miterlimit:10;" d="M 47.703125 122.984375 L 50.988281 122.984375 L 50.988281 121.1875 L 47.703125 121.1875 Z M 47.703125 122.984375 "/>
<path style="fill-rule:nonzero;fill:rgb(82.745098%,82.745098%,82.745098%);fill-opacity:1;stroke-width:0.75;stroke-linecap:round;stroke-linejoin:round;stroke:rgb(100%,100%,100%);stroke-opacity:1;stroke-miterlimit:10;" d="M 50.988281 122.984375 L 54.273438 122.984375 L 54.273438 120.21875 L 50.988281 120.21875 Z M 50.988281 122.984375 "/>
<path style="fill-rule:nonzero;fill:rgb(82.745098%,82.745098%,82.745098%);fill-opacity:1;stroke-width:0.75;stroke-linecap:round;stroke-linejoin:round;stroke:rgb(100%,100%,100%);stroke-opacity:1;stroke-miterlimit:10;" d="M 54.269531 122.984375 L 57.554688 122.984375 L 57.554688 117.683594 L 54.269531 117.683594 Z M 54.269531 122.984375 "/>
<path style="fill-rule:nonzero;fill:rgb(82.745098%,82.745098%,82.745098%);fill-opacity:1;stroke-width:0.75;stroke-linecap:round;stroke-linejoin:round;stroke:rgb(100%,100%,100%);stroke-opacity:1;stroke-miterlimit:10;" d="M 57.554688 122.984375 L 60.839844 122.984375 L 60.839844 114.582031 L 57.554688 114.582031 Z M 57.554688 122.984375 "/>
<path style="fill-rule:nonzero;fill:rgb(82.745098%,82.745098%,82.745098%);fill-opacity:1;stroke-width:0.75;stroke-linecap:round;stroke-linejoin:round;stroke:rgb(100%,100%,100%);stroke-opacity:1;stroke-miterlimit:10;" d="M 60.839844 122.984375 L 64.125 122.984375 L 64.125 110.019531 L 60.839844 110.019531 Z M 60.839844 122.984375 "/>
<path style="fill-rule:nonzero;fill:rgb(82.745098%,82.745098%,82.745098%);fill-opacity:1;stroke-width:0.75;stroke-linecap:round;stroke-linejoin:round;stroke:rgb(100%,100%,100%);stroke-opacity:1;stroke-miterlimit:10;" d="M 64.125 122.984375 L 67.410156 122.984375 L 67.410156 104.164062 L 64.125 104.164062 Z M 64.125 122.984375 "/>
<path style="fill-rule:nonzero;fill:rgb(82.745098%,82.745098%,82.745098%);fill-opacity:1;stroke-width:0.75;stroke-linecap:round;stroke-linejoin:round;stroke:rgb(100%,100%,100%);stroke-opacity:1;stroke-miterlimit:10;" d="M 67.410156 122.984375 L 70.695312 122.984375 L 70.695312 94.539062 L 67.410156 94.539062 Z M 67.410156 122.984375 "/>
<path style="fill-rule:nonzero;fill:rgb(82.745098%,82.745098%,82.745098%);fill-opacity:1;stroke-width:0.75;stroke-linecap:round;stroke-linejoin:round;stroke:rgb(100%,100%,100%);stroke-opacity:1;stroke-miterlimit:10;" d="M 70.695312 122.984375 L 73.980469 122.984375 L 73.980469 84.167969 L 70.695312 84.167969 Z M 70.695312 122.984375 "/>
<path style="fill-rule:nonzero;fill:rgb(82.745098%,82.745098%,82.745098%);fill-opacity:1;stroke-width:0.75;stroke-linecap:round;stroke-linejoin:round;stroke:rgb(100%,100%,100%);stroke-opacity:1;stroke-miterlimit:10;" d="M 73.976562 122.984375 L 77.261719 122.984375 L 77.261719 70.777344 L 73.976562 70.777344 Z M 73.976562 122.984375 "/>
<path style="fill-rule:nonzero;fill:rgb(82.745098%,82.745098%,82.745098%);fill-opacity:1;stroke-width:0.75;stroke-linecap:round;stroke-linejoin:round;stroke:rgb(100%,100%,100%);stroke-opacity:1;stroke-miterlimit:10;" d="M 77.261719 122.984375 L 80.546875 122.984375 L 80.546875 59.273438 L 77.261719 59.273438 Z M 77.261719 122.984375 "/>
<path style="fill-rule:nonzero;fill:rgb(82.745098%,82.745098%,82.745098%);fill-opacity:1;stroke-width:0.75;stroke-linecap:round;stroke-linejoin:round;stroke:rgb(100%,100%,100%);stroke-opacity:1;stroke-miterlimit:10;" d="M 80.546875 122.984375 L 83.832031 122.984375 L 83.832031 46.449219 L 80.546875 46.449219 Z M 80.546875 122.984375 "/>
<path style="fill-rule:nonzero;fill:rgb(82.745098%,82.745098%,82.745098%);fill-opacity:1;stroke-width:0.75;stroke-linecap:round;stroke-linejoin:round;stroke:rgb(100%,100%,100%);stroke-opacity:1;stroke-miterlimit:10;" d="M 83.832031 122.984375 L 87.117188 122.984375 L 87.117188 35.535156 L 83.832031 35.535156 Z M 83.832031 122.984375 "/>
<path style="fill-rule:nonzero;fill:rgb(82.745098%,82.745098%,82.745098%);fill-opacity:1;stroke-width:0.75;stroke-linecap:round;stroke-linejoin:round;stroke:rgb(100%,100%,100%);stroke-opacity:1;stroke-miterlimit:10;" d="M 87.117188 122.984375 L 90.402344 122.984375 L 90.402344 27.640625 L 87.117188 27.640625 Z M 87.117188 122.984375 "/>
<path style="fill-rule:nonzero;fill:rgb(82.745098%,82.745098%,82.745098%);fill-opacity:1;stroke-width:0.75;stroke-linecap:round;stroke-linejoin:round;stroke:rgb(100%,100%,100%);stroke-opacity:1;stroke-miterlimit:10;" d="M 90.398438 122.984375 L 93.683594 122.984375 L 93.683594 23.007812 L 90.398438 23.007812 Z M 90.398438 122.984375 "/>
<path style="fill-rule:nonzero;fill:rgb(82.745098%,82.745098%,82.745098%);fill-opacity:1;stroke-width:0.75;stroke-linecap:round;stroke-linejoin:round;stroke:rgb(100%,100%,100%);stroke-opacity:1;stroke-miterlimit:10;" d="M 93.683594 122.984375 L 96.96875 122.984375 L 96.96875 24.148438 L 93.683594 24.148438 Z M 93.683594 122.984375 "/>
<path style="fill-rule:nonzero;fill:rgb(82.745098%,82.745098%,82.745098%);fill-opacity:1;stroke-width:0.75;stroke-linecap:round;stroke-linejoin:round;stroke:rgb(100%,100%,100%);stroke-opacity:1;stroke-miterlimit:10;" d="M 96.96875 122.984375 L 100.253906 122.984375 L 100.253906 30.226562 L 96.96875 30.226562 Z M 96.96875 122.984375 "/>
<path style="fill-rule:nonzero;fill:rgb(82.745098%,82.745098%,82.745098%);fill-opacity:1;stroke-width:0.75;stroke-linecap:round;stroke-linejoin:round;stroke:rgb(100%,100%,100%);stroke-opacity:1;stroke-miterlimit:10;" d="M 100.253906 122.984375 L 103.539062 122.984375 L 103.539062 37.660156 L 100.253906 37.660156 Z M 100.253906 122.984375 "/>
<path style="fill-rule:nonzero;fill:rgb(82.745098%,82.745098%,82.745098%);fill-opacity:1;stroke-width:0.75;stroke-linecap:round;stroke-linejoin:round;stroke:rgb(100%,100%,100%);stroke-opacity:1;stroke-miterlimit:10;" d="M 103.539062 122.984375 L 106.824219 122.984375 L 106.824219 50.207031 L 103.539062 50.207031 Z M 103.539062 122.984375 "/>
<path style="fill-rule:nonzero;fill:rgb(82.745098%,82.745098%,82.745098%);fill-opacity:1;stroke-width:0.75;stroke-linecap:round;stroke-linejoin:round;stroke:rgb(100%,100%,100%);stroke-opacity:1;stroke-miterlimit:10;" d="M 106.824219 122.984375 L 110.109375 122.984375 L 110.109375 64.015625 L 106.824219 64.015625 Z M 106.824219 122.984375 "/>
<path style="fill-rule:nonzero;fill:rgb(82.745098%,82.745098%,82.745098%);fill-opacity:1;stroke-width:0.75;stroke-linecap:round;stroke-linejoin:round;stroke:rgb(100%,100%,100%);stroke-opacity:1;stroke-miterlimit:10;" d="M 110.105469 122.984375 L 113.390625 122.984375 L 113.390625 76.488281 L 110.105469 76.488281 Z M 110.105469 122.984375 "/>
<path style="fill-rule:nonzero;fill:rgb(82.745098%,82.745098%,82.745098%);fill-opacity:1;stroke-width:0.75;stroke-linecap:round;stroke-linejoin:round;stroke:rgb(100%,100%,100%);stroke-opacity:1;stroke-miterlimit:10;" d="M 113.390625 122.984375 L 116.675781 122.984375 L 116.675781 89.058594 L 113.390625 89.058594 Z M 113.390625 122.984375 "/>
<path style="fill-rule:nonzero;fill:rgb(82.745098%,82.745098%,82.745098%);fill-opacity:1;stroke-width:0.75;stroke-linecap:round;stroke-linejoin:round;stroke:rgb(100%,100%,100%);stroke-opacity:1;stroke-miterlimit:10;" d="M 116.675781 122.984375 L 119.960938 122.984375 L 119.960938 99.371094 L 116.675781 99.371094 Z M 116.675781 122.984375 "/>
<path style="fill-rule:nonzero;fill:rgb(82.745098%,82.745098%,82.745098%);fill-opacity:1;stroke-width:0.75;stroke-linecap:round;stroke-linejoin:round;stroke:rgb(100%,100%,100%);stroke-opacity:1;stroke-miterlimit:10;" d="M 119.960938 122.984375 L 123.246094 122.984375 L 123.246094 106.425781 L 119.960938 106.425781 Z M 119.960938 122.984375 "/>
<path style="fill-rule:nonzero;fill:rgb(82.745098%,82.745098%,82.745098%);fill-opacity:1;stroke-width:0.75;stroke-linecap:round;stroke-linejoin:round;stroke:rgb(100%,100%,100%);stroke-opacity:1;stroke-miterlimit:10;" d="M 123.246094 122.984375 L 126.53125 122.984375 L 126.53125 112.269531 L 123.246094 112.269531 Z M 123.246094 122.984375 "/>
<path style="fill-rule:nonzero;fill:rgb(82.745098%,82.745098%,82.745098%);fill-opacity:1;stroke-width:0.75;stroke-linecap:round;stroke-linejoin:round;stroke:rgb(100%,100%,100%);stroke-opacity:1;stroke-miterlimit:10;" d="M 126.53125 122.984375 L 129.816406 122.984375 L 129.816406 116.191406 L 126.53125 116.191406 Z M 126.53125 122.984375 "/>
<path style="fill-rule:nonzero;fill:rgb(82.745098%,82.745098%,82.745098%);fill-opacity:1;stroke-width:0.75;stroke-linecap:round;stroke-linejoin:round;stroke:rgb(100%,100%,100%);stroke-opacity:1;stroke-miterlimit:10;" d="M 129.8125 122.984375 L 133.097656 122.984375 L 133.097656 119.175781 L 129.8125 119.175781 Z M 129.8125 122.984375 "/>
<path style="fill-rule:nonzero;fill:rgb(82.745098%,82.745098%,82.745098%);fill-opacity:1;stroke-width:0.75;stroke-linecap:round;stroke-linejoin:round;stroke:rgb(100%,100%,100%);stroke-opacity:1;stroke-miterlimit:10;" d="M 133.097656 122.984375 L 136.382812 122.984375 L 136.382812 120.835938 L 133.097656 120.835938 Z M 133.097656 122.984375 "/>
<path style="fill-rule:nonzero;fill:rgb(82.745098%,82.745098%,82.745098%);fill-opacity:1;stroke-width:0.75;stroke-linecap:round;stroke-linejoin:round;stroke:rgb(100%,100%,100%);stroke-opacity:1;stroke-miterlimit:10;" d="M 136.382812 122.984375 L 139.667969 122.984375 L 139.667969 122.03125 L 136.382812 122.03125 Z M 136.382812 122.984375 "/>
<path style="fill-rule:nonzero;fill:rgb(82.745098%,82.745098%,82.745098%);fill-opacity:1;stroke-width:0.75;stroke-linecap:round;stroke-linejoin:round;stroke:rgb(100%,100%,100%);stroke-opacity:1;stroke-miterlimit:10;" d="M 139.667969 122.984375 L 142.953125 122.984375 L 142.953125 122.378906 L 139.667969 122.378906 Z M 139.667969 122.984375 "/>
<path style="fill-rule:nonzero;fill:rgb(82.745098%,82.745098%,82.745098%);fill-opacity:1;stroke-width:0.75;stroke-linecap:round;stroke-linejoin:round;stroke:rgb(100%,100%,100%);stroke-opacity:1;stroke-miterlimit:10;" d="M 142.953125 122.984375 L 146.238281 122.984375 L 146.238281 122.804688 L 142.953125 122.804688 Z M 142.953125 122.984375 "/>
<path style="fill-rule:nonzero;fill:rgb(82.745098%,82.745098%,82.745098%);fill-opacity:1;stroke-width:0.75;stroke-linecap:round;stroke-linejoin:round;stroke:rgb(100%,100%,100%);stroke-opacity:1;stroke-miterlimit:10;" d="M 146.234375 122.984375 L 149.519531 122.984375 L 149.519531 122.820312 L 146.234375 122.820312 Z M 146.234375 122.984375 "/>
<path style="fill-rule:nonzero;fill:rgb(82.745098%,82.745098%,82.745098%);fill-opacity:1;stroke-width:0.75;stroke-linecap:round;stroke-linejoin:round;stroke:rgb(100%,100%,100%);stroke-opacity:1;stroke-miterlimit:10;" d="M 149.519531 122.984375 L 152.804688 122.984375 L 152.804688 122.941406 L 149.519531 122.941406 Z M 149.519531 122.984375 "/>
<path style="fill-rule:nonzero;fill:rgb(82.745098%,82.745098%,82.745098%);fill-opacity:1;stroke-width:0.75;stroke-linecap:round;stroke-linejoin:round;stroke:rgb(100%,100%,100%);stroke-opacity:1;stroke-miterlimit:10;" d="M 152.804688 122.984375 L 156.089844 122.984375 L 156.089844 122.976562 L 152.804688 122.976562 Z M 152.804688 122.984375 "/>
<path style="fill-rule:nonzero;fill:rgb(82.745098%,82.745098%,82.745098%);fill-opacity:1;stroke-width:0.75;stroke-linecap:round;stroke-linejoin:round;stroke:rgb(100%,100%,100%);stroke-opacity:1;stroke-miterlimit:10;" d="M 156.089844 122.984375 L 159.375 122.984375 L 159.375 122.976562 L 156.089844 122.976562 Z M 156.089844 122.984375 "/>
<path style="fill:none;stroke-width:0.75;stroke-linecap:round;stroke-linejoin:round;stroke:rgb(100%,100%,100%);stroke-opacity:1;stroke-miterlimit:10;" d="M 159.375 122.984375 L 162.660156 122.984375 Z M 159.375 122.984375 "/>
<path style="fill:none;stroke-width:0.75;stroke-linecap:round;stroke-linejoin:round;stroke:rgb(100%,100%,100%);stroke-opacity:1;stroke-miterlimit:10;" d="M 162.660156 122.984375 L 165.945312 122.984375 Z M 162.660156 122.984375 "/>
<path style="fill-rule:nonzero;fill:rgb(82.745098%,82.745098%,82.745098%);fill-opacity:1;stroke-width:0.75;stroke-linecap:round;stroke-linejoin:round;stroke:rgb(100%,100%,100%);stroke-opacity:1;stroke-miterlimit:10;" d="M 165.941406 122.984375 L 167.289062 122.984375 L 167.289062 122.964844 L 165.941406 122.964844 Z M 165.941406 122.984375 "/>
<g style="fill:rgb(0%,0%,0%);fill-opacity:1;">
  <use xlink:href="#glyph1-7" x="65.261719" y="31.550781"/>
</g>
<g style="fill:rgb(0%,0%,0%);fill-opacity:1;">
  <use xlink:href="#glyph1-8" x="72.261719" y="31.550781"/>
</g>
<g style="fill:rgb(0%,0%,0%);fill-opacity:1;">
  <use xlink:href="#glyph1-9" x="77.261719" y="31.550781"/>
</g>
<g style="fill:rgb(0%,0%,0%);fill-opacity:1;">
  <use xlink:href="#glyph1-10" x="82.261719" y="31.550781"/>
</g>
<g style="fill:rgb(0%,0%,0%);fill-opacity:1;">
  <use xlink:href="#glyph2-1" x="89.207031" y="32.001953"/>
</g>
<g style="fill:rgb(0%,0%,0%);fill-opacity:1;">
  <use xlink:href="#glyph1-2" x="96.152344" y="31.550781"/>
  <use xlink:href="#glyph1-3" x="100.555664" y="31.550781"/>
  <use xlink:href="#glyph1-2" x="102.756836" y="31.550781"/>
  <use xlink:href="#glyph1-11" x="107.160156" y="31.550781"/>
  <use xlink:href="#glyph1-12" x="111.563477" y="31.550781"/>
  <use xlink:href="#glyph1-4" x="115.966797" y="31.550781"/>
</g>
<path style="fill:none;stroke-width:3;stroke-linecap:butt;stroke-linejoin:round;stroke:rgb(0%,0%,0%);stroke-opacity:1;stroke-miterlimit:10;" d="M 62.960938 122.984375 L 122.082031 122.984375 "/>
<g style="fill:rgb(0%,0%,0%);fill-opacity:1;">
  <use xlink:href="#glyph1-12" x="76.519531" y="109.632812"/>
  <use xlink:href="#glyph1-4" x="80.922852" y="109.632812"/>
</g>
<g style="fill:rgb(0%,0%,0%);fill-opacity:1;">
  <use xlink:href="#glyph1-13" x="85.519531" y="109.632812"/>
  <use xlink:href="#glyph1-14" x="92.55957" y="109.632812"/>
  <use xlink:href="#glyph1-15" x="94.760742" y="109.632812"/>
  <use xlink:href="#glyph1-16" x="100.478516" y="109.632812"/>
  <use xlink:href="#glyph1-17" x="106.196289" y="109.632812"/>
</g>
<g style="fill:rgb(0%,0%,0%);fill-opacity:1;">
  <use xlink:href="#glyph1-2" x="45.460938" y="119.53125"/>
  <use xlink:href="#glyph1-3" x="49.864258" y="119.53125"/>
  <use xlink:href="#glyph1-2" x="52.06543" y="119.53125"/>
  <use xlink:href="#glyph1-5" x="56.46875" y="119.53125"/>
  <use xlink:href="#glyph1-12" x="60.87207" y="119.53125"/>
  <use xlink:href="#glyph1-18" x="65.275391" y="119.53125"/>
</g>
<g style="fill:rgb(0%,0%,0%);fill-opacity:1;">
  <use xlink:href="#glyph1-2" x="116.082031" y="119.53125"/>
  <use xlink:href="#glyph1-3" x="120.485352" y="119.53125"/>
  <use xlink:href="#glyph1-5" x="122.686523" y="119.53125"/>
  <use xlink:href="#glyph1-5" x="127.089844" y="119.53125"/>
  <use xlink:href="#glyph1-18" x="131.493164" y="119.53125"/>
</g>
<g style="fill:rgb(0%,0%,0%);fill-opacity:1;">
  <use xlink:href="#glyph0-1" x="252.5" y="6.605469"/>
  <use xlink:href="#glyph0-2" x="258.838867" y="6.605469"/>
  <use xlink:href="#glyph0-3" x="261.480469" y="6.605469"/>
  <use xlink:href="#glyph0-4" x="264.645508" y="6.605469"/>
  <use xlink:href="#glyph0-5" x="269.929688" y="6.605469"/>
  <use xlink:href="#glyph0-3" x="275.213867" y="6.605469"/>
  <use xlink:href="#glyph0-6" x="278.378906" y="6.605469"/>
  <use xlink:href="#glyph0-7" x="281.020508" y="6.605469"/>
  <use xlink:href="#glyph0-8" x="286.304688" y="6.605469"/>
  <use xlink:href="#glyph0-9" x="292.111328" y="6.605469"/>
  <use xlink:href="#glyph0-10" x="297.917969" y="6.605469"/>
  <use xlink:href="#glyph0-11" x="300.55957" y="6.605469"/>
  <use xlink:href="#glyph0-4" x="305.84375" y="6.605469"/>
  <use xlink:href="#glyph0-3" x="311.12793" y="6.605469"/>
  <use xlink:href="#glyph0-2" x="314.292969" y="6.605469"/>
  <use xlink:href="#glyph0-3" x="316.93457" y="6.605469"/>
  <use xlink:href="#glyph0-6" x="320.099609" y="6.605469"/>
</g>
<g style="fill:rgb(0%,0%,0%);fill-opacity:1;">
  <use xlink:href="#glyph0-6" x="256.5" y="18.011719"/>
  <use xlink:href="#glyph0-10" x="259.141602" y="18.011719"/>
  <use xlink:href="#glyph0-12" x="261.783203" y="18.011719"/>
  <use xlink:href="#glyph0-6" x="267.067383" y="18.011719"/>
  <use xlink:href="#glyph0-20" x="269.708984" y="18.011719"/>
  <use xlink:href="#glyph0-11" x="274.993164" y="18.011719"/>
  <use xlink:href="#glyph0-15" x="280.277344" y="18.011719"/>
  <use xlink:href="#glyph0-5" x="286.083984" y="18.011719"/>
  <use xlink:href="#glyph0-10" x="291.368164" y="18.011719"/>
  <use xlink:href="#glyph0-5" x="294.009766" y="18.011719"/>
  <use xlink:href="#glyph0-15" x="299.293945" y="18.011719"/>
  <use xlink:href="#glyph0-6" x="305.100586" y="18.011719"/>
  <use xlink:href="#glyph0-16" x="307.742188" y="18.011719"/>
  <use xlink:href="#glyph0-21" x="314.081055" y="18.011719"/>
</g>
<path style="fill:none;stroke-width:0.75;stroke-linecap:round;stroke-linejoin:round;stroke:rgb(0%,0%,0%);stroke-opacity:1;stroke-miterlimit:10;" d="M 226.546875 126.984375 L 342.421875 126.984375 "/>
<path style="fill:none;stroke-width:0.75;stroke-linecap:round;stroke-linejoin:round;stroke:rgb(0%,0%,0%);stroke-opacity:1;stroke-miterlimit:10;" d="M 226.546875 126.984375 L 226.546875 131.734375 "/>
<path style="fill:none;stroke-width:0.75;stroke-linecap:round;stroke-linejoin:round;stroke:rgb(0%,0%,0%);stroke-opacity:1;stroke-miterlimit:10;" d="M 255.515625 126.984375 L 255.515625 131.734375 "/>
<path style="fill:none;stroke-width:0.75;stroke-linecap:round;stroke-linejoin:round;stroke:rgb(0%,0%,0%);stroke-opacity:1;stroke-miterlimit:10;" d="M 284.484375 126.984375 L 284.484375 131.734375 "/>
<path style="fill:none;stroke-width:0.75;stroke-linecap:round;stroke-linejoin:round;stroke:rgb(0%,0%,0%);stroke-opacity:1;stroke-miterlimit:10;" d="M 313.453125 126.984375 L 313.453125 131.734375 "/>
<path style="fill:none;stroke-width:0.75;stroke-linecap:round;stroke-linejoin:round;stroke:rgb(0%,0%,0%);stroke-opacity:1;stroke-miterlimit:10;" d="M 342.421875 126.984375 L 342.421875 131.734375 "/>
<g style="fill:rgb(0%,0%,0%);fill-opacity:1;">
  <use xlink:href="#glyph1-2" x="218.546875" y="143.636719"/>
  <use xlink:href="#glyph1-3" x="222.950195" y="143.636719"/>
  <use xlink:href="#glyph1-5" x="225.151367" y="143.636719"/>
  <use xlink:href="#glyph1-4" x="229.554688" y="143.636719"/>
</g>
<g style="fill:rgb(0%,0%,0%);fill-opacity:1;">
  <use xlink:href="#glyph1-2" x="247.515625" y="143.636719"/>
  <use xlink:href="#glyph1-3" x="251.918945" y="143.636719"/>
  <use xlink:href="#glyph1-6" x="254.120117" y="143.636719"/>
  <use xlink:href="#glyph1-2" x="258.523438" y="143.636719"/>
</g>
<g style="fill:rgb(0%,0%,0%);fill-opacity:1;">
  <use xlink:href="#glyph1-2" x="276.484375" y="143.636719"/>
  <use xlink:href="#glyph1-3" x="280.887695" y="143.636719"/>
  <use xlink:href="#glyph1-6" x="283.088867" y="143.636719"/>
  <use xlink:href="#glyph1-4" x="287.492188" y="143.636719"/>
</g>
<g style="fill:rgb(0%,0%,0%);fill-opacity:1;">
  <use xlink:href="#glyph1-2" x="305.453125" y="143.636719"/>
  <use xlink:href="#glyph1-3" x="309.856445" y="143.636719"/>
  <use xlink:href="#glyph1-19" x="312.057617" y="143.636719"/>
  <use xlink:href="#glyph1-2" x="316.460938" y="143.636719"/>
</g>
<g style="fill:rgb(0%,0%,0%);fill-opacity:1;">
  <use xlink:href="#glyph1-2" x="334.421875" y="143.636719"/>
  <use xlink:href="#glyph1-3" x="338.825195" y="143.636719"/>
  <use xlink:href="#glyph1-19" x="341.026367" y="143.636719"/>
  <use xlink:href="#glyph1-4" x="345.429688" y="143.636719"/>
</g>
<path style="fill-rule:nonzero;fill:rgb(82.745098%,82.745098%,82.745098%);fill-opacity:1;stroke-width:0.75;stroke-linecap:round;stroke-linejoin:round;stroke:rgb(100%,100%,100%);stroke-opacity:1;stroke-miterlimit:10;" d="M 216.710938 122.984375 L 220.097656 122.984375 L 220.097656 122.96875 L 216.710938 122.96875 Z M 216.710938 122.984375 "/>
<path style="fill-rule:nonzero;fill:rgb(82.745098%,82.745098%,82.745098%);fill-opacity:1;stroke-width:0.75;stroke-linecap:round;stroke-linejoin:round;stroke:rgb(100%,100%,100%);stroke-opacity:1;stroke-miterlimit:10;" d="M 220.097656 122.984375 L 223.484375 122.984375 L 223.484375 122.933594 L 220.097656 122.933594 Z M 220.097656 122.984375 "/>
<path style="fill-rule:nonzero;fill:rgb(82.745098%,82.745098%,82.745098%);fill-opacity:1;stroke-width:0.75;stroke-linecap:round;stroke-linejoin:round;stroke:rgb(100%,100%,100%);stroke-opacity:1;stroke-miterlimit:10;" d="M 223.484375 122.984375 L 226.871094 122.984375 L 226.871094 122.851562 L 223.484375 122.851562 Z M 223.484375 122.984375 "/>
<path style="fill-rule:nonzero;fill:rgb(82.745098%,82.745098%,82.745098%);fill-opacity:1;stroke-width:0.75;stroke-linecap:round;stroke-linejoin:round;stroke:rgb(100%,100%,100%);stroke-opacity:1;stroke-miterlimit:10;" d="M 226.867188 122.984375 L 230.253906 122.984375 L 230.253906 122.664062 L 226.867188 122.664062 Z M 226.867188 122.984375 "/>
<path style="fill-rule:nonzero;fill:rgb(82.745098%,82.745098%,82.745098%);fill-opacity:1;stroke-width:0.75;stroke-linecap:round;stroke-linejoin:round;stroke:rgb(100%,100%,100%);stroke-opacity:1;stroke-miterlimit:10;" d="M 230.253906 122.984375 L 233.640625 122.984375 L 233.640625 122.261719 L 230.253906 122.261719 Z M 230.253906 122.984375 "/>
<path style="fill-rule:nonzero;fill:rgb(82.745098%,82.745098%,82.745098%);fill-opacity:1;stroke-width:0.75;stroke-linecap:round;stroke-linejoin:round;stroke:rgb(100%,100%,100%);stroke-opacity:1;stroke-miterlimit:10;" d="M 233.640625 122.984375 L 237.027344 122.984375 L 237.027344 121.675781 L 233.640625 121.675781 Z M 233.640625 122.984375 "/>
<path style="fill-rule:nonzero;fill:rgb(82.745098%,82.745098%,82.745098%);fill-opacity:1;stroke-width:0.75;stroke-linecap:round;stroke-linejoin:round;stroke:rgb(100%,100%,100%);stroke-opacity:1;stroke-miterlimit:10;" d="M 237.027344 122.984375 L 240.414062 122.984375 L 240.414062 120.679688 L 237.027344 120.679688 Z M 237.027344 122.984375 "/>
<path style="fill-rule:nonzero;fill:rgb(82.745098%,82.745098%,82.745098%);fill-opacity:1;stroke-width:0.75;stroke-linecap:round;stroke-linejoin:round;stroke:rgb(100%,100%,100%);stroke-opacity:1;stroke-miterlimit:10;" d="M 240.414062 122.984375 L 243.800781 122.984375 L 243.800781 118.953125 L 240.414062 118.953125 Z M 240.414062 122.984375 "/>
<path style="fill-rule:nonzero;fill:rgb(82.745098%,82.745098%,82.745098%);fill-opacity:1;stroke-width:0.75;stroke-linecap:round;stroke-linejoin:round;stroke:rgb(100%,100%,100%);stroke-opacity:1;stroke-miterlimit:10;" d="M 243.800781 122.984375 L 247.1875 122.984375 L 247.1875 115.210938 L 243.800781 115.210938 Z M 243.800781 122.984375 "/>
<path style="fill-rule:nonzero;fill:rgb(82.745098%,82.745098%,82.745098%);fill-opacity:1;stroke-width:0.75;stroke-linecap:round;stroke-linejoin:round;stroke:rgb(100%,100%,100%);stroke-opacity:1;stroke-miterlimit:10;" d="M 247.183594 122.984375 L 250.570312 122.984375 L 250.570312 111.082031 L 247.183594 111.082031 Z M 247.183594 122.984375 "/>
<path style="fill-rule:nonzero;fill:rgb(82.745098%,82.745098%,82.745098%);fill-opacity:1;stroke-width:0.75;stroke-linecap:round;stroke-linejoin:round;stroke:rgb(100%,100%,100%);stroke-opacity:1;stroke-miterlimit:10;" d="M 250.570312 122.984375 L 253.957031 122.984375 L 253.957031 104.101562 L 250.570312 104.101562 Z M 250.570312 122.984375 "/>
<path style="fill-rule:nonzero;fill:rgb(82.745098%,82.745098%,82.745098%);fill-opacity:1;stroke-width:0.75;stroke-linecap:round;stroke-linejoin:round;stroke:rgb(100%,100%,100%);stroke-opacity:1;stroke-miterlimit:10;" d="M 253.957031 122.984375 L 257.34375 122.984375 L 257.34375 95.027344 L 253.957031 95.027344 Z M 253.957031 122.984375 "/>
<path style="fill-rule:nonzero;fill:rgb(82.745098%,82.745098%,82.745098%);fill-opacity:1;stroke-width:0.75;stroke-linecap:round;stroke-linejoin:round;stroke:rgb(100%,100%,100%);stroke-opacity:1;stroke-miterlimit:10;" d="M 257.34375 122.984375 L 260.730469 122.984375 L 260.730469 84.988281 L 257.34375 84.988281 Z M 257.34375 122.984375 "/>
<path style="fill-rule:nonzero;fill:rgb(82.745098%,82.745098%,82.745098%);fill-opacity:1;stroke-width:0.75;stroke-linecap:round;stroke-linejoin:round;stroke:rgb(100%,100%,100%);stroke-opacity:1;stroke-miterlimit:10;" d="M 260.730469 122.984375 L 264.117188 122.984375 L 264.117188 71.507812 L 260.730469 71.507812 Z M 260.730469 122.984375 "/>
<path style="fill-rule:nonzero;fill:rgb(82.745098%,82.745098%,82.745098%);fill-opacity:1;stroke-width:0.75;stroke-linecap:round;stroke-linejoin:round;stroke:rgb(100%,100%,100%);stroke-opacity:1;stroke-miterlimit:10;" d="M 264.113281 122.984375 L 267.5 122.984375 L 267.5 59.203125 L 264.113281 59.203125 Z M 264.113281 122.984375 "/>
<path style="fill-rule:nonzero;fill:rgb(82.745098%,82.745098%,82.745098%);fill-opacity:1;stroke-width:0.75;stroke-linecap:round;stroke-linejoin:round;stroke:rgb(100%,100%,100%);stroke-opacity:1;stroke-miterlimit:10;" d="M 267.5 122.984375 L 270.886719 122.984375 L 270.886719 45.683594 L 267.5 45.683594 Z M 267.5 122.984375 "/>
<path style="fill-rule:nonzero;fill:rgb(82.745098%,82.745098%,82.745098%);fill-opacity:1;stroke-width:0.75;stroke-linecap:round;stroke-linejoin:round;stroke:rgb(100%,100%,100%);stroke-opacity:1;stroke-miterlimit:10;" d="M 270.886719 122.984375 L 274.273438 122.984375 L 274.273438 36.042969 L 270.886719 36.042969 Z M 270.886719 122.984375 "/>
<path style="fill-rule:nonzero;fill:rgb(82.745098%,82.745098%,82.745098%);fill-opacity:1;stroke-width:0.75;stroke-linecap:round;stroke-linejoin:round;stroke:rgb(100%,100%,100%);stroke-opacity:1;stroke-miterlimit:10;" d="M 274.273438 122.984375 L 277.660156 122.984375 L 277.660156 27.710938 L 274.273438 27.710938 Z M 274.273438 122.984375 "/>
<path style="fill-rule:nonzero;fill:rgb(82.745098%,82.745098%,82.745098%);fill-opacity:1;stroke-width:0.75;stroke-linecap:round;stroke-linejoin:round;stroke:rgb(100%,100%,100%);stroke-opacity:1;stroke-miterlimit:10;" d="M 277.660156 122.984375 L 281.046875 122.984375 L 281.046875 23.007812 L 277.660156 23.007812 Z M 277.660156 122.984375 "/>
<path style="fill-rule:nonzero;fill:rgb(82.745098%,82.745098%,82.745098%);fill-opacity:1;stroke-width:0.75;stroke-linecap:round;stroke-linejoin:round;stroke:rgb(100%,100%,100%);stroke-opacity:1;stroke-miterlimit:10;" d="M 281.046875 122.984375 L 284.433594 122.984375 L 284.433594 24.890625 L 281.046875 24.890625 Z M 281.046875 122.984375 "/>
<path style="fill-rule:nonzero;fill:rgb(82.745098%,82.745098%,82.745098%);fill-opacity:1;stroke-width:0.75;stroke-linecap:round;stroke-linejoin:round;stroke:rgb(100%,100%,100%);stroke-opacity:1;stroke-miterlimit:10;" d="M 284.429688 122.984375 L 287.816406 122.984375 L 287.816406 28.738281 L 284.429688 28.738281 Z M 284.429688 122.984375 "/>
<path style="fill-rule:nonzero;fill:rgb(82.745098%,82.745098%,82.745098%);fill-opacity:1;stroke-width:0.75;stroke-linecap:round;stroke-linejoin:round;stroke:rgb(100%,100%,100%);stroke-opacity:1;stroke-miterlimit:10;" d="M 287.816406 122.984375 L 291.203125 122.984375 L 291.203125 38.089844 L 287.816406 38.089844 Z M 287.816406 122.984375 "/>
<path style="fill-rule:nonzero;fill:rgb(82.745098%,82.745098%,82.745098%);fill-opacity:1;stroke-width:0.75;stroke-linecap:round;stroke-linejoin:round;stroke:rgb(100%,100%,100%);stroke-opacity:1;stroke-miterlimit:10;" d="M 291.203125 122.984375 L 294.589844 122.984375 L 294.589844 49.488281 L 291.203125 49.488281 Z M 291.203125 122.984375 "/>
<path style="fill-rule:nonzero;fill:rgb(82.745098%,82.745098%,82.745098%);fill-opacity:1;stroke-width:0.75;stroke-linecap:round;stroke-linejoin:round;stroke:rgb(100%,100%,100%);stroke-opacity:1;stroke-miterlimit:10;" d="M 294.589844 122.984375 L 297.976562 122.984375 L 297.976562 62.871094 L 294.589844 62.871094 Z M 294.589844 122.984375 "/>
<path style="fill-rule:nonzero;fill:rgb(82.745098%,82.745098%,82.745098%);fill-opacity:1;stroke-width:0.75;stroke-linecap:round;stroke-linejoin:round;stroke:rgb(100%,100%,100%);stroke-opacity:1;stroke-miterlimit:10;" d="M 297.976562 122.984375 L 301.363281 122.984375 L 301.363281 76.292969 L 297.976562 76.292969 Z M 297.976562 122.984375 "/>
<path style="fill-rule:nonzero;fill:rgb(82.745098%,82.745098%,82.745098%);fill-opacity:1;stroke-width:0.75;stroke-linecap:round;stroke-linejoin:round;stroke:rgb(100%,100%,100%);stroke-opacity:1;stroke-miterlimit:10;" d="M 301.359375 122.984375 L 304.746094 122.984375 L 304.746094 88.046875 L 301.359375 88.046875 Z M 301.359375 122.984375 "/>
<path style="fill-rule:nonzero;fill:rgb(82.745098%,82.745098%,82.745098%);fill-opacity:1;stroke-width:0.75;stroke-linecap:round;stroke-linejoin:round;stroke:rgb(100%,100%,100%);stroke-opacity:1;stroke-miterlimit:10;" d="M 304.746094 122.984375 L 308.132812 122.984375 L 308.132812 97.980469 L 304.746094 97.980469 Z M 304.746094 122.984375 "/>
<path style="fill-rule:nonzero;fill:rgb(82.745098%,82.745098%,82.745098%);fill-opacity:1;stroke-width:0.75;stroke-linecap:round;stroke-linejoin:round;stroke:rgb(100%,100%,100%);stroke-opacity:1;stroke-miterlimit:10;" d="M 308.132812 122.984375 L 311.519531 122.984375 L 311.519531 106.378906 L 308.132812 106.378906 Z M 308.132812 122.984375 "/>
<path style="fill-rule:nonzero;fill:rgb(82.745098%,82.745098%,82.745098%);fill-opacity:1;stroke-width:0.75;stroke-linecap:round;stroke-linejoin:round;stroke:rgb(100%,100%,100%);stroke-opacity:1;stroke-miterlimit:10;" d="M 311.519531 122.984375 L 314.90625 122.984375 L 314.90625 111.265625 L 311.519531 111.265625 Z M 311.519531 122.984375 "/>
<path style="fill-rule:nonzero;fill:rgb(82.745098%,82.745098%,82.745098%);fill-opacity:1;stroke-width:0.75;stroke-linecap:round;stroke-linejoin:round;stroke:rgb(100%,100%,100%);stroke-opacity:1;stroke-miterlimit:10;" d="M 314.90625 122.984375 L 318.292969 122.984375 L 318.292969 115.238281 L 314.90625 115.238281 Z M 314.90625 122.984375 "/>
<path style="fill-rule:nonzero;fill:rgb(82.745098%,82.745098%,82.745098%);fill-opacity:1;stroke-width:0.75;stroke-linecap:round;stroke-linejoin:round;stroke:rgb(100%,100%,100%);stroke-opacity:1;stroke-miterlimit:10;" d="M 318.289062 122.984375 L 321.675781 122.984375 L 321.675781 118.78125 L 318.289062 118.78125 Z M 318.289062 122.984375 "/>
<path style="fill-rule:nonzero;fill:rgb(82.745098%,82.745098%,82.745098%);fill-opacity:1;stroke-width:0.75;stroke-linecap:round;stroke-linejoin:round;stroke:rgb(100%,100%,100%);stroke-opacity:1;stroke-miterlimit:10;" d="M 321.675781 122.984375 L 325.0625 122.984375 L 325.0625 120.269531 L 321.675781 120.269531 Z M 321.675781 122.984375 "/>
<path style="fill-rule:nonzero;fill:rgb(82.745098%,82.745098%,82.745098%);fill-opacity:1;stroke-width:0.75;stroke-linecap:round;stroke-linejoin:round;stroke:rgb(100%,100%,100%);stroke-opacity:1;stroke-miterlimit:10;" d="M 325.0625 122.984375 L 328.449219 122.984375 L 328.449219 121.570312 L 325.0625 121.570312 Z M 325.0625 122.984375 "/>
<path style="fill-rule:nonzero;fill:rgb(82.745098%,82.745098%,82.745098%);fill-opacity:1;stroke-width:0.75;stroke-linecap:round;stroke-linejoin:round;stroke:rgb(100%,100%,100%);stroke-opacity:1;stroke-miterlimit:10;" d="M 328.449219 122.984375 L 331.835938 122.984375 L 331.835938 122.300781 L 328.449219 122.300781 Z M 328.449219 122.984375 "/>
<path style="fill-rule:nonzero;fill:rgb(82.745098%,82.745098%,82.745098%);fill-opacity:1;stroke-width:0.75;stroke-linecap:round;stroke-linejoin:round;stroke:rgb(100%,100%,100%);stroke-opacity:1;stroke-miterlimit:10;" d="M 331.835938 122.984375 L 335.222656 122.984375 L 335.222656 122.53125 L 331.835938 122.53125 Z M 331.835938 122.984375 "/>
<path style="fill-rule:nonzero;fill:rgb(82.745098%,82.745098%,82.745098%);fill-opacity:1;stroke-width:0.75;stroke-linecap:round;stroke-linejoin:round;stroke:rgb(100%,100%,100%);stroke-opacity:1;stroke-miterlimit:10;" d="M 335.222656 122.984375 L 338.609375 122.984375 L 338.609375 122.84375 L 335.222656 122.84375 Z M 335.222656 122.984375 "/>
<path style="fill-rule:nonzero;fill:rgb(82.745098%,82.745098%,82.745098%);fill-opacity:1;stroke-width:0.75;stroke-linecap:round;stroke-linejoin:round;stroke:rgb(100%,100%,100%);stroke-opacity:1;stroke-miterlimit:10;" d="M 338.605469 122.984375 L 341.992188 122.984375 L 341.992188 122.894531 L 338.605469 122.894531 Z M 338.605469 122.984375 "/>
<path style="fill-rule:nonzero;fill:rgb(82.745098%,82.745098%,82.745098%);fill-opacity:1;stroke-width:0.75;stroke-linecap:round;stroke-linejoin:round;stroke:rgb(100%,100%,100%);stroke-opacity:1;stroke-miterlimit:10;" d="M 341.992188 122.984375 L 345.378906 122.984375 L 345.378906 122.953125 L 341.992188 122.953125 Z M 341.992188 122.984375 "/>
<path style="fill-rule:nonzero;fill:rgb(82.745098%,82.745098%,82.745098%);fill-opacity:1;stroke-width:0.75;stroke-linecap:round;stroke-linejoin:round;stroke:rgb(100%,100%,100%);stroke-opacity:1;stroke-miterlimit:10;" d="M 345.378906 122.984375 L 348.765625 122.984375 L 348.765625 122.976562 L 345.378906 122.976562 Z M 345.378906 122.984375 "/>
<path style="fill:none;stroke-width:0.75;stroke-linecap:round;stroke-linejoin:round;stroke:rgb(100%,100%,100%);stroke-opacity:1;stroke-miterlimit:10;" d="M 348.765625 122.984375 L 352.152344 122.984375 Z M 348.765625 122.984375 "/>
<path style="fill:none;stroke-width:0.75;stroke-linecap:round;stroke-linejoin:round;stroke:rgb(100%,100%,100%);stroke-opacity:1;stroke-miterlimit:10;" d="M 352.152344 122.984375 L 355.539062 122.984375 Z M 352.152344 122.984375 "/>
<path style="fill:none;stroke-width:0.75;stroke-linecap:round;stroke-linejoin:round;stroke:rgb(100%,100%,100%);stroke-opacity:1;stroke-miterlimit:10;" d="M 355.535156 122.984375 L 358.921875 122.984375 Z M 355.535156 122.984375 "/>
<path style="fill-rule:nonzero;fill:rgb(82.745098%,82.745098%,82.745098%);fill-opacity:1;stroke-width:0.75;stroke-linecap:round;stroke-linejoin:round;stroke:rgb(100%,100%,100%);stroke-opacity:1;stroke-miterlimit:10;" d="M 358.921875 122.984375 L 359.289062 122.984375 L 359.289062 122.910156 L 358.921875 122.910156 Z M 358.921875 122.984375 "/>
<g style="fill:rgb(0%,0%,0%);fill-opacity:1;">
  <use xlink:href="#glyph1-7" x="254.460938" y="31.550781"/>
</g>
<g style="fill:rgb(0%,0%,0%);fill-opacity:1;">
  <use xlink:href="#glyph1-8" x="261.460938" y="31.550781"/>
</g>
<g style="fill:rgb(0%,0%,0%);fill-opacity:1;">
  <use xlink:href="#glyph1-9" x="266.460938" y="31.550781"/>
</g>
<g style="fill:rgb(0%,0%,0%);fill-opacity:1;">
  <use xlink:href="#glyph1-10" x="271.460938" y="31.550781"/>
</g>
<g style="fill:rgb(0%,0%,0%);fill-opacity:1;">
  <use xlink:href="#glyph2-1" x="278.40625" y="32.001953"/>
</g>
<g style="fill:rgb(0%,0%,0%);fill-opacity:1;">
  <use xlink:href="#glyph1-2" x="285.347656" y="31.550781"/>
  <use xlink:href="#glyph1-3" x="289.750977" y="31.550781"/>
  <use xlink:href="#glyph1-6" x="291.952148" y="31.550781"/>
  <use xlink:href="#glyph1-20" x="296.355469" y="31.550781"/>
  <use xlink:href="#glyph1-6" x="300.758789" y="31.550781"/>
</g>
<path style="fill:none;stroke-width:3;stroke-linecap:butt;stroke-linejoin:round;stroke:rgb(0%,0%,0%);stroke-opacity:1;stroke-miterlimit:10;" d="M 249.894531 122.984375 L 310.839844 122.984375 "/>
<g style="fill:rgb(0%,0%,0%);fill-opacity:1;">
  <use xlink:href="#glyph1-12" x="264.367188" y="109.632812"/>
  <use xlink:href="#glyph1-4" x="268.770508" y="109.632812"/>
</g>
<g style="fill:rgb(0%,0%,0%);fill-opacity:1;">
  <use xlink:href="#glyph1-13" x="273.367188" y="109.632812"/>
  <use xlink:href="#glyph1-14" x="280.407227" y="109.632812"/>
  <use xlink:href="#glyph1-15" x="282.608398" y="109.632812"/>
  <use xlink:href="#glyph1-16" x="288.326172" y="109.632812"/>
  <use xlink:href="#glyph1-17" x="294.043945" y="109.632812"/>
</g>
<g style="fill:rgb(0%,0%,0%);fill-opacity:1;">
  <use xlink:href="#glyph1-2" x="238.695312" y="119.53125"/>
  <use xlink:href="#glyph1-3" x="243.098633" y="119.53125"/>
  <use xlink:href="#glyph1-5" x="245.299805" y="119.53125"/>
  <use xlink:href="#glyph1-12" x="249.703125" y="119.53125"/>
</g>
<g style="fill:rgb(0%,0%,0%);fill-opacity:1;">
  <use xlink:href="#glyph1-2" x="304.839844" y="119.53125"/>
  <use xlink:href="#glyph1-3" x="309.243164" y="119.53125"/>
  <use xlink:href="#glyph1-6" x="311.444336" y="119.53125"/>
  <use xlink:href="#glyph1-12" x="315.847656" y="119.53125"/>
  <use xlink:href="#glyph1-4" x="320.250977" y="119.53125"/>
</g>
</g>
</svg>
