<?xml version="1.0" encoding="UTF-8"?>
<svg xmlns="http://www.w3.org/2000/svg" xmlns:xlink="http://www.w3.org/1999/xlink" width="396pt" height="108pt" viewBox="0 0 396 108" version="1.1">
<defs>
<g>
<symbol overflow="visible" id="glyph0-0">
<path style="stroke:none;" d=""/>
</symbol>
<symbol overflow="visible" id="glyph0-1">
<path style="stroke:none;" d="M 1.625 -2.71875 L 3.640625 -2.71875 C 4.140625 -2.71875 4.53125 -2.875 4.875 -3.171875 C 5.265625 -3.53125 5.421875 -3.9375 5.421875 -4.53125 C 5.421875 -5.734375 4.71875 -6.40625 3.453125 -6.40625 L 0.796875 -6.40625 L 0.796875 0 L 1.625 0 Z M 1.625 -3.4375 L 1.625 -5.6875 L 3.328125 -5.6875 C 4.109375 -5.6875 4.578125 -5.265625 4.578125 -4.5625 C 4.578125 -3.859375 4.109375 -3.4375 3.328125 -3.4375 Z M 1.625 -3.4375 "/>
</symbol>
<symbol overflow="visible" id="glyph0-2">
<path style="stroke:none;" d="M 2.078125 -6.40625 C 1.203125 -5.265625 0.640625 -3.65625 0.640625 -2.28125 C 0.640625 -0.890625 1.203125 0.71875 2.078125 1.859375 L 2.5625 1.859375 C 1.78125 0.609375 1.359375 -0.875 1.359375 -2.28125 C 1.359375 -3.671875 1.78125 -5.15625 2.5625 -6.40625 Z M 2.078125 -6.40625 "/>
</symbol>
<symbol overflow="visible" id="glyph0-3">
<path style="stroke:none;" d="M 5.25 -4.53125 C 5.234375 -5.78125 4.375 -6.515625 2.890625 -6.515625 C 1.484375 -6.515625 0.609375 -5.796875 0.609375 -4.640625 C 0.609375 -3.859375 1.03125 -3.359375 1.875 -3.140625 L 3.46875 -2.71875 C 4.28125 -2.5 4.640625 -2.1875 4.640625 -1.6875 C 4.640625 -1.34375 4.453125 -0.984375 4.1875 -0.796875 C 3.9375 -0.609375 3.53125 -0.515625 3.015625 -0.515625 C 2.3125 -0.515625 1.84375 -0.6875 1.53125 -1.0625 C 1.296875 -1.34375 1.1875 -1.640625 1.203125 -2.046875 L 0.421875 -2.046875 C 0.4375 -1.453125 0.546875 -1.0625 0.796875 -0.71875 C 1.234375 -0.109375 1.984375 0.203125 2.953125 0.203125 C 3.71875 0.203125 4.34375 0.03125 4.765625 -0.296875 C 5.1875 -0.640625 5.46875 -1.203125 5.46875 -1.765625 C 5.46875 -2.546875 4.96875 -3.125 4.09375 -3.375 L 2.484375 -3.796875 C 1.71875 -4.015625 1.4375 -4.25 1.4375 -4.75 C 1.4375 -5.40625 2 -5.828125 2.875 -5.828125 C 3.890625 -5.828125 4.453125 -5.359375 4.46875 -4.53125 Z M 5.25 -4.53125 "/>
</symbol>
<symbol overflow="visible" id="glyph0-4">
<path style="stroke:none;" d="M 4.453125 -0.765625 L 1.171875 -0.765625 C 1.25 -1.28125 1.53125 -1.59375 2.296875 -2.046875 L 3.171875 -2.53125 C 4.046875 -3 4.5 -3.640625 4.5 -4.40625 C 4.5 -4.921875 4.28125 -5.40625 3.921875 -5.75 C 3.546875 -6.078125 3.09375 -6.234375 2.5 -6.234375 C 1.703125 -6.234375 1.125 -5.953125 0.78125 -5.421875 C 0.546875 -5.09375 0.453125 -4.703125 0.4375 -4.078125 L 1.21875 -4.078125 C 1.234375 -4.5 1.296875 -4.75 1.40625 -4.953125 C 1.59375 -5.328125 2 -5.5625 2.46875 -5.5625 C 3.171875 -5.5625 3.703125 -5.0625 3.703125 -4.390625 C 3.703125 -3.890625 3.40625 -3.46875 2.859375 -3.15625 L 2.046875 -2.703125 C 0.75 -1.96875 0.375 -1.375 0.296875 0 L 4.453125 0 Z M 4.453125 -0.765625 "/>
</symbol>
<symbol overflow="visible" id="glyph0-5">
<path style="stroke:none;" d="M 2.015625 -6.40625 L -0.078125 0.171875 L 0.40625 0.171875 L 2.5 -6.40625 Z M 2.015625 -6.40625 "/>
</symbol>
<symbol overflow="visible" id="glyph0-6">
<path style="stroke:none;" d="M 1.9375 -2.859375 L 2.046875 -2.859375 L 2.359375 -2.875 C 3.21875 -2.875 3.65625 -2.484375 3.65625 -1.734375 C 3.65625 -0.953125 3.171875 -0.484375 2.359375 -0.484375 C 1.515625 -0.484375 1.109375 -0.90625 1.0625 -1.8125 L 0.28125 -1.8125 C 0.3125 -1.3125 0.40625 -0.984375 0.546875 -0.703125 C 0.875 -0.109375 1.484375 0.203125 2.34375 0.203125 C 3.625 0.203125 4.453125 -0.5625 4.453125 -1.734375 C 4.453125 -2.53125 4.140625 -2.96875 3.390625 -3.234375 C 3.96875 -3.453125 4.265625 -3.890625 4.265625 -4.515625 C 4.265625 -5.59375 3.546875 -6.234375 2.359375 -6.234375 C 1.109375 -6.234375 0.4375 -5.546875 0.40625 -4.21875 L 1.1875 -4.21875 C 1.203125 -4.59375 1.234375 -4.8125 1.328125 -5 C 1.5 -5.34375 1.890625 -5.5625 2.375 -5.5625 C 3.0625 -5.5625 3.46875 -5.15625 3.46875 -4.5 C 3.46875 -4.0625 3.3125 -3.796875 2.96875 -3.65625 C 2.765625 -3.5625 2.484375 -3.53125 1.9375 -3.515625 Z M 1.9375 -2.859375 "/>
</symbol>
<symbol overflow="visible" id="glyph0-7">
<path style="stroke:none;" d="M 0.875 -6.40625 L 0.875 1.859375 L 1.40625 1.859375 L 1.40625 -6.40625 Z M 0.875 -6.40625 "/>
</symbol>
<symbol overflow="visible" id="glyph0-8">
<path style="stroke:none;" d="M 2.265625 -4.609375 L 1.5 -4.609375 L 1.5 -5.328125 C 1.5 -5.640625 1.6875 -5.796875 2.015625 -5.796875 C 2.078125 -5.796875 2.109375 -5.796875 2.265625 -5.78125 L 2.265625 -6.390625 C 2.109375 -6.4375 2 -6.4375 1.859375 -6.4375 C 1.171875 -6.4375 0.78125 -6.046875 0.78125 -5.390625 L 0.78125 -4.609375 L 0.15625 -4.609375 L 0.15625 -4.015625 L 0.78125 -4.015625 L 0.78125 0 L 1.5 0 L 1.5 -4.015625 L 2.265625 -4.015625 Z M 2.265625 -4.609375 "/>
</symbol>
<symbol overflow="visible" id="glyph0-9">
<path style="stroke:none;" d="M 1.3125 -4.609375 L 0.59375 -4.609375 L 0.59375 0 L 1.3125 0 Z M 1.3125 -6.40625 L 0.578125 -6.40625 L 0.578125 -5.484375 L 1.3125 -5.484375 Z M 1.3125 -6.40625 "/>
</symbol>
<symbol overflow="visible" id="glyph0-10">
<path style="stroke:none;" d="M 0.765625 -0.921875 L 0.765625 0 L 1.296875 0 L 1.296875 0.15625 C 1.296875 0.765625 1.171875 0.9375 0.765625 0.953125 L 0.765625 1.296875 C 1.375 1.296875 1.6875 0.890625 1.6875 0.140625 L 1.6875 -0.921875 Z M 0.765625 -0.921875 "/>
</symbol>
<symbol overflow="visible" id="glyph0-11">
<path style="stroke:none;" d="M 4.171875 -1.921875 L 4.828125 0 L 5.75 0 L 3.5 -6.40625 L 2.4375 -6.40625 L 0.15625 0 L 1.015625 0 L 1.703125 -1.921875 Z M 3.9375 -2.609375 L 1.90625 -2.609375 L 2.953125 -5.53125 Z M 3.9375 -2.609375 "/>
</symbol>
<symbol overflow="visible" id="glyph0-12">
<path style="stroke:none;" d="M 0.78125 0 L 3.25 0 C 4.875 0 5.875 -1.21875 5.875 -3.203125 C 5.875 -5.203125 4.875 -6.40625 3.25 -6.40625 L 0.78125 -6.40625 Z M 1.59375 -0.71875 L 1.59375 -5.6875 L 3.109375 -5.6875 C 4.375 -5.6875 5.046875 -4.84375 5.046875 -3.203125 C 5.046875 -1.578125 4.375 -0.71875 3.109375 -0.71875 Z M 1.59375 -0.71875 "/>
</symbol>
<symbol overflow="visible" id="glyph0-13">
<path style="stroke:none;" d="M 3.453125 0 L 5.671875 -6.40625 L 4.796875 -6.40625 L 3.03125 -0.984375 L 1.140625 -6.40625 L 0.265625 -6.40625 L 2.5625 0 Z M 3.453125 0 "/>
</symbol>
<symbol overflow="visible" id="glyph0-14">
<path style="stroke:none;" d="M 0.8125 1.859375 C 1.703125 0.71875 2.25 -0.890625 2.25 -2.265625 C 2.25 -3.65625 1.703125 -5.265625 0.8125 -6.40625 L 0.328125 -6.40625 C 1.109375 -5.15625 1.546875 -3.671875 1.546875 -2.265625 C 1.546875 -0.875 1.109375 0.609375 0.328125 1.859375 Z M 0.8125 1.859375 "/>
</symbol>
<symbol overflow="visible" id="glyph0-15">
<path style="stroke:none;" d="M 4.359375 -6.40625 L 3.625 -6.40625 L 3.625 -4.03125 C 3.3125 -4.5 2.828125 -4.734375 2.203125 -4.734375 C 1.015625 -4.734375 0.234375 -3.78125 0.234375 -2.3125 C 0.234375 -0.75 1 0.203125 2.234375 0.203125 C 2.875 0.203125 3.3125 -0.03125 3.703125 -0.609375 L 3.703125 0 L 4.359375 0 Z M 2.328125 -4.0625 C 3.125 -4.0625 3.625 -3.359375 3.625 -2.25 C 3.625 -1.1875 3.109375 -0.484375 2.34375 -0.484375 C 1.53125 -0.484375 1 -1.203125 1 -2.265625 C 1 -3.34375 1.53125 -4.0625 2.328125 -4.0625 Z M 2.328125 -4.0625 "/>
</symbol>
<symbol overflow="visible" id="glyph0-16">
<path style="stroke:none;" d="M 4.515625 -2.0625 C 4.515625 -2.765625 4.453125 -3.1875 4.328125 -3.53125 C 4.03125 -4.28125 3.328125 -4.734375 2.46875 -4.734375 C 1.171875 -4.734375 0.359375 -3.75 0.359375 -2.25 C 0.359375 -0.734375 1.15625 0.203125 2.453125 0.203125 C 3.5 0.203125 4.234375 -0.390625 4.421875 -1.40625 L 3.671875 -1.40625 C 3.46875 -0.796875 3.0625 -0.46875 2.46875 -0.46875 C 2 -0.46875 1.609375 -0.6875 1.359375 -1.078125 C 1.1875 -1.34375 1.125 -1.59375 1.125 -2.0625 Z M 1.140625 -2.65625 C 1.203125 -3.515625 1.71875 -4.0625 2.453125 -4.0625 C 3.171875 -4.0625 3.734375 -3.46875 3.734375 -2.703125 C 3.734375 -2.6875 3.734375 -2.671875 3.71875 -2.65625 Z M 1.140625 -2.65625 "/>
</symbol>
<symbol overflow="visible" id="glyph0-17">
<path style="stroke:none;" d="M 4.140625 -3.0625 C 4.109375 -3.515625 4.015625 -3.796875 3.828125 -4.0625 C 3.515625 -4.484375 2.96875 -4.734375 2.328125 -4.734375 C 1.078125 -4.734375 0.265625 -3.75 0.265625 -2.21875 C 0.265625 -0.734375 1.0625 0.203125 2.3125 0.203125 C 3.40625 0.203125 4.109375 -0.453125 4.203125 -1.578125 L 3.453125 -1.578125 C 3.328125 -0.84375 2.953125 -0.46875 2.328125 -0.46875 C 1.515625 -0.46875 1.03125 -1.140625 1.03125 -2.21875 C 1.03125 -3.375 1.515625 -4.0625 2.3125 -4.0625 C 2.921875 -4.0625 3.3125 -3.703125 3.40625 -3.0625 Z M 4.140625 -3.0625 "/>
</symbol>
<symbol overflow="visible" id="glyph0-18">
<path style="stroke:none;" d="M 2.234375 -4.609375 L 1.484375 -4.609375 L 1.484375 -5.875 L 0.75 -5.875 L 0.75 -4.609375 L 0.125 -4.609375 L 0.125 -4.015625 L 0.75 -4.015625 L 0.75 -0.53125 C 0.75 -0.0625 1.0625 0.203125 1.640625 0.203125 C 1.8125 0.203125 1.984375 0.1875 2.234375 0.140625 L 2.234375 -0.46875 C 2.140625 -0.453125 2.015625 -0.4375 1.875 -0.4375 C 1.5625 -0.4375 1.484375 -0.53125 1.484375 -0.859375 L 1.484375 -4.015625 L 2.234375 -4.015625 Z M 2.234375 -4.609375 "/>
</symbol>
<symbol overflow="visible" id="glyph0-19">
<path style="stroke:none;" d="M 1.6875 -0.921875 L 0.765625 -0.921875 L 0.765625 0 L 1.6875 0 Z M 1.6875 -0.921875 "/>
</symbol>
<symbol overflow="visible" id="glyph0-20">
<path style="stroke:none;" d="M 5.6875 -6.40625 L 4.90625 -6.40625 L 4.90625 -1.171875 L 1.5625 -6.40625 L 0.671875 -6.40625 L 0.671875 0 L 1.4375 0 L 1.4375 -5.203125 L 4.765625 0 L 5.6875 0 Z M 5.6875 -6.40625 "/>
</symbol>
<symbol overflow="visible" id="glyph0-21">
<path style="stroke:none;" d="M 2.5 -2.75 L 0.40625 -2.75 L 0.40625 -2.109375 L 2.5 -2.109375 Z M 2.5 -2.75 "/>
</symbol>
<symbol overflow="visible" id="glyph0-22">
<path style="stroke:none;" d="M 2.421875 -6.234375 C 1.84375 -6.234375 1.3125 -5.984375 0.984375 -5.546875 C 0.578125 -5 0.375 -4.171875 0.375 -3.015625 C 0.375 -0.921875 1.078125 0.203125 2.421875 0.203125 C 3.734375 0.203125 4.453125 -0.921875 4.453125 -2.96875 C 4.453125 -4.171875 4.265625 -4.984375 3.859375 -5.546875 C 3.53125 -5.984375 3.015625 -6.234375 2.421875 -6.234375 Z M 2.421875 -5.546875 C 3.25 -5.546875 3.671875 -4.703125 3.671875 -3.03125 C 3.671875 -1.265625 3.265625 -0.4375 2.40625 -0.4375 C 1.578125 -0.4375 1.171875 -1.296875 1.171875 -3.015625 C 1.171875 -4.71875 1.578125 -5.546875 2.421875 -5.546875 Z M 2.421875 -5.546875 "/>
</symbol>
<symbol overflow="visible" id="glyph0-23">
<path style="stroke:none;" d="M 4.375 -4.609375 C 4.234375 -5.625 3.5625 -6.234375 2.609375 -6.234375 C 1.921875 -6.234375 1.3125 -5.90625 0.9375 -5.34375 C 0.546875 -4.734375 0.375 -3.96875 0.375 -2.84375 C 0.375 -1.796875 0.53125 -1.125 0.90625 -0.578125 C 1.234375 -0.078125 1.78125 0.203125 2.46875 0.203125 C 3.65625 0.203125 4.515625 -0.671875 4.515625 -1.90625 C 4.515625 -3.0625 3.71875 -3.875 2.609375 -3.875 C 1.984375 -3.875 1.5 -3.640625 1.171875 -3.1875 C 1.171875 -4.703125 1.671875 -5.546875 2.5625 -5.546875 C 3.109375 -5.546875 3.484375 -5.203125 3.609375 -4.609375 Z M 2.5 -3.1875 C 3.25 -3.1875 3.71875 -2.671875 3.71875 -1.84375 C 3.71875 -1.0625 3.1875 -0.484375 2.484375 -0.484375 C 1.765625 -0.484375 1.21875 -1.078125 1.21875 -1.875 C 1.21875 -2.65625 1.734375 -3.1875 2.5 -3.1875 Z M 2.5 -3.1875 "/>
</symbol>
<symbol overflow="visible" id="glyph1-0">
<path style="stroke:none;" d=""/>
</symbol>
<symbol overflow="visible" id="glyph1-1">
<path style="stroke:none;" d="M 6.0625 -3.65625 L 6.0625 0 L 7.078125 0 L 7.078125 -8.015625 L 6.0625 -8.015625 L 6.0625 -4.546875 L 1.9375 -4.546875 L 1.9375 -8.015625 L 0.90625 -8.015625 L 0.90625 0 L 1.953125 0 L 1.953125 -3.65625 Z M 6.0625 -3.65625 "/>
</symbol>
<symbol overflow="visible" id="glyph1-2">
<path style="stroke:none;" d="M 2.03125 -3.40625 L 4.546875 -3.40625 C 5.171875 -3.40625 5.671875 -3.59375 6.09375 -3.96875 C 6.578125 -4.40625 6.78125 -4.921875 6.78125 -5.671875 C 6.78125 -7.171875 5.890625 -8.015625 4.3125 -8.015625 L 1 -8.015625 L 1 0 L 2.03125 0 Z M 2.03125 -4.296875 L 2.03125 -7.109375 L 4.15625 -7.109375 C 5.140625 -7.109375 5.71875 -6.59375 5.71875 -5.703125 C 5.71875 -4.828125 5.140625 -4.296875 4.15625 -4.296875 Z M 2.03125 -4.296875 "/>
</symbol>
<symbol overflow="visible" id="glyph1-3">
<path style="stroke:none;" d="M 0.984375 0 L 4.0625 0 C 6.09375 0 7.34375 -1.515625 7.34375 -4.015625 C 7.34375 -6.5 6.109375 -8.015625 4.0625 -8.015625 L 0.984375 -8.015625 Z M 2 -0.90625 L 2 -7.109375 L 3.890625 -7.109375 C 5.484375 -7.109375 6.3125 -6.046875 6.3125 -4 C 6.3125 -1.984375 5.484375 -0.90625 3.890625 -0.90625 Z M 2 -0.90625 "/>
</symbol>
<symbol overflow="visible" id="glyph2-0">
<path style="stroke:none;" d=""/>
</symbol>
<symbol overflow="visible" id="glyph2-1">
<path style="stroke:none;" d="M -3.40625 -2.03125 L -3.40625 -4.546875 C -3.40625 -5.171875 -3.59375 -5.671875 -3.96875 -6.09375 C -4.40625 -6.578125 -4.921875 -6.78125 -5.671875 -6.78125 C -7.171875 -6.78125 -8.015625 -5.890625 -8.015625 -4.3125 L -8.015625 -1 L 0 -1 L 0 -2.03125 Z M -4.296875 -2.03125 L -7.109375 -2.03125 L -7.109375 -4.15625 C -7.109375 -5.140625 -6.59375 -5.71875 -5.703125 -5.71875 C -4.828125 -5.71875 -4.296875 -5.140625 -4.296875 -4.15625 Z M -4.296875 -2.03125 "/>
</symbol>
<symbol overflow="visible" id="glyph2-2">
<path style="stroke:none;" d="M -0.53125 -5.890625 C -0.515625 -5.78125 -0.515625 -5.734375 -0.515625 -5.6875 C -0.515625 -5.375 -0.6875 -5.1875 -0.96875 -5.1875 L -4.359375 -5.1875 C -5.375 -5.1875 -5.921875 -4.4375 -5.921875 -3.03125 C -5.921875 -2.1875 -5.6875 -1.5 -5.265625 -1.109375 C -4.96875 -0.84375 -4.625 -0.734375 -4.0625 -0.71875 L -4.0625 -1.640625 C -4.765625 -1.71875 -5.078125 -2.140625 -5.078125 -2.984375 C -5.078125 -3.8125 -4.78125 -4.28125 -4.21875 -4.28125 L -3.984375 -4.28125 C -3.59375 -4.28125 -3.4375 -4.046875 -3.34375 -3.328125 C -3.171875 -2.03125 -3.140625 -1.828125 -2.984375 -1.46875 C -2.71875 -0.796875 -2.203125 -0.46875 -1.453125 -0.46875 C -0.40625 -0.46875 0.25 -1.1875 0.25 -2.359375 C 0.25 -3.078125 0 -3.65625 -0.59375 -4.3125 C -0.015625 -4.375 0.25 -4.65625 0.25 -5.265625 C 0.25 -5.4375 0.234375 -5.59375 0.15625 -5.890625 Z M -1.8125 -4.28125 C -1.5 -4.28125 -1.3125 -4.1875 -1.0625 -3.921875 C -0.71875 -3.546875 -0.546875 -3.09375 -0.546875 -2.546875 C -0.546875 -1.84375 -0.890625 -1.421875 -1.46875 -1.421875 C -2.078125 -1.421875 -2.390625 -1.828125 -2.53125 -2.8125 C -2.65625 -3.765625 -2.703125 -3.96875 -2.84375 -4.28125 Z M -1.8125 -4.28125 "/>
</symbol>
<symbol overflow="visible" id="glyph2-3">
<path style="stroke:none;" d="M -5.765625 -0.765625 L 0 -0.765625 L 0 -1.6875 L -2.984375 -1.6875 C -3.8125 -1.6875 -4.359375 -1.890625 -4.671875 -2.328125 C -4.890625 -2.625 -4.953125 -2.890625 -4.96875 -3.53125 L -5.890625 -3.53125 C -5.921875 -3.375 -5.921875 -3.296875 -5.921875 -3.171875 C -5.921875 -2.578125 -5.578125 -2.140625 -4.71875 -1.609375 L -5.765625 -1.609375 Z M -5.765625 -0.765625 "/>
</symbol>
<symbol overflow="visible" id="glyph2-4">
<path style="stroke:none;" d="M -5.765625 -0.765625 L 0 -0.765625 L 0 -1.6875 L -3.625 -1.6875 C -4.453125 -1.6875 -5.125 -2.296875 -5.125 -3.046875 C -5.125 -3.734375 -4.703125 -4.109375 -3.96875 -4.109375 L 0 -4.109375 L 0 -5.03125 L -3.625 -5.03125 C -4.453125 -5.03125 -5.125 -5.640625 -5.125 -6.390625 C -5.125 -7.0625 -4.703125 -7.453125 -3.96875 -7.453125 L 0 -7.453125 L 0 -8.375 L -4.328125 -8.375 C -5.359375 -8.375 -5.921875 -7.78125 -5.921875 -6.703125 C -5.921875 -5.9375 -5.703125 -5.484375 -5.046875 -4.9375 C -5.671875 -4.59375 -5.921875 -4.140625 -5.921875 -3.390625 C -5.921875 -2.625 -5.640625 -2.109375 -4.953125 -1.609375 L -5.765625 -1.609375 Z M -5.765625 -0.765625 "/>
</symbol>
<symbol overflow="visible" id="glyph2-5">
<path style="stroke:none;" d="M -2.578125 -5.640625 C -3.453125 -5.640625 -3.984375 -5.578125 -4.40625 -5.40625 C -5.359375 -5.03125 -5.921875 -4.15625 -5.921875 -3.078125 C -5.921875 -1.46875 -4.703125 -0.4375 -2.8125 -0.4375 C -0.90625 -0.4375 0.25 -1.4375 0.25 -3.0625 C 0.25 -4.375 -0.5 -5.296875 -1.75 -5.515625 L -1.75 -4.59375 C -0.984375 -4.34375 -0.59375 -3.828125 -0.59375 -3.09375 C -0.59375 -2.515625 -0.859375 -2.015625 -1.34375 -1.703125 C -1.671875 -1.484375 -2 -1.40625 -2.578125 -1.390625 Z M -3.328125 -1.421875 C -4.390625 -1.5 -5.078125 -2.140625 -5.078125 -3.0625 C -5.078125 -3.96875 -4.328125 -4.65625 -3.390625 -4.65625 C -3.359375 -4.65625 -3.34375 -4.65625 -3.328125 -4.65625 Z M -3.328125 -1.421875 "/>
</symbol>
<symbol overflow="visible" id="glyph2-6">
<path style="stroke:none;" d="M -5.765625 -2.796875 L -5.765625 -1.84375 L -7.34375 -1.84375 L -7.34375 -0.9375 L -5.765625 -0.9375 L -5.765625 -0.15625 L -5.015625 -0.15625 L -5.015625 -0.9375 L -0.65625 -0.9375 C -0.078125 -0.9375 0.25 -1.328125 0.25 -2.046875 C 0.25 -2.265625 0.234375 -2.484375 0.171875 -2.796875 L -0.59375 -2.796875 C -0.5625 -2.671875 -0.546875 -2.53125 -0.546875 -2.359375 C -0.546875 -1.953125 -0.65625 -1.84375 -1.0625 -1.84375 L -5.015625 -1.84375 L -5.015625 -2.796875 Z M -5.765625 -2.796875 "/>
</symbol>
</g>
<clipPath id="clip1">
  <path d="M 109.070312 5.480469 L 391 5.480469 L 391 77 L 109.070312 77 Z M 109.070312 5.480469 "/>
</clipPath>
<clipPath id="clip2">
  <path d="M 153 5.480469 L 155 5.480469 L 155 77 L 153 77 Z M 153 5.480469 "/>
</clipPath>
<clipPath id="clip3">
  <path d="M 217 5.480469 L 219 5.480469 L 219 77 L 217 77 Z M 217 5.480469 "/>
</clipPath>
<clipPath id="clip4">
  <path d="M 281 5.480469 L 283 5.480469 L 283 77 L 281 77 Z M 281 5.480469 "/>
</clipPath>
<clipPath id="clip5">
  <path d="M 345 5.480469 L 347 5.480469 L 347 77 L 345 77 Z M 345 5.480469 "/>
</clipPath>
<clipPath id="clip6">
  <path d="M 109.070312 62 L 391.519531 62 L 391.519531 64 L 109.070312 64 Z M 109.070312 62 "/>
</clipPath>
<clipPath id="clip7">
  <path d="M 109.070312 40 L 391.519531 40 L 391.519531 42 L 109.070312 42 Z M 109.070312 40 "/>
</clipPath>
<clipPath id="clip8">
  <path d="M 109.070312 18 L 391.519531 18 L 391.519531 20 L 109.070312 20 Z M 109.070312 18 "/>
</clipPath>
<clipPath id="clip9">
  <path d="M 121 5.480469 L 123 5.480469 L 123 77 L 121 77 Z M 121 5.480469 "/>
</clipPath>
<clipPath id="clip10">
  <path d="M 185 5.480469 L 187 5.480469 L 187 77 L 185 77 Z M 185 5.480469 "/>
</clipPath>
<clipPath id="clip11">
  <path d="M 249 5.480469 L 251 5.480469 L 251 77 L 249 77 Z M 249 5.480469 "/>
</clipPath>
<clipPath id="clip12">
  <path d="M 313 5.480469 L 315 5.480469 L 315 77 L 313 77 Z M 313 5.480469 "/>
</clipPath>
<clipPath id="clip13">
  <path d="M 377 5.480469 L 379 5.480469 L 379 77 L 377 77 Z M 377 5.480469 "/>
</clipPath>
<clipPath id="clip14">
  <path d="M 249 5.480469 L 251 5.480469 L 251 77 L 249 77 Z M 249 5.480469 "/>
</clipPath>
<clipPath id="clip15">
  <path d="M 109.070312 5.480469 L 391.519531 5.480469 L 391.519531 77 L 109.070312 77 Z M 109.070312 5.480469 "/>
</clipPath>
</defs>
<g id="surface966">
<rect x="0" y="0" width="396" height="108" style="fill:rgb(100%,100%,100%);fill-opacity:1;stroke:none;"/>
<rect x="0" y="0" width="396" height="108" style="fill:rgb(100%,100%,100%);fill-opacity:1;stroke:none;"/>
<path style="fill:none;stroke-width:1.066978;stroke-linecap:round;stroke-linejoin:round;stroke:rgb(100%,100%,100%);stroke-opacity:1;stroke-miterlimit:10;" d="M 0 108 L 396 108 L 396 0 L 0 0 Z M 0 108 "/>
<g clip-path="url(#clip1)" clip-rule="nonzero">
<path style=" stroke:none;fill-rule:nonzero;fill:rgb(100%,100%,100%);fill-opacity:1;" d="M 109.070312 76.109375 L 390.519531 76.109375 L 390.519531 5.480469 L 109.070312 5.480469 Z M 109.070312 76.109375 "/>
</g>
<g clip-path="url(#clip2)" clip-rule="nonzero">
<path style="fill:none;stroke-width:0.533489;stroke-linecap:butt;stroke-linejoin:round;stroke:rgb(92.156863%,92.156863%,92.156863%);stroke-opacity:1;stroke-miterlimit:10;" d="M 153.847656 76.109375 L 153.847656 5.480469 "/>
</g>
<g clip-path="url(#clip3)" clip-rule="nonzero">
<path style="fill:none;stroke-width:0.533489;stroke-linecap:butt;stroke-linejoin:round;stroke:rgb(92.156863%,92.156863%,92.156863%);stroke-opacity:1;stroke-miterlimit:10;" d="M 217.8125 76.109375 L 217.8125 5.480469 "/>
</g>
<g clip-path="url(#clip4)" clip-rule="nonzero">
<path style="fill:none;stroke-width:0.533489;stroke-linecap:butt;stroke-linejoin:round;stroke:rgb(92.156863%,92.156863%,92.156863%);stroke-opacity:1;stroke-miterlimit:10;" d="M 281.777344 76.109375 L 281.777344 5.480469 "/>
</g>
<g clip-path="url(#clip5)" clip-rule="nonzero">
<path style="fill:none;stroke-width:0.533489;stroke-linecap:butt;stroke-linejoin:round;stroke:rgb(92.156863%,92.156863%,92.156863%);stroke-opacity:1;stroke-miterlimit:10;" d="M 345.746094 76.109375 L 345.746094 5.480469 "/>
</g>
<g clip-path="url(#clip6)" clip-rule="nonzero">
<path style="fill:none;stroke-width:1.066978;stroke-linecap:butt;stroke-linejoin:round;stroke:rgb(92.156863%,92.156863%,92.156863%);stroke-opacity:1;stroke-miterlimit:10;" d="M 109.070312 62.867188 L 390.519531 62.867188 "/>
</g>
<g clip-path="url(#clip7)" clip-rule="nonzero">
<path style="fill:none;stroke-width:1.066978;stroke-linecap:butt;stroke-linejoin:round;stroke:rgb(92.156863%,92.156863%,92.156863%);stroke-opacity:1;stroke-miterlimit:10;" d="M 109.070312 40.792969 L 390.519531 40.792969 "/>
</g>
<g clip-path="url(#clip8)" clip-rule="nonzero">
<path style="fill:none;stroke-width:1.066978;stroke-linecap:butt;stroke-linejoin:round;stroke:rgb(92.156863%,92.156863%,92.156863%);stroke-opacity:1;stroke-miterlimit:10;" d="M 109.070312 18.722656 L 390.519531 18.722656 "/>
</g>
<g clip-path="url(#clip9)" clip-rule="nonzero">
<path style="fill:none;stroke-width:1.066978;stroke-linecap:butt;stroke-linejoin:round;stroke:rgb(92.156863%,92.156863%,92.156863%);stroke-opacity:1;stroke-miterlimit:10;" d="M 121.863281 76.109375 L 121.863281 5.480469 "/>
</g>
<g clip-path="url(#clip10)" clip-rule="nonzero">
<path style="fill:none;stroke-width:1.066978;stroke-linecap:butt;stroke-linejoin:round;stroke:rgb(92.156863%,92.156863%,92.156863%);stroke-opacity:1;stroke-miterlimit:10;" d="M 185.828125 76.109375 L 185.828125 5.480469 "/>
</g>
<g clip-path="url(#clip11)" clip-rule="nonzero">
<path style="fill:none;stroke-width:1.066978;stroke-linecap:butt;stroke-linejoin:round;stroke:rgb(92.156863%,92.156863%,92.156863%);stroke-opacity:1;stroke-miterlimit:10;" d="M 249.796875 76.109375 L 249.796875 5.480469 "/>
</g>
<g clip-path="url(#clip12)" clip-rule="nonzero">
<path style="fill:none;stroke-width:1.066978;stroke-linecap:butt;stroke-linejoin:round;stroke:rgb(92.156863%,92.156863%,92.156863%);stroke-opacity:1;stroke-miterlimit:10;" d="M 313.761719 76.109375 L 313.761719 5.480469 "/>
</g>
<g clip-path="url(#clip13)" clip-rule="nonzero">
<path style="fill:none;stroke-width:1.066978;stroke-linecap:butt;stroke-linejoin:round;stroke:rgb(92.156863%,92.156863%,92.156863%);stroke-opacity:1;stroke-miterlimit:10;" d="M 377.726562 76.109375 L 377.726562 5.480469 "/>
</g>
<path style="fill-rule:nonzero;fill:rgb(65.098039%,65.098039%,65.098039%);fill-opacity:1;stroke-width:0.708661;stroke-linecap:round;stroke-linejoin:round;stroke:rgb(65.098039%,65.098039%,65.098039%);stroke-opacity:1;stroke-miterlimit:10;" d="M 244.6875 62.867188 C 244.6875 67.605469 237.578125 67.605469 237.578125 62.867188 C 237.578125 58.125 244.6875 58.125 244.6875 62.867188 "/>
<path style="fill-rule:nonzero;fill:rgb(65.098039%,65.098039%,65.098039%);fill-opacity:1;stroke-width:0.708661;stroke-linecap:round;stroke-linejoin:round;stroke:rgb(65.098039%,65.098039%,65.098039%);stroke-opacity:1;stroke-miterlimit:10;" d="M 256.855469 40.792969 C 256.855469 45.535156 249.746094 45.535156 249.746094 40.792969 C 249.746094 36.054688 256.855469 36.054688 256.855469 40.792969 "/>
<path style="fill-rule:nonzero;fill:rgb(65.098039%,65.098039%,65.098039%);fill-opacity:1;stroke-width:0.708661;stroke-linecap:round;stroke-linejoin:round;stroke:rgb(65.098039%,65.098039%,65.098039%);stroke-opacity:1;stroke-miterlimit:10;" d="M 258.511719 18.722656 C 258.511719 23.464844 251.402344 23.464844 251.402344 18.722656 C 251.402344 13.980469 258.511719 13.980469 258.511719 18.722656 "/>
<path style="fill:none;stroke-width:3.200935;stroke-linecap:butt;stroke-linejoin:round;stroke:rgb(65.098039%,65.098039%,65.098039%);stroke-opacity:1;stroke-miterlimit:10;" d="M 237.710938 62.867188 L 244.535156 62.867188 "/>
<path style="fill:none;stroke-width:3.200935;stroke-linecap:butt;stroke-linejoin:round;stroke:rgb(65.098039%,65.098039%,65.098039%);stroke-opacity:1;stroke-miterlimit:10;" d="M 249.597656 40.792969 L 257.015625 40.792969 "/>
<path style="fill:none;stroke-width:3.200935;stroke-linecap:butt;stroke-linejoin:round;stroke:rgb(65.098039%,65.098039%,65.098039%);stroke-opacity:1;stroke-miterlimit:10;" d="M 252.339844 18.722656 L 257.59375 18.722656 "/>
<path style="fill:none;stroke-width:1.066978;stroke-linecap:butt;stroke-linejoin:round;stroke:rgb(65.098039%,65.098039%,65.098039%);stroke-opacity:1;stroke-miterlimit:10;" d="M 237.042969 62.867188 L 245.152344 62.867188 "/>
<path style="fill:none;stroke-width:1.066978;stroke-linecap:butt;stroke-linejoin:round;stroke:rgb(65.098039%,65.098039%,65.098039%);stroke-opacity:1;stroke-miterlimit:10;" d="M 248.921875 40.792969 L 257.742188 40.792969 "/>
<path style="fill:none;stroke-width:1.066978;stroke-linecap:butt;stroke-linejoin:round;stroke:rgb(65.098039%,65.098039%,65.098039%);stroke-opacity:1;stroke-miterlimit:10;" d="M 251.828125 18.722656 L 258.097656 18.722656 "/>
<g clip-path="url(#clip14)" clip-rule="nonzero">
<path style="fill:none;stroke-width:1.066978;stroke-linecap:butt;stroke-linejoin:round;stroke:rgb(0%,0%,0%);stroke-opacity:1;stroke-dasharray:1.066978,3.200935;stroke-miterlimit:10;" d="M 249.796875 76.109375 L 249.796875 5.480469 "/>
</g>
<g clip-path="url(#clip15)" clip-rule="nonzero">
<path style="fill:none;stroke-width:1.066978;stroke-linecap:round;stroke-linejoin:round;stroke:rgb(20%,20%,20%);stroke-opacity:1;stroke-miterlimit:10;" d="M 109.070312 76.109375 L 390.519531 76.109375 L 390.519531 5.480469 L 109.070312 5.480469 Z M 109.070312 76.109375 "/>
</g>
<g style="fill:rgb(30.196078%,30.196078%,30.196078%);fill-opacity:1;">
  <use xlink:href="#glyph0-1" x="41.140625" y="65.75293"/>
  <use xlink:href="#glyph0-2" x="47.009766" y="65.75293"/>
  <use xlink:href="#glyph0-3" x="49.94043" y="65.75293"/>
  <use xlink:href="#glyph0-4" x="55.80957" y="65.75293"/>
  <use xlink:href="#glyph0-5" x="60.702148" y="65.75293"/>
  <use xlink:href="#glyph0-3" x="63.148438" y="65.75293"/>
  <use xlink:href="#glyph0-6" x="69.017578" y="65.75293"/>
  <use xlink:href="#glyph0-7" x="73.910156" y="65.75293"/>
  <use xlink:href="#glyph0-8" x="76.198242" y="65.75293"/>
  <use xlink:href="#glyph0-9" x="78.644531" y="65.75293"/>
  <use xlink:href="#glyph0-10" x="80.597656" y="65.75293"/>
  <use xlink:href="#glyph0-11" x="83.043945" y="65.75293"/>
  <use xlink:href="#glyph0-12" x="88.913086" y="65.75293"/>
  <use xlink:href="#glyph0-13" x="95.266602" y="65.75293"/>
  <use xlink:href="#glyph0-14" x="101.135742" y="65.75293"/>
</g>
<g style="fill:rgb(30.196078%,30.196078%,30.196078%);fill-opacity:1;">
  <use xlink:href="#glyph0-1" x="20.140625" y="43.678711"/>
  <use xlink:href="#glyph0-2" x="26.009766" y="43.678711"/>
  <use xlink:href="#glyph0-3" x="28.94043" y="43.678711"/>
  <use xlink:href="#glyph0-4" x="34.80957" y="43.678711"/>
  <use xlink:href="#glyph0-5" x="39.702148" y="43.678711"/>
  <use xlink:href="#glyph0-3" x="42.148438" y="43.678711"/>
  <use xlink:href="#glyph0-6" x="48.017578" y="43.678711"/>
  <use xlink:href="#glyph0-7" x="52.910156" y="43.678711"/>
  <use xlink:href="#glyph0-8" x="55.198242" y="43.678711"/>
  <use xlink:href="#glyph0-9" x="57.644531" y="43.678711"/>
  <use xlink:href="#glyph0-10" x="59.597656" y="43.678711"/>
  <use xlink:href="#glyph0-15" x="62.043945" y="43.678711"/>
  <use xlink:href="#glyph0-16" x="66.936523" y="43.678711"/>
  <use xlink:href="#glyph0-9" x="71.829102" y="43.678711"/>
  <use xlink:href="#glyph0-17" x="73.782227" y="43.678711"/>
  <use xlink:href="#glyph0-18" x="78.182617" y="43.678711"/>
  <use xlink:href="#glyph0-19" x="80.628906" y="43.678711"/>
  <use xlink:href="#glyph0-11" x="83.075195" y="43.678711"/>
  <use xlink:href="#glyph0-12" x="88.944336" y="43.678711"/>
  <use xlink:href="#glyph0-13" x="95.297852" y="43.678711"/>
  <use xlink:href="#glyph0-14" x="101.166992" y="43.678711"/>
</g>
<g style="fill:rgb(30.196078%,30.196078%,30.196078%);fill-opacity:1;">
  <use xlink:href="#glyph0-1" x="46.140625" y="21.608398"/>
  <use xlink:href="#glyph0-2" x="52.009766" y="21.608398"/>
  <use xlink:href="#glyph0-3" x="54.94043" y="21.608398"/>
  <use xlink:href="#glyph0-4" x="60.80957" y="21.608398"/>
  <use xlink:href="#glyph0-5" x="65.702148" y="21.608398"/>
  <use xlink:href="#glyph0-3" x="68.148438" y="21.608398"/>
  <use xlink:href="#glyph0-6" x="74.017578" y="21.608398"/>
  <use xlink:href="#glyph0-7" x="78.910156" y="21.608398"/>
  <use xlink:href="#glyph0-8" x="81.198242" y="21.608398"/>
  <use xlink:href="#glyph0-9" x="83.644531" y="21.608398"/>
  <use xlink:href="#glyph0-10" x="85.597656" y="21.608398"/>
  <use xlink:href="#glyph0-20" x="88.043945" y="21.608398"/>
  <use xlink:href="#glyph0-1" x="94.397461" y="21.608398"/>
  <use xlink:href="#glyph0-14" x="100.266602" y="21.608398"/>
</g>
<path style="fill:none;stroke-width:1.066978;stroke-linecap:butt;stroke-linejoin:round;stroke:rgb(20%,20%,20%);stroke-opacity:1;stroke-miterlimit:10;" d="M 106.332031 62.867188 L 109.070312 62.867188 "/>
<path style="fill:none;stroke-width:1.066978;stroke-linecap:butt;stroke-linejoin:round;stroke:rgb(20%,20%,20%);stroke-opacity:1;stroke-miterlimit:10;" d="M 106.332031 40.792969 L 109.070312 40.792969 "/>
<path style="fill:none;stroke-width:1.066978;stroke-linecap:butt;stroke-linejoin:round;stroke:rgb(20%,20%,20%);stroke-opacity:1;stroke-miterlimit:10;" d="M 106.332031 18.722656 L 109.070312 18.722656 "/>
<path style="fill:none;stroke-width:1.066978;stroke-linecap:butt;stroke-linejoin:round;stroke:rgb(20%,20%,20%);stroke-opacity:1;stroke-miterlimit:10;" d="M 121.863281 78.847656 L 121.863281 76.109375 "/>
<path style="fill:none;stroke-width:1.066978;stroke-linecap:butt;stroke-linejoin:round;stroke:rgb(20%,20%,20%);stroke-opacity:1;stroke-miterlimit:10;" d="M 185.828125 78.847656 L 185.828125 76.109375 "/>
<path style="fill:none;stroke-width:1.066978;stroke-linecap:butt;stroke-linejoin:round;stroke:rgb(20%,20%,20%);stroke-opacity:1;stroke-miterlimit:10;" d="M 249.796875 78.847656 L 249.796875 76.109375 "/>
<path style="fill:none;stroke-width:1.066978;stroke-linecap:butt;stroke-linejoin:round;stroke:rgb(20%,20%,20%);stroke-opacity:1;stroke-miterlimit:10;" d="M 313.761719 78.847656 L 313.761719 76.109375 "/>
<path style="fill:none;stroke-width:1.066978;stroke-linecap:butt;stroke-linejoin:round;stroke:rgb(20%,20%,20%);stroke-opacity:1;stroke-miterlimit:10;" d="M 377.726562 78.847656 L 377.726562 76.109375 "/>
<g style="fill:rgb(30.196078%,30.196078%,30.196078%);fill-opacity:1;">
  <use xlink:href="#glyph0-21" x="113.863281" y="87.428711"/>
  <use xlink:href="#glyph0-22" x="116.793945" y="87.428711"/>
  <use xlink:href="#glyph0-19" x="121.686523" y="87.428711"/>
  <use xlink:href="#glyph0-23" x="124.132812" y="87.428711"/>
</g>
<g style="fill:rgb(30.196078%,30.196078%,30.196078%);fill-opacity:1;">
  <use xlink:href="#glyph0-21" x="177.828125" y="87.428711"/>
  <use xlink:href="#glyph0-22" x="180.758789" y="87.428711"/>
  <use xlink:href="#glyph0-19" x="185.651367" y="87.428711"/>
  <use xlink:href="#glyph0-6" x="188.097656" y="87.428711"/>
</g>
<g style="fill:rgb(30.196078%,30.196078%,30.196078%);fill-opacity:1;">
  <use xlink:href="#glyph0-22" x="243.296875" y="87.428711"/>
  <use xlink:href="#glyph0-19" x="248.189453" y="87.428711"/>
  <use xlink:href="#glyph0-22" x="250.635742" y="87.428711"/>
</g>
<g style="fill:rgb(30.196078%,30.196078%,30.196078%);fill-opacity:1;">
  <use xlink:href="#glyph0-22" x="307.261719" y="87.428711"/>
  <use xlink:href="#glyph0-19" x="312.154297" y="87.428711"/>
  <use xlink:href="#glyph0-6" x="314.600586" y="87.428711"/>
</g>
<g style="fill:rgb(30.196078%,30.196078%,30.196078%);fill-opacity:1;">
  <use xlink:href="#glyph0-22" x="371.226562" y="87.428711"/>
  <use xlink:href="#glyph0-19" x="376.119141" y="87.428711"/>
  <use xlink:href="#glyph0-23" x="378.56543" y="87.428711"/>
</g>
<g style="fill:rgb(0%,0%,0%);fill-opacity:1;">
  <use xlink:href="#glyph1-1" x="237.796875" y="102.00293"/>
  <use xlink:href="#glyph1-2" x="245.739258" y="102.00293"/>
  <use xlink:href="#glyph1-3" x="253.076172" y="102.00293"/>
</g>
<g style="fill:rgb(0%,0%,0%);fill-opacity:1;">
  <use xlink:href="#glyph2-1" x="13.963867" y="66.792969"/>
  <use xlink:href="#glyph2-2" x="13.963867" y="59.456055"/>
  <use xlink:href="#glyph2-3" x="13.963867" y="53.339844"/>
  <use xlink:href="#glyph2-2" x="13.963867" y="49.676758"/>
  <use xlink:href="#glyph2-4" x="13.963867" y="43.560547"/>
  <use xlink:href="#glyph2-5" x="13.963867" y="34.397461"/>
  <use xlink:href="#glyph2-6" x="13.963867" y="28.28125"/>
  <use xlink:href="#glyph2-5" x="13.963867" y="25.223633"/>
  <use xlink:href="#glyph2-3" x="13.963867" y="19.107422"/>
</g>
</g>
</svg>
