<?xml version="1.0" encoding="UTF-8"?>
<svg xmlns="http://www.w3.org/2000/svg" xmlns:xlink="http://www.w3.org/1999/xlink" width="360pt" height="72pt" viewBox="0 0 360 72" version="1.1">
<defs>
<g>
<symbol overflow="visible" id="glyph0-0">
<path style="stroke:none;" d=""/>
</symbol>
<symbol overflow="visible" id="glyph0-1">
<path style="stroke:none;" d="M 5.421875 -4.53125 C 5.421875 -5.734375 4.71875 -6.40625 3.453125 -6.40625 L 0.796875 -6.40625 L 0.796875 0 L 1.625 0 L 1.625 -2.71875 L 3.640625 -2.71875 C 4.6875 -2.71875 5.421875 -3.46875 5.421875 -4.53125 Z M 4.578125 -4.5625 C 4.578125 -3.859375 4.109375 -3.4375 3.328125 -3.4375 L 1.625 -3.4375 L 1.625 -5.6875 L 3.328125 -5.6875 C 4.109375 -5.6875 4.578125 -5.265625 4.578125 -4.5625 Z M 4.578125 -4.5625 "/>
</symbol>
<symbol overflow="visible" id="glyph0-2">
<path style="stroke:none;" d="M 2.5625 1.859375 C 1.78125 0.609375 1.359375 -0.875 1.359375 -2.28125 C 1.359375 -3.671875 1.78125 -5.15625 2.5625 -6.40625 L 2.078125 -6.40625 C 1.203125 -5.265625 0.640625 -3.65625 0.640625 -2.28125 C 0.640625 -0.890625 1.203125 0.71875 2.078125 1.859375 Z M 2.5625 1.859375 "/>
</symbol>
<symbol overflow="visible" id="glyph0-3">
<path style="stroke:none;" d="M 5.46875 -1.765625 C 5.46875 -2.546875 4.96875 -3.125 4.09375 -3.375 L 2.484375 -3.796875 C 1.71875 -4 1.4375 -4.25 1.4375 -4.75 C 1.4375 -5.40625 2 -5.890625 2.875 -5.890625 C 3.890625 -5.890625 4.46875 -5.421875 4.46875 -4.578125 L 5.25 -4.578125 C 5.25 -5.84375 4.375 -6.578125 2.890625 -6.578125 C 1.484375 -6.578125 0.609375 -5.796875 0.609375 -4.640625 C 0.609375 -3.859375 1.03125 -3.359375 1.875 -3.140625 L 3.46875 -2.71875 C 4.28125 -2.5 4.640625 -2.1875 4.640625 -1.6875 C 4.640625 -0.96875 4.109375 -0.5625 3.015625 -0.5625 C 1.796875 -0.5625 1.203125 -1.171875 1.203125 -2.078125 L 0.421875 -2.078125 C 0.421875 -0.578125 1.4375 0.15625 2.953125 0.15625 C 4.578125 0.15625 5.46875 -0.609375 5.46875 -1.765625 Z M 5.46875 -1.765625 "/>
</symbol>
<symbol overflow="visible" id="glyph0-4">
<path style="stroke:none;" d="M 4.578125 -1.5 L 4.578125 -2.1875 L 3.65625 -2.1875 L 3.65625 -6.234375 L 3.078125 -6.234375 L 0.25 -2.3125 L 0.25 -1.5 L 2.875 -1.5 L 2.875 0 L 3.65625 0 L 3.65625 -1.5 Z M 2.875 -2.1875 L 0.921875 -2.1875 L 2.875 -4.921875 Z M 2.875 -2.1875 "/>
</symbol>
<symbol overflow="visible" id="glyph0-5">
<path style="stroke:none;" d="M 1.4375 1.859375 L 1.4375 -6.40625 L 0.84375 -6.40625 L 0.84375 1.859375 Z M 1.4375 1.859375 "/>
</symbol>
<symbol overflow="visible" id="glyph0-6">
<path style="stroke:none;" d="M 2.265625 -4.015625 L 2.265625 -4.609375 L 1.5 -4.609375 L 1.5 -5.328125 C 1.5 -5.640625 1.6875 -5.796875 2.015625 -5.796875 C 2.078125 -5.796875 2.109375 -5.796875 2.265625 -5.78125 L 2.265625 -6.390625 C 2.109375 -6.4375 2 -6.4375 1.859375 -6.4375 C 1.171875 -6.4375 0.78125 -6.046875 0.78125 -5.390625 L 0.78125 -4.609375 L 0.15625 -4.609375 L 0.15625 -4.015625 L 0.78125 -4.015625 L 0.78125 0 L 1.5 0 L 1.5 -4.015625 Z M 3.78125 0 L 3.78125 -4.609375 L 3.046875 -4.609375 L 3.046875 0 Z M 3.875 -5.296875 L 3.875 -6.21875 L 2.953125 -6.21875 L 2.953125 -5.296875 Z M 3.875 -5.296875 "/>
</symbol>
<symbol overflow="visible" id="glyph0-7">
<path style="stroke:none;" d="M 1.6875 0.140625 L 1.6875 -0.921875 L 0.765625 -0.921875 L 0.765625 0 L 1.296875 0 L 1.296875 0.15625 C 1.296875 0.765625 1.171875 0.9375 0.765625 0.953125 L 0.765625 1.296875 C 1.375 1.296875 1.6875 0.890625 1.6875 0.140625 Z M 1.6875 0.140625 "/>
</symbol>
<symbol overflow="visible" id="glyph0-8">
<path style="stroke:none;" d="M 4.453125 -3 C 4.453125 -5.15625 3.78125 -6.234375 2.421875 -6.234375 C 1.078125 -6.234375 0.375 -5.140625 0.375 -3.046875 C 0.375 -0.953125 1.078125 0.125 2.421875 0.125 C 3.734375 0.125 4.453125 -0.953125 4.453125 -3 Z M 3.671875 -3.0625 C 3.671875 -1.296875 3.265625 -0.515625 2.40625 -0.515625 C 1.578125 -0.515625 1.171875 -1.34375 1.171875 -3.046875 C 1.171875 -4.75 1.578125 -5.546875 2.421875 -5.546875 C 3.25 -5.546875 3.671875 -4.734375 3.671875 -3.0625 Z M 3.671875 -3.0625 "/>
</symbol>
<symbol overflow="visible" id="glyph0-9">
<path style="stroke:none;" d="M 2.25 -2.265625 C 2.25 -3.65625 1.703125 -5.265625 0.8125 -6.40625 L 0.328125 -6.40625 C 1.109375 -5.15625 1.546875 -3.671875 1.546875 -2.265625 C 1.546875 -0.875 1.109375 0.609375 0.328125 1.859375 L 0.8125 1.859375 C 1.703125 0.71875 2.25 -0.890625 2.25 -2.265625 Z M 2.25 -2.265625 "/>
</symbol>
<symbol overflow="visible" id="glyph0-10">
<path style="stroke:none;" d="M 3.046875 0 L 3.046875 -6.234375 L 2.546875 -6.234375 C 2.265625 -5.28125 2.09375 -5.140625 0.890625 -5 L 0.890625 -4.4375 L 2.28125 -4.4375 L 2.28125 0 Z M 3.046875 0 "/>
</symbol>
<symbol overflow="visible" id="glyph0-11">
<path style="stroke:none;" d="M 2.5 -2.109375 L 2.5 -2.75 L 0.40625 -2.75 L 0.40625 -2.109375 Z M 2.5 -2.109375 "/>
</symbol>
<symbol overflow="visible" id="glyph0-12">
<path style="stroke:none;" d="M 1.6875 0 L 1.6875 -0.921875 L 0.765625 -0.921875 L 0.765625 0 Z M 1.6875 0 "/>
</symbol>
<symbol overflow="visible" id="glyph0-13">
<path style="stroke:none;" d="M 4.515625 -1.9375 C 4.515625 -3.09375 3.71875 -3.875 2.609375 -3.875 C 1.984375 -3.875 1.5 -3.640625 1.171875 -3.1875 C 1.171875 -4.703125 1.671875 -5.546875 2.5625 -5.546875 C 3.109375 -5.546875 3.484375 -5.203125 3.609375 -4.609375 L 4.375 -4.609375 C 4.234375 -5.625 3.5625 -6.234375 2.609375 -6.234375 C 1.15625 -6.234375 0.375 -5.015625 0.375 -2.84375 C 0.375 -0.890625 1.046875 0.125 2.46875 0.125 C 3.65625 0.125 4.515625 -0.71875 4.515625 -1.9375 Z M 3.71875 -1.875 C 3.71875 -1.09375 3.1875 -0.546875 2.484375 -0.546875 C 1.765625 -0.546875 1.21875 -1.125 1.21875 -1.921875 C 1.21875 -2.6875 1.734375 -3.1875 2.5 -3.1875 C 3.25 -3.1875 3.71875 -2.703125 3.71875 -1.875 Z M 3.71875 -1.875 "/>
</symbol>
<symbol overflow="visible" id="glyph0-14">
<path style="stroke:none;" d="M 4.453125 -1.8125 C 4.453125 -2.5625 4.140625 -3.015625 3.390625 -3.265625 C 3.96875 -3.5 4.265625 -3.890625 4.265625 -4.515625 C 4.265625 -5.59375 3.546875 -6.234375 2.359375 -6.234375 C 1.109375 -6.234375 0.4375 -5.546875 0.40625 -4.21875 L 1.1875 -4.21875 C 1.203125 -5.140625 1.578125 -5.5625 2.375 -5.5625 C 3.0625 -5.5625 3.46875 -5.15625 3.46875 -4.5 C 3.46875 -3.828125 3.1875 -3.546875 1.9375 -3.546875 L 1.9375 -2.90625 L 2.359375 -2.90625 C 3.21875 -2.90625 3.65625 -2.5 3.65625 -1.796875 C 3.65625 -1.015625 3.171875 -0.546875 2.359375 -0.546875 C 1.515625 -0.546875 1.109375 -0.96875 1.0625 -1.875 L 0.28125 -1.875 C 0.375 -0.5 1.0625 0.125 2.34375 0.125 C 3.625 0.125 4.453125 -0.640625 4.453125 -1.8125 Z M 4.453125 -1.8125 "/>
</symbol>
<symbol overflow="visible" id="glyph1-0">
<path style="stroke:none;" d=""/>
</symbol>
<symbol overflow="visible" id="glyph1-1">
<path style="stroke:none;" d="M 7.078125 0 L 7.078125 -8.015625 L 6.0625 -8.015625 L 6.0625 -4.546875 L 1.9375 -4.546875 L 1.9375 -8.015625 L 0.90625 -8.015625 L 0.90625 0 L 1.9375 0 L 1.9375 -3.65625 L 6.0625 -3.65625 L 6.0625 0 Z M 7.078125 0 "/>
</symbol>
<symbol overflow="visible" id="glyph1-2">
<path style="stroke:none;" d="M 6.78125 -5.671875 C 6.78125 -7.171875 5.890625 -8.015625 4.3125 -8.015625 L 1 -8.015625 L 1 0 L 2.03125 0 L 2.03125 -3.40625 L 4.546875 -3.40625 C 5.859375 -3.40625 6.78125 -4.328125 6.78125 -5.671875 Z M 5.71875 -5.703125 C 5.71875 -4.828125 5.140625 -4.296875 4.15625 -4.296875 L 2.03125 -4.296875 L 2.03125 -7.109375 L 4.15625 -7.109375 C 5.140625 -7.109375 5.71875 -6.59375 5.71875 -5.703125 Z M 5.71875 -5.703125 "/>
</symbol>
<symbol overflow="visible" id="glyph1-3">
<path style="stroke:none;" d="M 7.34375 -4.015625 C 7.34375 -6.5 6.109375 -8.015625 4.0625 -8.015625 L 0.984375 -8.015625 L 0.984375 0 L 4.0625 0 C 6.09375 0 7.34375 -1.515625 7.34375 -4.015625 Z M 6.3125 -4 C 6.3125 -1.984375 5.484375 -0.90625 3.890625 -0.90625 L 2 -0.90625 L 2 -7.109375 L 3.890625 -7.109375 C 5.484375 -7.109375 6.3125 -6.046875 6.3125 -4 Z M 6.3125 -4 "/>
</symbol>
<symbol overflow="visible" id="glyph2-0">
<path style="stroke:none;" d=""/>
</symbol>
<symbol overflow="visible" id="glyph2-1">
<path style="stroke:none;" d="M -5.671875 -6.78125 C -7.171875 -6.78125 -8.015625 -5.890625 -8.015625 -4.3125 L -8.015625 -1 L 0 -1 L 0 -2.03125 L -3.40625 -2.03125 L -3.40625 -4.546875 C -3.40625 -5.859375 -4.328125 -6.78125 -5.671875 -6.78125 Z M -5.703125 -5.71875 C -4.828125 -5.71875 -4.296875 -5.140625 -4.296875 -4.15625 L -4.296875 -2.03125 L -7.109375 -2.03125 L -7.109375 -4.15625 C -7.109375 -5.140625 -6.59375 -5.71875 -5.703125 -5.71875 Z M -5.703125 -5.71875 "/>
</symbol>
<symbol overflow="visible" id="glyph2-2">
<path style="stroke:none;" d="M -0.015625 -5.890625 L -0.71875 -5.890625 C -0.6875 -5.78125 -0.6875 -5.734375 -0.6875 -5.6875 C -0.6875 -5.375 -0.859375 -5.1875 -1.140625 -5.1875 L -4.359375 -5.1875 C -5.375 -5.1875 -5.921875 -4.4375 -5.921875 -3.03125 C -5.921875 -1.625 -5.390625 -0.765625 -4.0625 -0.71875 L -4.0625 -1.640625 C -4.765625 -1.71875 -5.078125 -2.140625 -5.078125 -2.984375 C -5.078125 -3.8125 -4.78125 -4.28125 -4.21875 -4.28125 L -3.984375 -4.28125 C -3.59375 -4.28125 -3.4375 -4.046875 -3.34375 -3.328125 C -3.171875 -2.03125 -3.140625 -1.828125 -2.984375 -1.46875 C -2.71875 -0.796875 -2.203125 -0.46875 -1.5 -0.46875 C -0.453125 -0.46875 0.171875 -1.1875 0.171875 -2.359375 C 0.171875 -3.09375 -0.140625 -3.8125 -0.6875 -4.3125 C -0.234375 -4.40625 0.078125 -4.8125 0.078125 -5.265625 C 0.078125 -5.4375 0.0625 -5.59375 -0.015625 -5.890625 Z M -1.984375 -4.28125 C -1.171875 -4.28125 -0.640625 -3.4375 -0.640625 -2.546875 C -0.640625 -1.84375 -0.890625 -1.421875 -1.515625 -1.421875 C -2.125 -1.421875 -2.390625 -1.828125 -2.53125 -2.8125 C -2.65625 -3.765625 -2.703125 -3.96875 -2.84375 -4.28125 Z M -1.984375 -4.28125 "/>
</symbol>
<symbol overflow="visible" id="glyph2-3">
<path style="stroke:none;" d="M -4.96875 -3.53125 L -5.890625 -3.53125 C -5.921875 -3.375 -5.921875 -3.296875 -5.921875 -3.171875 C -5.921875 -2.578125 -5.578125 -2.140625 -4.71875 -1.609375 L -5.765625 -1.609375 L -5.765625 -0.765625 L 0 -0.765625 L 0 -1.6875 L -2.984375 -1.6875 C -4.296875 -1.6875 -4.9375 -2.109375 -4.96875 -3.53125 Z M -4.96875 -3.53125 "/>
</symbol>
<symbol overflow="visible" id="glyph2-4">
<path style="stroke:none;" d="M 0 -8.359375 L -4.328125 -8.359375 C -5.359375 -8.359375 -5.921875 -7.78125 -5.921875 -6.703125 C -5.921875 -5.9375 -5.703125 -5.484375 -5.046875 -4.9375 C -5.671875 -4.59375 -5.921875 -4.140625 -5.921875 -3.390625 C -5.921875 -2.625 -5.640625 -2.109375 -4.953125 -1.609375 L -5.765625 -1.609375 L -5.765625 -0.78125 L 0 -0.78125 L 0 -1.6875 L -3.625 -1.6875 C -4.453125 -1.6875 -5.125 -2.296875 -5.125 -3.046875 C -5.125 -3.734375 -4.703125 -4.109375 -3.96875 -4.109375 L 0 -4.109375 L 0 -5.03125 L -3.625 -5.03125 C -4.453125 -5.03125 -5.125 -5.640625 -5.125 -6.390625 C -5.125 -7.0625 -4.703125 -7.453125 -3.96875 -7.453125 L 0 -7.453125 Z M 0 -8.359375 "/>
</symbol>
<symbol overflow="visible" id="glyph2-5">
<path style="stroke:none;" d="M -2.625 -5.640625 C -3.453125 -5.640625 -3.984375 -5.578125 -4.40625 -5.40625 C -5.359375 -5.03125 -5.921875 -4.15625 -5.921875 -3.078125 C -5.921875 -1.46875 -4.734375 -0.4375 -2.84375 -0.4375 C -0.953125 -0.4375 0.171875 -1.4375 0.171875 -3.0625 C 0.171875 -4.375 -0.578125 -5.296875 -1.75 -5.515625 L -1.75 -4.59375 C -0.984375 -4.34375 -0.6875 -3.828125 -0.6875 -3.09375 C -0.6875 -2.140625 -1.296875 -1.421875 -2.625 -1.390625 Z M -3.4375 -4.65625 C -3.4375 -4.65625 -3.390625 -4.65625 -3.359375 -4.65625 L -3.359375 -1.421875 C -4.390625 -1.5 -5.078125 -2.140625 -5.078125 -3.0625 C -5.078125 -3.96875 -4.328125 -4.65625 -3.4375 -4.65625 Z M -3.4375 -4.65625 "/>
</symbol>
<symbol overflow="visible" id="glyph2-6">
<path style="stroke:none;" d="M 0 -2.796875 L -0.765625 -2.796875 C -0.734375 -2.671875 -0.71875 -2.53125 -0.71875 -2.359375 C -0.71875 -1.953125 -0.84375 -1.84375 -1.25 -1.84375 L -5.015625 -1.84375 L -5.015625 -2.796875 L -5.765625 -2.796875 L -5.765625 -1.84375 L -7.34375 -1.84375 L -7.34375 -0.9375 L -5.765625 -0.9375 L -5.765625 -0.15625 L -5.015625 -0.15625 L -5.015625 -0.9375 L -0.84375 -0.9375 C -0.25 -0.9375 0.078125 -1.328125 0.078125 -2.046875 C 0.078125 -2.265625 0.0625 -2.484375 0 -2.796875 Z M 0 -2.796875 "/>
</symbol>
</g>
<clipPath id="clip1">
  <path d="M 62.070312 5.480469 L 355 5.480469 L 355 41 L 62.070312 41 Z M 62.070312 5.480469 "/>
</clipPath>
<clipPath id="clip2">
  <path d="M 108 5.480469 L 109 5.480469 L 109 41 L 108 41 Z M 108 5.480469 "/>
</clipPath>
<clipPath id="clip3">
  <path d="M 174 5.480469 L 176 5.480469 L 176 41 L 174 41 Z M 174 5.480469 "/>
</clipPath>
<clipPath id="clip4">
  <path d="M 241 5.480469 L 242 5.480469 L 242 41 L 241 41 Z M 241 5.480469 "/>
</clipPath>
<clipPath id="clip5">
  <path d="M 307 5.480469 L 309 5.480469 L 309 41 L 307 41 Z M 307 5.480469 "/>
</clipPath>
<clipPath id="clip6">
  <path d="M 62.070312 30 L 355.519531 30 L 355.519531 32 L 62.070312 32 Z M 62.070312 30 "/>
</clipPath>
<clipPath id="clip7">
  <path d="M 62.070312 14 L 355.519531 14 L 355.519531 16 L 62.070312 16 Z M 62.070312 14 "/>
</clipPath>
<clipPath id="clip8">
  <path d="M 74 5.480469 L 76 5.480469 L 76 41 L 74 41 Z M 74 5.480469 "/>
</clipPath>
<clipPath id="clip9">
  <path d="M 141 5.480469 L 143 5.480469 L 143 41 L 141 41 Z M 141 5.480469 "/>
</clipPath>
<clipPath id="clip10">
  <path d="M 207 5.480469 L 209 5.480469 L 209 41 L 207 41 Z M 207 5.480469 "/>
</clipPath>
<clipPath id="clip11">
  <path d="M 274 5.480469 L 276 5.480469 L 276 41 L 274 41 Z M 274 5.480469 "/>
</clipPath>
<clipPath id="clip12">
  <path d="M 340 5.480469 L 342 5.480469 L 342 41 L 340 41 Z M 340 5.480469 "/>
</clipPath>
<clipPath id="clip13">
  <path d="M 207 5.480469 L 209 5.480469 L 209 41 L 207 41 Z M 207 5.480469 "/>
</clipPath>
<clipPath id="clip14">
  <path d="M 62.070312 5.480469 L 355.519531 5.480469 L 355.519531 41 L 62.070312 41 Z M 62.070312 5.480469 "/>
</clipPath>
</defs>
<g id="surface801">
<rect x="0" y="0" width="360" height="72" style="fill:rgb(100%,100%,100%);fill-opacity:1;stroke:none;"/>
<rect x="0" y="0" width="360" height="72" style="fill:rgb(100%,100%,100%);fill-opacity:1;stroke:none;"/>
<path style="fill:none;stroke-width:1.066978;stroke-linecap:round;stroke-linejoin:round;stroke:rgb(100%,100%,100%);stroke-opacity:1;stroke-miterlimit:10;" d="M 0 72 L 360 72 L 360 0 L 0 0 Z M 0 72 "/>
<g clip-path="url(#clip1)" clip-rule="nonzero">
<path style=" stroke:none;fill-rule:nonzero;fill:rgb(100%,100%,100%);fill-opacity:1;" d="M 62.070312 40.109375 L 354.519531 40.109375 L 354.519531 5.480469 L 62.070312 5.480469 Z M 62.070312 40.109375 "/>
</g>
<g clip-path="url(#clip2)" clip-rule="nonzero">
<path style="fill:none;stroke-width:0.533489;stroke-linecap:butt;stroke-linejoin:round;stroke:rgb(92.156863%,92.156863%,92.156863%);stroke-opacity:1;stroke-miterlimit:10;" d="M 108.597656 40.109375 L 108.597656 5.480469 "/>
</g>
<g clip-path="url(#clip3)" clip-rule="nonzero">
<path style="fill:none;stroke-width:0.533489;stroke-linecap:butt;stroke-linejoin:round;stroke:rgb(92.156863%,92.156863%,92.156863%);stroke-opacity:1;stroke-miterlimit:10;" d="M 175.0625 40.109375 L 175.0625 5.480469 "/>
</g>
<g clip-path="url(#clip4)" clip-rule="nonzero">
<path style="fill:none;stroke-width:0.533489;stroke-linecap:butt;stroke-linejoin:round;stroke:rgb(92.156863%,92.156863%,92.156863%);stroke-opacity:1;stroke-miterlimit:10;" d="M 241.527344 40.109375 L 241.527344 5.480469 "/>
</g>
<g clip-path="url(#clip5)" clip-rule="nonzero">
<path style="fill:none;stroke-width:0.533489;stroke-linecap:butt;stroke-linejoin:round;stroke:rgb(92.156863%,92.156863%,92.156863%);stroke-opacity:1;stroke-miterlimit:10;" d="M 307.996094 40.109375 L 307.996094 5.480469 "/>
</g>
<g clip-path="url(#clip6)" clip-rule="nonzero">
<path style="fill:none;stroke-width:1.066978;stroke-linecap:butt;stroke-linejoin:round;stroke:rgb(92.156863%,92.156863%,92.156863%);stroke-opacity:1;stroke-miterlimit:10;" d="M 62.070312 30.664062 L 354.519531 30.664062 "/>
</g>
<g clip-path="url(#clip7)" clip-rule="nonzero">
<path style="fill:none;stroke-width:1.066978;stroke-linecap:butt;stroke-linejoin:round;stroke:rgb(92.156863%,92.156863%,92.156863%);stroke-opacity:1;stroke-miterlimit:10;" d="M 62.070312 14.925781 L 354.519531 14.925781 "/>
</g>
<g clip-path="url(#clip8)" clip-rule="nonzero">
<path style="fill:none;stroke-width:1.066978;stroke-linecap:butt;stroke-linejoin:round;stroke:rgb(92.156863%,92.156863%,92.156863%);stroke-opacity:1;stroke-miterlimit:10;" d="M 75.363281 40.109375 L 75.363281 5.480469 "/>
</g>
<g clip-path="url(#clip9)" clip-rule="nonzero">
<path style="fill:none;stroke-width:1.066978;stroke-linecap:butt;stroke-linejoin:round;stroke:rgb(92.156863%,92.156863%,92.156863%);stroke-opacity:1;stroke-miterlimit:10;" d="M 141.828125 40.109375 L 141.828125 5.480469 "/>
</g>
<g clip-path="url(#clip10)" clip-rule="nonzero">
<path style="fill:none;stroke-width:1.066978;stroke-linecap:butt;stroke-linejoin:round;stroke:rgb(92.156863%,92.156863%,92.156863%);stroke-opacity:1;stroke-miterlimit:10;" d="M 208.296875 40.109375 L 208.296875 5.480469 "/>
</g>
<g clip-path="url(#clip11)" clip-rule="nonzero">
<path style="fill:none;stroke-width:1.066978;stroke-linecap:butt;stroke-linejoin:round;stroke:rgb(92.156863%,92.156863%,92.156863%);stroke-opacity:1;stroke-miterlimit:10;" d="M 274.761719 40.109375 L 274.761719 5.480469 "/>
</g>
<g clip-path="url(#clip12)" clip-rule="nonzero">
<path style="fill:none;stroke-width:1.066978;stroke-linecap:butt;stroke-linejoin:round;stroke:rgb(92.156863%,92.156863%,92.156863%);stroke-opacity:1;stroke-miterlimit:10;" d="M 341.226562 40.109375 L 341.226562 5.480469 "/>
</g>
<path style="fill-rule:nonzero;fill:rgb(65.098039%,65.098039%,65.098039%);fill-opacity:1;stroke-width:0.708661;stroke-linecap:round;stroke-linejoin:round;stroke:rgb(65.098039%,65.098039%,65.098039%);stroke-opacity:1;stroke-miterlimit:10;" d="M 183.761719 30.664062 C 183.761719 35.40625 176.648438 35.40625 176.648438 30.664062 C 176.648438 25.925781 183.761719 25.925781 183.761719 30.664062 "/>
<path style="fill-rule:nonzero;fill:rgb(65.098039%,65.098039%,65.098039%);fill-opacity:1;stroke-width:0.708661;stroke-linecap:round;stroke-linejoin:round;stroke:rgb(65.098039%,65.098039%,65.098039%);stroke-opacity:1;stroke-miterlimit:10;" d="M 239.941406 14.925781 C 239.941406 19.664062 232.832031 19.664062 232.832031 14.925781 C 232.832031 10.183594 239.941406 10.183594 239.941406 14.925781 "/>
<path style="fill:none;stroke-width:3.200935;stroke-linecap:butt;stroke-linejoin:round;stroke:rgb(65.098039%,65.098039%,65.098039%);stroke-opacity:1;stroke-miterlimit:10;" d="M 176.09375 30.664062 L 184.195312 30.664062 "/>
<path style="fill:none;stroke-width:3.200935;stroke-linecap:butt;stroke-linejoin:round;stroke:rgb(65.098039%,65.098039%,65.098039%);stroke-opacity:1;stroke-miterlimit:10;" d="M 232.398438 14.925781 L 240.5 14.925781 "/>
<path style="fill:none;stroke-width:1.066978;stroke-linecap:butt;stroke-linejoin:round;stroke:rgb(65.098039%,65.098039%,65.098039%);stroke-opacity:1;stroke-miterlimit:10;" d="M 175.300781 30.664062 L 184.949219 30.664062 "/>
<path style="fill:none;stroke-width:1.066978;stroke-linecap:butt;stroke-linejoin:round;stroke:rgb(65.098039%,65.098039%,65.098039%);stroke-opacity:1;stroke-miterlimit:10;" d="M 231.640625 14.925781 L 241.292969 14.925781 "/>
<g clip-path="url(#clip13)" clip-rule="nonzero">
<path style="fill:none;stroke-width:1.066978;stroke-linecap:butt;stroke-linejoin:round;stroke:rgb(0%,0%,0%);stroke-opacity:1;stroke-dasharray:1.066978,3.200935;stroke-miterlimit:10;" d="M 208.296875 40.109375 L 208.296875 5.480469 "/>
</g>
<g clip-path="url(#clip14)" clip-rule="nonzero">
<path style="fill:none;stroke-width:1.066978;stroke-linecap:round;stroke-linejoin:round;stroke:rgb(20%,20%,20%);stroke-opacity:1;stroke-miterlimit:10;" d="M 62.070312 40.109375 L 354.519531 40.109375 L 354.519531 5.480469 L 62.070312 5.480469 Z M 62.070312 40.109375 "/>
</g>
<g style="fill:rgb(30.196078%,30.196078%,30.196078%);fill-opacity:1;">
  <use xlink:href="#glyph0-1" x="20.140625" y="33.266602"/>
  <use xlink:href="#glyph0-2" x="26.009766" y="33.266602"/>
  <use xlink:href="#glyph0-3" x="28.94043" y="33.266602"/>
  <use xlink:href="#glyph0-4" x="34.80957" y="33.266602"/>
  <use xlink:href="#glyph0-5" x="39.702148" y="33.266602"/>
  <use xlink:href="#glyph0-6" x="41.990234" y="33.266602"/>
  <use xlink:href="#glyph0-7" x="46.390625" y="33.266602"/>
  <use xlink:href="#glyph0-8" x="48.836914" y="33.266602"/>
  <use xlink:href="#glyph0-9" x="53.729492" y="33.266602"/>
</g>
<g style="fill:rgb(30.196078%,30.196078%,30.196078%);fill-opacity:1;">
  <use xlink:href="#glyph0-1" x="20.140625" y="17.52832"/>
  <use xlink:href="#glyph0-2" x="26.009766" y="17.52832"/>
  <use xlink:href="#glyph0-3" x="28.94043" y="17.52832"/>
  <use xlink:href="#glyph0-4" x="34.80957" y="17.52832"/>
  <use xlink:href="#glyph0-5" x="39.702148" y="17.52832"/>
  <use xlink:href="#glyph0-6" x="41.990234" y="17.52832"/>
  <use xlink:href="#glyph0-7" x="46.390625" y="17.52832"/>
  <use xlink:href="#glyph0-10" x="48.836914" y="17.52832"/>
  <use xlink:href="#glyph0-9" x="53.729492" y="17.52832"/>
</g>
<path style="fill:none;stroke-width:1.066978;stroke-linecap:butt;stroke-linejoin:round;stroke:rgb(20%,20%,20%);stroke-opacity:1;stroke-miterlimit:10;" d="M 59.332031 30.664062 L 62.070312 30.664062 "/>
<path style="fill:none;stroke-width:1.066978;stroke-linecap:butt;stroke-linejoin:round;stroke:rgb(20%,20%,20%);stroke-opacity:1;stroke-miterlimit:10;" d="M 59.332031 14.925781 L 62.070312 14.925781 "/>
<path style="fill:none;stroke-width:1.066978;stroke-linecap:butt;stroke-linejoin:round;stroke:rgb(20%,20%,20%);stroke-opacity:1;stroke-miterlimit:10;" d="M 75.363281 42.847656 L 75.363281 40.109375 "/>
<path style="fill:none;stroke-width:1.066978;stroke-linecap:butt;stroke-linejoin:round;stroke:rgb(20%,20%,20%);stroke-opacity:1;stroke-miterlimit:10;" d="M 141.828125 42.847656 L 141.828125 40.109375 "/>
<path style="fill:none;stroke-width:1.066978;stroke-linecap:butt;stroke-linejoin:round;stroke:rgb(20%,20%,20%);stroke-opacity:1;stroke-miterlimit:10;" d="M 208.296875 42.847656 L 208.296875 40.109375 "/>
<path style="fill:none;stroke-width:1.066978;stroke-linecap:butt;stroke-linejoin:round;stroke:rgb(20%,20%,20%);stroke-opacity:1;stroke-miterlimit:10;" d="M 274.761719 42.847656 L 274.761719 40.109375 "/>
<path style="fill:none;stroke-width:1.066978;stroke-linecap:butt;stroke-linejoin:round;stroke:rgb(20%,20%,20%);stroke-opacity:1;stroke-miterlimit:10;" d="M 341.226562 42.847656 L 341.226562 40.109375 "/>
<g style="fill:rgb(30.196078%,30.196078%,30.196078%);fill-opacity:1;">
  <use xlink:href="#glyph0-11" x="67.363281" y="51.145508"/>
  <use xlink:href="#glyph0-8" x="70.293945" y="51.145508"/>
  <use xlink:href="#glyph0-12" x="75.186523" y="51.145508"/>
  <use xlink:href="#glyph0-13" x="77.632812" y="51.145508"/>
</g>
<g style="fill:rgb(30.196078%,30.196078%,30.196078%);fill-opacity:1;">
  <use xlink:href="#glyph0-11" x="133.828125" y="51.145508"/>
  <use xlink:href="#glyph0-8" x="136.758789" y="51.145508"/>
  <use xlink:href="#glyph0-12" x="141.651367" y="51.145508"/>
  <use xlink:href="#glyph0-14" x="144.097656" y="51.145508"/>
</g>
<g style="fill:rgb(30.196078%,30.196078%,30.196078%);fill-opacity:1;">
  <use xlink:href="#glyph0-8" x="201.796875" y="51.145508"/>
  <use xlink:href="#glyph0-12" x="206.689453" y="51.145508"/>
  <use xlink:href="#glyph0-8" x="209.135742" y="51.145508"/>
</g>
<g style="fill:rgb(30.196078%,30.196078%,30.196078%);fill-opacity:1;">
  <use xlink:href="#glyph0-8" x="268.261719" y="51.145508"/>
  <use xlink:href="#glyph0-12" x="273.154297" y="51.145508"/>
  <use xlink:href="#glyph0-14" x="275.600586" y="51.145508"/>
</g>
<g style="fill:rgb(30.196078%,30.196078%,30.196078%);fill-opacity:1;">
  <use xlink:href="#glyph0-8" x="334.726562" y="51.145508"/>
  <use xlink:href="#glyph0-12" x="339.619141" y="51.145508"/>
  <use xlink:href="#glyph0-13" x="342.06543" y="51.145508"/>
</g>
<g style="fill:rgb(0%,0%,0%);fill-opacity:1;">
  <use xlink:href="#glyph1-1" x="196.296875" y="66.147461"/>
  <use xlink:href="#glyph1-2" x="204.239258" y="66.147461"/>
  <use xlink:href="#glyph1-3" x="211.576172" y="66.147461"/>
</g>
<g style="fill:rgb(0%,0%,0%);fill-opacity:1;">
  <use xlink:href="#glyph2-1" x="14.108398" y="48.292969"/>
  <use xlink:href="#glyph2-2" x="14.108398" y="41.286133"/>
  <use xlink:href="#glyph2-3" x="14.108398" y="35.169922"/>
  <use xlink:href="#glyph2-2" x="14.108398" y="31.561523"/>
  <use xlink:href="#glyph2-4" x="14.108398" y="25.445312"/>
  <use xlink:href="#glyph2-5" x="14.108398" y="16.282227"/>
  <use xlink:href="#glyph2-6" x="14.108398" y="10.276367"/>
  <use xlink:href="#glyph2-5" x="14.108398" y="7.383789"/>
  <use xlink:href="#glyph2-3" x="14.108398" y="1.267578"/>
</g>
</g>
</svg>
