<?xml version='1.0' encoding='UTF-8' ?>
<svg xmlns='http://www.w3.org/2000/svg' xmlns:xlink='http://www.w3.org/1999/xlink' viewBox='0 0 504.00 504.00'>
<defs>
  <style type='text/css'><![CDATA[
    line, polyline, path, rect, circle {
      fill: none;
      stroke: #000000;
      stroke-linecap: round;
      stroke-linejoin: round;
      stroke-miterlimit: 10.00;
    }
  ]]></style>
</defs>
<rect width='100%' height='100%' style='stroke: none; fill: #FFFFFF;'/>
<rect x='0.00' y='0.00' width='504.00' height='504.00' style='stroke-width: 1.07; stroke: #FFFFFF; fill: #FFFFFF;' />
<defs>
  <clipPath id='cpMTEwLjUzMnw0OTguNTIxfDQ3My41MzF8MjQuMzY3Mw=='>
    <rect x='110.53' y='24.37' width='387.99' height='449.16' />
  </clipPath>
</defs>
<rect x='110.53' y='24.37' width='387.99' height='449.16' style='stroke-width: 1.07; stroke: none; fill: #FFFFFF;' clip-path='url(#cpMTEwLjUzMnw0OTguNTIxfDQ3My41MzF8MjQuMzY3Mw==)' />
<polyline points='180.00,473.53 180.00,24.37 ' style='stroke-width: 0.53; stroke: #EBEBEB; stroke-linecap: butt;' clip-path='url(#cpMTEwLjUzMnw0OTguNTIxfDQ3My41MzF8MjQuMzY3Mw==)' />
<polyline points='273.39,473.53 273.39,24.37 ' style='stroke-width: 0.53; stroke: #EBEBEB; stroke-linecap: butt;' clip-path='url(#cpMTEwLjUzMnw0OTguNTIxfDQ3My41MzF8MjQuMzY3Mw==)' />
<polyline points='366.77,473.53 366.77,24.37 ' style='stroke-width: 0.53; stroke: #EBEBEB; stroke-linecap: butt;' clip-path='url(#cpMTEwLjUzMnw0OTguNTIxfDQ3My41MzF8MjQuMzY3Mw==)' />
<polyline points='460.16,473.53 460.16,24.37 ' style='stroke-width: 0.53; stroke: #EBEBEB; stroke-linecap: butt;' clip-path='url(#cpMTEwLjUzMnw0OTguNTIxfDQ3My41MzF8MjQuMzY3Mw==)' />
<polyline points='110.53,421.70 498.52,421.70 ' style='stroke-width: 1.07; stroke: #EBEBEB; stroke-linecap: butt;' clip-path='url(#cpMTEwLjUzMnw0OTguNTIxfDQ3My41MzF8MjQuMzY3Mw==)' />
<polyline points='110.53,335.33 498.52,335.33 ' style='stroke-width: 1.07; stroke: #EBEBEB; stroke-linecap: butt;' clip-path='url(#cpMTEwLjUzMnw0OTguNTIxfDQ3My41MzF8MjQuMzY3Mw==)' />
<polyline points='110.53,248.95 498.52,248.95 ' style='stroke-width: 1.07; stroke: #EBEBEB; stroke-linecap: butt;' clip-path='url(#cpMTEwLjUzMnw0OTguNTIxfDQ3My41MzF8MjQuMzY3Mw==)' />
<polyline points='110.53,162.57 498.52,162.57 ' style='stroke-width: 1.07; stroke: #EBEBEB; stroke-linecap: butt;' clip-path='url(#cpMTEwLjUzMnw0OTguNTIxfDQ3My41MzF8MjQuMzY3Mw==)' />
<polyline points='110.53,76.19 498.52,76.19 ' style='stroke-width: 1.07; stroke: #EBEBEB; stroke-linecap: butt;' clip-path='url(#cpMTEwLjUzMnw0OTguNTIxfDQ3My41MzF8MjQuMzY3Mw==)' />
<polyline points='133.31,473.53 133.31,24.37 ' style='stroke-width: 1.07; stroke: #EBEBEB; stroke-linecap: butt;' clip-path='url(#cpMTEwLjUzMnw0OTguNTIxfDQ3My41MzF8MjQuMzY3Mw==)' />
<polyline points='226.69,473.53 226.69,24.37 ' style='stroke-width: 1.07; stroke: #EBEBEB; stroke-linecap: butt;' clip-path='url(#cpMTEwLjUzMnw0OTguNTIxfDQ3My41MzF8MjQuMzY3Mw==)' />
<polyline points='320.08,473.53 320.08,24.37 ' style='stroke-width: 1.07; stroke: #EBEBEB; stroke-linecap: butt;' clip-path='url(#cpMTEwLjUzMnw0OTguNTIxfDQ3My41MzF8MjQuMzY3Mw==)' />
<polyline points='413.47,473.53 413.47,24.37 ' style='stroke-width: 1.07; stroke: #EBEBEB; stroke-linecap: butt;' clip-path='url(#cpMTEwLjUzMnw0OTguNTIxfDQ3My41MzF8MjQuMzY3Mw==)' />
<circle cx='318.32' cy='335.33' r='3.56pt' style='stroke-width: 0.71; stroke: #A6A6A6; fill: #A6A6A6;' clip-path='url(#cpMTEwLjUzMnw0OTguNTIxfDQ3My41MzF8MjQuMzY3Mw==)' />
<circle cx='281.67' cy='421.70' r='3.56pt' style='stroke-width: 0.71; stroke: #404040; fill: #404040;' clip-path='url(#cpMTEwLjUzMnw0OTguNTIxfDQ3My41MzF8MjQuMzY3Mw==)' />
<circle cx='339.12' cy='76.19' r='3.56pt' style='stroke-width: 0.71; stroke: #A6A6A6; fill: #A6A6A6;' clip-path='url(#cpMTEwLjUzMnw0OTguNTIxfDQ3My41MzF8MjQuMzY3Mw==)' />
<circle cx='331.36' cy='162.57' r='3.56pt' style='stroke-width: 0.71; stroke: #A6A6A6; fill: #A6A6A6;' clip-path='url(#cpMTEwLjUzMnw0OTguNTIxfDQ3My41MzF8MjQuMzY3Mw==)' />
<circle cx='324.62' cy='248.95' r='3.56pt' style='stroke-width: 0.71; stroke: #A6A6A6; fill: #A6A6A6;' clip-path='url(#cpMTEwLjUzMnw0OTguNTIxfDQ3My41MzF8MjQuMzY3Mw==)' />
<line x1='210.52' y1='335.33' x2='422.78' y2='335.33' style='stroke-width: 3.20; stroke: #A6A6A6; stroke-linecap: butt;' clip-path='url(#cpMTEwLjUzMnw0OTguNTIxfDQ3My41MzF8MjQuMzY3Mw==)' />
<line x1='157.76' y1='421.70' x2='349.29' y2='421.70' style='stroke-width: 3.20; stroke: #404040; stroke-linecap: butt;' clip-path='url(#cpMTEwLjUzMnw0OTguNTIxfDQ3My41MzF8MjQuMzY3Mw==)' />
<line x1='286.64' y1='76.19' x2='407.91' y2='76.19' style='stroke-width: 3.20; stroke: #A6A6A6; stroke-linecap: butt;' clip-path='url(#cpMTEwLjUzMnw0OTguNTIxfDQ3My41MzF8MjQuMzY3Mw==)' />
<line x1='253.02' y1='162.57' x2='450.30' y2='162.57' style='stroke-width: 3.20; stroke: #A6A6A6; stroke-linecap: butt;' clip-path='url(#cpMTEwLjUzMnw0OTguNTIxfDQ3My41MzF8MjQuMzY3Mw==)' />
<line x1='261.99' y1='248.95' x2='404.80' y2='248.95' style='stroke-width: 3.20; stroke: #A6A6A6; stroke-linecap: butt;' clip-path='url(#cpMTEwLjUzMnw0OTguNTIxfDQ3My41MzF8MjQuMzY3Mw==)' />
<line x1='179.95' y1='335.33' x2='456.31' y2='335.33' style='stroke-width: 1.07; stroke: #A6A6A6; stroke-linecap: butt;' clip-path='url(#cpMTEwLjUzMnw0OTguNTIxfDQ3My41MzF8MjQuMzY3Mw==)' />
<line x1='128.17' y1='421.70' x2='367.47' y2='421.70' style='stroke-width: 1.07; stroke: #404040; stroke-linecap: butt;' clip-path='url(#cpMTEwLjUzMnw0OTguNTIxfDQ3My41MzF8MjQuMzY3Mw==)' />
<line x1='272.28' y1='76.19' x2='422.86' y2='76.19' style='stroke-width: 1.07; stroke: #A6A6A6; stroke-linecap: butt;' clip-path='url(#cpMTEwLjUzMnw0OTguNTIxfDQ3My41MzF8MjQuMzY3Mw==)' />
<line x1='230.72' y1='162.57' x2='480.88' y2='162.57' style='stroke-width: 1.07; stroke: #A6A6A6; stroke-linecap: butt;' clip-path='url(#cpMTEwLjUzMnw0OTguNTIxfDQ3My41MzF8MjQuMzY3Mw==)' />
<line x1='243.86' y1='248.95' x2='423.61' y2='248.95' style='stroke-width: 1.07; stroke: #A6A6A6; stroke-linecap: butt;' clip-path='url(#cpMTEwLjUzMnw0OTguNTIxfDQ3My41MzF8MjQuMzY3Mw==)' />
<line x1='320.08' y1='473.53' x2='320.08' y2='24.37' style='stroke-width: 1.07; stroke-dasharray: 1.42,4.27; stroke-linecap: butt;' clip-path='url(#cpMTEwLjUzMnw0OTguNTIxfDQ3My41MzF8MjQuMzY3Mw==)' />
<rect x='110.53' y='24.37' width='387.99' height='449.16' style='stroke-width: 1.07; stroke: #333333;' clip-path='url(#cpMTEwLjUzMnw0OTguNTIxfDQ3My41MzF8MjQuMzY3Mw==)' />
<defs>
  <clipPath id='cpMHw1MDR8NTA0fDA='>
    <rect x='0.00' y='0.00' width='504.00' height='504.00' />
  </clipPath>
</defs>
<g clip-path='url(#cpMHw1MDR8NTA0fDA=)'><text x='28.63' y='424.99' style='font-size: 8.80px; fill: #4D4D4D; font-family: DejaVu Sans;' textLength='76.97px' lengthAdjust='spacingAndGlyphs'>P(S2/S3|fi,mutta)</text></g>
<g clip-path='url(#cpMHw1MDR8NTA0fDA=)'><text x='40.45' y='338.61' style='font-size: 8.80px; fill: #4D4D4D; font-family: DejaVu Sans;' textLength='65.15px' lengthAdjust='spacingAndGlyphs'>P(S2/S3|fi,kys)</text></g>
<g clip-path='url(#cpMHw1MDR8NTA0fDA=)'><text x='19.15' y='252.23' style='font-size: 8.80px; fill: #4D4D4D; font-family: DejaVu Sans;' textLength='86.45px' lengthAdjust='spacingAndGlyphs'>P(S2/S3|fi,suboord)</text></g>
<g clip-path='url(#cpMHw1MDR8NTA0fDA=)'><text x='43.94' y='165.85' style='font-size: 8.80px; fill: #4D4D4D; font-family: DejaVu Sans;' textLength='61.66px' lengthAdjust='spacingAndGlyphs'>P(S2/S3|fi,rel)</text></g>
<g clip-path='url(#cpMHw1MDR8NTA0fDA=)'><text x='35.50' y='79.48' style='font-size: 8.80px; fill: #4D4D4D; font-family: DejaVu Sans;' textLength='70.10px' lengthAdjust='spacingAndGlyphs'>P(S2/S3|fi,muu)</text></g>
<polyline points='107.79,421.70 110.53,421.70 ' style='stroke-width: 1.07; stroke: #333333; stroke-linecap: butt;' clip-path='url(#cpMHw1MDR8NTA0fDA=)' />
<polyline points='107.79,335.33 110.53,335.33 ' style='stroke-width: 1.07; stroke: #333333; stroke-linecap: butt;' clip-path='url(#cpMHw1MDR8NTA0fDA=)' />
<polyline points='107.79,248.95 110.53,248.95 ' style='stroke-width: 1.07; stroke: #333333; stroke-linecap: butt;' clip-path='url(#cpMHw1MDR8NTA0fDA=)' />
<polyline points='107.79,162.57 110.53,162.57 ' style='stroke-width: 1.07; stroke: #333333; stroke-linecap: butt;' clip-path='url(#cpMHw1MDR8NTA0fDA=)' />
<polyline points='107.79,76.19 110.53,76.19 ' style='stroke-width: 1.07; stroke: #333333; stroke-linecap: butt;' clip-path='url(#cpMHw1MDR8NTA0fDA=)' />
<polyline points='133.31,476.27 133.31,473.53 ' style='stroke-width: 1.07; stroke: #333333; stroke-linecap: butt;' clip-path='url(#cpMHw1MDR8NTA0fDA=)' />
<polyline points='226.69,476.27 226.69,473.53 ' style='stroke-width: 1.07; stroke: #333333; stroke-linecap: butt;' clip-path='url(#cpMHw1MDR8NTA0fDA=)' />
<polyline points='320.08,476.27 320.08,473.53 ' style='stroke-width: 1.07; stroke: #333333; stroke-linecap: butt;' clip-path='url(#cpMHw1MDR8NTA0fDA=)' />
<polyline points='413.47,476.27 413.47,473.53 ' style='stroke-width: 1.07; stroke: #333333; stroke-linecap: butt;' clip-path='url(#cpMHw1MDR8NTA0fDA=)' />
<g clip-path='url(#cpMHw1MDR8NTA0fDA=)'><text x='124.53' y='485.03' style='font-size: 8.80px; fill: #4D4D4D; font-family: DejaVu Sans;' textLength='17.56px' lengthAdjust='spacingAndGlyphs'>-0.4</text></g>
<g clip-path='url(#cpMHw1MDR8NTA0fDA=)'><text x='217.91' y='485.03' style='font-size: 8.80px; fill: #4D4D4D; font-family: DejaVu Sans;' textLength='17.56px' lengthAdjust='spacingAndGlyphs'>-0.2</text></g>
<g clip-path='url(#cpMHw1MDR8NTA0fDA=)'><text x='312.92' y='485.03' style='font-size: 8.80px; fill: #4D4D4D; font-family: DejaVu Sans;' textLength='14.31px' lengthAdjust='spacingAndGlyphs'>0.0</text></g>
<g clip-path='url(#cpMHw1MDR8NTA0fDA=)'><text x='406.31' y='485.03' style='font-size: 8.80px; fill: #4D4D4D; font-family: DejaVu Sans;' textLength='14.31px' lengthAdjust='spacingAndGlyphs'>0.2</text></g>
<g clip-path='url(#cpMHw1MDR8NTA0fDA=)'><text x='292.84' y='498.52' style='font-size: 11.00px; font-family: DejaVu Sans;' textLength='23.38px' lengthAdjust='spacingAndGlyphs'>HPD</text></g>
<g clip-path='url(#cpMHw1MDR8NTA0fDA=)'><text transform='translate(13.50,277.81) rotate(-90)' style='font-size: 11.00px; font-family: DejaVu Sans;' textLength='57.72px' lengthAdjust='spacingAndGlyphs'>Parameter</text></g>
<g clip-path='url(#cpMHw1MDR8NTA0fDA=)'><text x='110.53' y='14.96' style='font-size: 13.20px; font-family: DejaVu Sans;' textLength='231.38px' lengthAdjust='spacingAndGlyphs'>clausestatus_interaction_S2_S3.svg</text></g>
</svg>
