<?xml version='1.0' encoding='UTF-8' ?>
<svg xmlns='http://www.w3.org/2000/svg' xmlns:xlink='http://www.w3.org/1999/xlink' viewBox='0 0 504.00 504.00'>
<defs>
  <style type='text/css'><![CDATA[
    line, polyline, path, rect, circle {
      fill: none;
      stroke: #000000;
      stroke-linecap: round;
      stroke-linejoin: round;
      stroke-miterlimit: 10.00;
    }
  ]]></style>
</defs>
<rect width='100%' height='100%' style='stroke: none; fill: #FFFFFF;'/>
<rect x='0.00' y='0.00' width='504.00' height='504.00' style='stroke-width: 1.07; stroke: #FFFFFF; fill: #FFFFFF;' />
<defs>
  <clipPath id='cpMTE1LjcyNnw0OTguNTIxfDQ3My41MzF8MjQuMzY3Mw=='>
    <rect x='115.73' y='24.37' width='382.79' height='449.16' />
  </clipPath>
</defs>
<rect x='115.73' y='24.37' width='382.79' height='449.16' style='stroke-width: 1.07; stroke: none; fill: #FFFFFF;' clip-path='url(#cpMTE1LjcyNnw0OTguNTIxfDQ3My41MzF8MjQuMzY3Mw==)' />
<polyline points='190.69,473.53 190.69,24.37 ' style='stroke-width: 0.53; stroke: #EBEBEB; stroke-linecap: butt;' clip-path='url(#cpMTE1LjcyNnw0OTguNTIxfDQ3My41MzF8MjQuMzY3Mw==)' />
<polyline points='268.31,473.53 268.31,24.37 ' style='stroke-width: 0.53; stroke: #EBEBEB; stroke-linecap: butt;' clip-path='url(#cpMTE1LjcyNnw0OTguNTIxfDQ3My41MzF8MjQuMzY3Mw==)' />
<polyline points='345.93,473.53 345.93,24.37 ' style='stroke-width: 0.53; stroke: #EBEBEB; stroke-linecap: butt;' clip-path='url(#cpMTE1LjcyNnw0OTguNTIxfDQ3My41MzF8MjQuMzY3Mw==)' />
<polyline points='423.56,473.53 423.56,24.37 ' style='stroke-width: 0.53; stroke: #EBEBEB; stroke-linecap: butt;' clip-path='url(#cpMTE1LjcyNnw0OTguNTIxfDQ3My41MzF8MjQuMzY3Mw==)' />
<polyline points='115.73,351.03 498.52,351.03 ' style='stroke-width: 1.07; stroke: #EBEBEB; stroke-linecap: butt;' clip-path='url(#cpMTE1LjcyNnw0OTguNTIxfDQ3My41MzF8MjQuMzY3Mw==)' />
<polyline points='115.73,146.87 498.52,146.87 ' style='stroke-width: 1.07; stroke: #EBEBEB; stroke-linecap: butt;' clip-path='url(#cpMTE1LjcyNnw0OTguNTIxfDQ3My41MzF8MjQuMzY3Mw==)' />
<polyline points='151.88,473.53 151.88,24.37 ' style='stroke-width: 1.07; stroke: #EBEBEB; stroke-linecap: butt;' clip-path='url(#cpMTE1LjcyNnw0OTguNTIxfDQ3My41MzF8MjQuMzY3Mw==)' />
<polyline points='229.50,473.53 229.50,24.37 ' style='stroke-width: 1.07; stroke: #EBEBEB; stroke-linecap: butt;' clip-path='url(#cpMTE1LjcyNnw0OTguNTIxfDQ3My41MzF8MjQuMzY3Mw==)' />
<polyline points='307.12,473.53 307.12,24.37 ' style='stroke-width: 1.07; stroke: #EBEBEB; stroke-linecap: butt;' clip-path='url(#cpMTE1LjcyNnw0OTguNTIxfDQ3My41MzF8MjQuMzY3Mw==)' />
<polyline points='384.74,473.53 384.74,24.37 ' style='stroke-width: 1.07; stroke: #EBEBEB; stroke-linecap: butt;' clip-path='url(#cpMTE1LjcyNnw0OTguNTIxfDQ3My41MzF8MjQuMzY3Mw==)' />
<polyline points='462.37,473.53 462.37,24.37 ' style='stroke-width: 1.07; stroke: #EBEBEB; stroke-linecap: butt;' clip-path='url(#cpMTE1LjcyNnw0OTguNTIxfDQ3My41MzF8MjQuMzY3Mw==)' />
<circle cx='431.75' cy='146.87' r='3.56pt' style='stroke-width: 0.71; stroke: #A6A6A6; fill: #A6A6A6;' clip-path='url(#cpMTE1LjcyNnw0OTguNTIxfDQ3My41MzF8MjQuMzY3Mw==)' />
<circle cx='182.49' cy='351.03' r='3.56pt' style='stroke-width: 0.71; stroke: #A6A6A6; fill: #A6A6A6;' clip-path='url(#cpMTE1LjcyNnw0OTguNTIxfDQ3My41MzF8MjQuMzY3Mw==)' />
<line x1='392.60' y1='146.87' x2='473.05' y2='146.87' style='stroke-width: 3.20; stroke: #A6A6A6; stroke-linecap: butt;' clip-path='url(#cpMTE1LjcyNnw0OTguNTIxfDQ3My41MzF8MjQuMzY3Mw==)' />
<line x1='141.20' y1='351.03' x2='221.65' y2='351.03' style='stroke-width: 3.20; stroke: #A6A6A6; stroke-linecap: butt;' clip-path='url(#cpMTE1LjcyNnw0OTguNTIxfDQ3My41MzF8MjQuMzY3Mw==)' />
<line x1='385.07' y1='146.87' x2='481.12' y2='146.87' style='stroke-width: 1.07; stroke: #A6A6A6; stroke-linecap: butt;' clip-path='url(#cpMTE1LjcyNnw0OTguNTIxfDQ3My41MzF8MjQuMzY3Mw==)' />
<line x1='133.13' y1='351.03' x2='229.18' y2='351.03' style='stroke-width: 1.07; stroke: #A6A6A6; stroke-linecap: butt;' clip-path='url(#cpMTE1LjcyNnw0OTguNTIxfDQ3My41MzF8MjQuMzY3Mw==)' />
<line x1='307.12' y1='473.53' x2='307.12' y2='24.37' style='stroke-width: 1.07; stroke-dasharray: 1.42,4.27; stroke-linecap: butt;' clip-path='url(#cpMTE1LjcyNnw0OTguNTIxfDQ3My41MzF8MjQuMzY3Mw==)' />
<rect x='115.73' y='24.37' width='382.79' height='449.16' style='stroke-width: 1.07; stroke: #333333;' clip-path='url(#cpMTE1LjcyNnw0OTguNTIxfDQ3My41MzF8MjQuMzY3Mw==)' />
<defs>
  <clipPath id='cpMHw1MDR8NTA0fDA='>
    <rect x='0.00' y='0.00' width='504.00' height='504.00' />
  </clipPath>
</defs>
<g clip-path='url(#cpMHw1MDR8NTA0fDA=)'><text x='23.84' y='354.31' style='font-size: 8.80px; fill: #4D4D4D; font-family: DejaVu Sans;' textLength='86.95px' lengthAdjust='spacingAndGlyphs'>P(S1|fi,no numeral)</text></g>
<g clip-path='url(#cpMHw1MDR8NTA0fDA=)'><text x='19.15' y='150.15' style='font-size: 8.80px; fill: #4D4D4D; font-family: DejaVu Sans;' textLength='91.65px' lengthAdjust='spacingAndGlyphs'>P(S1|fi,has numeral)</text></g>
<polyline points='112.99,351.03 115.73,351.03 ' style='stroke-width: 1.07; stroke: #333333; stroke-linecap: butt;' clip-path='url(#cpMHw1MDR8NTA0fDA=)' />
<polyline points='112.99,146.87 115.73,146.87 ' style='stroke-width: 1.07; stroke: #333333; stroke-linecap: butt;' clip-path='url(#cpMHw1MDR8NTA0fDA=)' />
<polyline points='151.88,476.27 151.88,473.53 ' style='stroke-width: 1.07; stroke: #333333; stroke-linecap: butt;' clip-path='url(#cpMHw1MDR8NTA0fDA=)' />
<polyline points='229.50,476.27 229.50,473.53 ' style='stroke-width: 1.07; stroke: #333333; stroke-linecap: butt;' clip-path='url(#cpMHw1MDR8NTA0fDA=)' />
<polyline points='307.12,476.27 307.12,473.53 ' style='stroke-width: 1.07; stroke: #333333; stroke-linecap: butt;' clip-path='url(#cpMHw1MDR8NTA0fDA=)' />
<polyline points='384.74,476.27 384.74,473.53 ' style='stroke-width: 1.07; stroke: #333333; stroke-linecap: butt;' clip-path='url(#cpMHw1MDR8NTA0fDA=)' />
<polyline points='462.37,476.27 462.37,473.53 ' style='stroke-width: 1.07; stroke: #333333; stroke-linecap: butt;' clip-path='url(#cpMHw1MDR8NTA0fDA=)' />
<g clip-path='url(#cpMHw1MDR8NTA0fDA=)'><text x='143.10' y='485.03' style='font-size: 8.80px; fill: #4D4D4D; font-family: DejaVu Sans;' textLength='17.56px' lengthAdjust='spacingAndGlyphs'>-0.2</text></g>
<g clip-path='url(#cpMHw1MDR8NTA0fDA=)'><text x='220.72' y='485.03' style='font-size: 8.80px; fill: #4D4D4D; font-family: DejaVu Sans;' textLength='17.56px' lengthAdjust='spacingAndGlyphs'>-0.1</text></g>
<g clip-path='url(#cpMHw1MDR8NTA0fDA=)'><text x='299.97' y='485.03' style='font-size: 8.80px; fill: #4D4D4D; font-family: DejaVu Sans;' textLength='14.31px' lengthAdjust='spacingAndGlyphs'>0.0</text></g>
<g clip-path='url(#cpMHw1MDR8NTA0fDA=)'><text x='377.59' y='485.03' style='font-size: 8.80px; fill: #4D4D4D; font-family: DejaVu Sans;' textLength='14.31px' lengthAdjust='spacingAndGlyphs'>0.1</text></g>
<g clip-path='url(#cpMHw1MDR8NTA0fDA=)'><text x='455.21' y='485.03' style='font-size: 8.80px; fill: #4D4D4D; font-family: DejaVu Sans;' textLength='14.31px' lengthAdjust='spacingAndGlyphs'>0.2</text></g>
<g clip-path='url(#cpMHw1MDR8NTA0fDA=)'><text x='295.44' y='498.52' style='font-size: 11.00px; font-family: DejaVu Sans;' textLength='23.38px' lengthAdjust='spacingAndGlyphs'>HPD</text></g>
<g clip-path='url(#cpMHw1MDR8NTA0fDA=)'><text transform='translate(13.50,277.81) rotate(-90)' style='font-size: 11.00px; font-family: DejaVu Sans;' textLength='57.72px' lengthAdjust='spacingAndGlyphs'>Parameter</text></g>
<g clip-path='url(#cpMHw1MDR8NTA0fDA=)'><text x='115.73' y='14.96' style='font-size: 13.20px; font-family: DejaVu Sans;' textLength='190.31px' lengthAdjust='spacingAndGlyphs'>isnumeric_interaction_S1.svg</text></g>
</svg>
