<?xml version='1.0' encoding='UTF-8' ?>
<svg xmlns='http://www.w3.org/2000/svg' xmlns:xlink='http://www.w3.org/1999/xlink' viewBox='0 0 504.00 504.00'>
<defs>
  <style type='text/css'><![CDATA[
    line, polyline, path, rect, circle {
      fill: none;
      stroke: #000000;
      stroke-linecap: round;
      stroke-linejoin: round;
      stroke-miterlimit: 10.00;
    }
  ]]></style>
</defs>
<rect width='100%' height='100%' style='stroke: none; fill: #FFFFFF;'/>
<rect x='0.00' y='0.00' width='504.00' height='504.00' style='stroke-width: 1.07; stroke: #FFFFFF; fill: #FFFFFF;' />
<defs>
  <clipPath id='cpMTA3LjE5Nnw0OTguNTIxfDQ3My41MzF8MjQuMzY3Mw=='>
    <rect x='107.20' y='24.37' width='391.32' height='449.16' />
  </clipPath>
</defs>
<rect x='107.20' y='24.37' width='391.32' height='449.16' style='stroke-width: 1.07; stroke: none; fill: #FFFFFF;' clip-path='url(#cpMTA3LjE5Nnw0OTguNTIxfDQ3My41MzF8MjQuMzY3Mw==)' />
<polyline points='147.23,473.53 147.23,24.37 ' style='stroke-width: 0.53; stroke: #EBEBEB; stroke-linecap: butt;' clip-path='url(#cpMTA3LjE5Nnw0OTguNTIxfDQ3My41MzF8MjQuMzY3Mw==)' />
<polyline points='250.98,473.53 250.98,24.37 ' style='stroke-width: 0.53; stroke: #EBEBEB; stroke-linecap: butt;' clip-path='url(#cpMTA3LjE5Nnw0OTguNTIxfDQ3My41MzF8MjQuMzY3Mw==)' />
<polyline points='354.74,473.53 354.74,24.37 ' style='stroke-width: 0.53; stroke: #EBEBEB; stroke-linecap: butt;' clip-path='url(#cpMTA3LjE5Nnw0OTguNTIxfDQ3My41MzF8MjQuMzY3Mw==)' />
<polyline points='458.49,473.53 458.49,24.37 ' style='stroke-width: 0.53; stroke: #EBEBEB; stroke-linecap: butt;' clip-path='url(#cpMTA3LjE5Nnw0OTguNTIxfDQ3My41MzF8MjQuMzY3Mw==)' />
<polyline points='107.20,351.03 498.52,351.03 ' style='stroke-width: 1.07; stroke: #EBEBEB; stroke-linecap: butt;' clip-path='url(#cpMTA3LjE5Nnw0OTguNTIxfDQ3My41MzF8MjQuMzY3Mw==)' />
<polyline points='107.20,146.87 498.52,146.87 ' style='stroke-width: 1.07; stroke: #EBEBEB; stroke-linecap: butt;' clip-path='url(#cpMTA3LjE5Nnw0OTguNTIxfDQ3My41MzF8MjQuMzY3Mw==)' />
<polyline points='199.10,473.53 199.10,24.37 ' style='stroke-width: 1.07; stroke: #EBEBEB; stroke-linecap: butt;' clip-path='url(#cpMTA3LjE5Nnw0OTguNTIxfDQ3My41MzF8MjQuMzY3Mw==)' />
<polyline points='302.86,473.53 302.86,24.37 ' style='stroke-width: 1.07; stroke: #EBEBEB; stroke-linecap: butt;' clip-path='url(#cpMTA3LjE5Nnw0OTguNTIxfDQ3My41MzF8MjQuMzY3Mw==)' />
<polyline points='406.61,473.53 406.61,24.37 ' style='stroke-width: 1.07; stroke: #EBEBEB; stroke-linecap: butt;' clip-path='url(#cpMTA3LjE5Nnw0OTguNTIxfDQ3My41MzF8MjQuMzY3Mw==)' />
<circle cx='447.35' cy='146.87' r='3.56pt' style='stroke-width: 0.71; stroke: #A6A6A6; fill: #A6A6A6;' clip-path='url(#cpMTA3LjE5Nnw0OTguNTIxfDQ3My41MzF8MjQuMzY3Mw==)' />
<circle cx='158.37' cy='351.03' r='3.56pt' style='stroke-width: 0.71; stroke: #A6A6A6; fill: #A6A6A6;' clip-path='url(#cpMTA3LjE5Nnw0OTguNTIxfDQ3My41MzF8MjQuMzY3Mw==)' />
<line x1='419.10' y1='146.87' x2='475.33' y2='146.87' style='stroke-width: 3.20; stroke: #A6A6A6; stroke-linecap: butt;' clip-path='url(#cpMTA3LjE5Nnw0OTguNTIxfDQ3My41MzF8MjQuMzY3Mw==)' />
<line x1='130.39' y1='351.03' x2='186.62' y2='351.03' style='stroke-width: 3.20; stroke: #A6A6A6; stroke-linecap: butt;' clip-path='url(#cpMTA3LjE5Nnw0OTguNTIxfDQ3My41MzF8MjQuMzY3Mw==)' />
<line x1='413.71' y1='146.87' x2='480.73' y2='146.87' style='stroke-width: 1.07; stroke: #A6A6A6; stroke-linecap: butt;' clip-path='url(#cpMTA3LjE5Nnw0OTguNTIxfDQ3My41MzF8MjQuMzY3Mw==)' />
<line x1='124.98' y1='351.03' x2='192.00' y2='351.03' style='stroke-width: 1.07; stroke: #A6A6A6; stroke-linecap: butt;' clip-path='url(#cpMTA3LjE5Nnw0OTguNTIxfDQ3My41MzF8MjQuMzY3Mw==)' />
<line x1='302.86' y1='473.53' x2='302.86' y2='24.37' style='stroke-width: 1.07; stroke-dasharray: 1.42,4.27; stroke-linecap: butt;' clip-path='url(#cpMTA3LjE5Nnw0OTguNTIxfDQ3My41MzF8MjQuMzY3Mw==)' />
<rect x='107.20' y='24.37' width='391.32' height='449.16' style='stroke-width: 1.07; stroke: #333333;' clip-path='url(#cpMTA3LjE5Nnw0OTguNTIxfDQ3My41MzF8MjQuMzY3Mw==)' />
<defs>
  <clipPath id='cpMHw1MDR8NTA0fDA='>
    <rect x='0.00' y='0.00' width='504.00' height='504.00' />
  </clipPath>
</defs>
<g clip-path='url(#cpMHw1MDR8NTA0fDA=)'><text x='23.84' y='354.31' style='font-size: 8.80px; fill: #4D4D4D; font-family: DejaVu Sans;' textLength='78.42px' lengthAdjust='spacingAndGlyphs'>P(S1|no numeral)</text></g>
<g clip-path='url(#cpMHw1MDR8NTA0fDA=)'><text x='19.15' y='150.15' style='font-size: 8.80px; fill: #4D4D4D; font-family: DejaVu Sans;' textLength='83.12px' lengthAdjust='spacingAndGlyphs'>P(S1|has numeral)</text></g>
<polyline points='104.46,351.03 107.20,351.03 ' style='stroke-width: 1.07; stroke: #333333; stroke-linecap: butt;' clip-path='url(#cpMHw1MDR8NTA0fDA=)' />
<polyline points='104.46,146.87 107.20,146.87 ' style='stroke-width: 1.07; stroke: #333333; stroke-linecap: butt;' clip-path='url(#cpMHw1MDR8NTA0fDA=)' />
<polyline points='199.10,476.27 199.10,473.53 ' style='stroke-width: 1.07; stroke: #333333; stroke-linecap: butt;' clip-path='url(#cpMHw1MDR8NTA0fDA=)' />
<polyline points='302.86,476.27 302.86,473.53 ' style='stroke-width: 1.07; stroke: #333333; stroke-linecap: butt;' clip-path='url(#cpMHw1MDR8NTA0fDA=)' />
<polyline points='406.61,476.27 406.61,473.53 ' style='stroke-width: 1.07; stroke: #333333; stroke-linecap: butt;' clip-path='url(#cpMHw1MDR8NTA0fDA=)' />
<g clip-path='url(#cpMHw1MDR8NTA0fDA=)'><text x='190.32' y='485.03' style='font-size: 8.80px; fill: #4D4D4D; font-family: DejaVu Sans;' textLength='17.56px' lengthAdjust='spacingAndGlyphs'>-0.2</text></g>
<g clip-path='url(#cpMHw1MDR8NTA0fDA=)'><text x='295.70' y='485.03' style='font-size: 8.80px; fill: #4D4D4D; font-family: DejaVu Sans;' textLength='14.31px' lengthAdjust='spacingAndGlyphs'>0.0</text></g>
<g clip-path='url(#cpMHw1MDR8NTA0fDA=)'><text x='399.46' y='485.03' style='font-size: 8.80px; fill: #4D4D4D; font-family: DejaVu Sans;' textLength='14.31px' lengthAdjust='spacingAndGlyphs'>0.2</text></g>
<g clip-path='url(#cpMHw1MDR8NTA0fDA=)'><text x='291.17' y='498.52' style='font-size: 11.00px; font-family: DejaVu Sans;' textLength='23.38px' lengthAdjust='spacingAndGlyphs'>HPD</text></g>
<g clip-path='url(#cpMHw1MDR8NTA0fDA=)'><text transform='translate(13.50,277.81) rotate(-90)' style='font-size: 11.00px; font-family: DejaVu Sans;' textLength='57.72px' lengthAdjust='spacingAndGlyphs'>Parameter</text></g>
<g clip-path='url(#cpMHw1MDR8NTA0fDA=)'><text x='107.20' y='14.96' style='font-size: 13.20px; font-family: DejaVu Sans;' textLength='169.41px' lengthAdjust='spacingAndGlyphs'>isnumeric_general_S1.svg</text></g>
</svg>
