<?xml version='1.0' encoding='UTF-8' ?>
<svg xmlns='http://www.w3.org/2000/svg' xmlns:xlink='http://www.w3.org/1999/xlink' viewBox='0 0 504.00 504.00'>
<defs>
  <style type='text/css'><![CDATA[
    line, polyline, path, rect, circle {
      fill: none;
      stroke: #000000;
      stroke-linecap: round;
      stroke-linejoin: round;
      stroke-miterlimit: 10.00;
    }
  ]]></style>
</defs>
<rect width='100%' height='100%' style='stroke: none; fill: #FFFFFF;'/>
<rect x='0.00' y='0.00' width='504.00' height='504.00' style='stroke-width: 1.07; stroke: #FFFFFF; fill: #FFFFFF;' />
<defs>
  <clipPath id='cpMTE1LjcyNnw0OTguNTIxfDQ3My41MzF8MjQuMzY3Mw=='>
    <rect x='115.73' y='24.37' width='382.79' height='449.16' />
  </clipPath>
</defs>
<rect x='115.73' y='24.37' width='382.79' height='449.16' style='stroke-width: 1.07; stroke: none; fill: #FFFFFF;' clip-path='url(#cpMTE1LjcyNnw0OTguNTIxfDQ3My41MzF8MjQuMzY3Mw==)' />
<polyline points='123.65,473.53 123.65,24.37 ' style='stroke-width: 0.53; stroke: #EBEBEB; stroke-linecap: butt;' clip-path='url(#cpMTE1LjcyNnw0OTguNTIxfDQ3My41MzF8MjQuMzY3Mw==)' />
<polyline points='197.04,473.53 197.04,24.37 ' style='stroke-width: 0.53; stroke: #EBEBEB; stroke-linecap: butt;' clip-path='url(#cpMTE1LjcyNnw0OTguNTIxfDQ3My41MzF8MjQuMzY3Mw==)' />
<polyline points='270.43,473.53 270.43,24.37 ' style='stroke-width: 0.53; stroke: #EBEBEB; stroke-linecap: butt;' clip-path='url(#cpMTE1LjcyNnw0OTguNTIxfDQ3My41MzF8MjQuMzY3Mw==)' />
<polyline points='343.82,473.53 343.82,24.37 ' style='stroke-width: 0.53; stroke: #EBEBEB; stroke-linecap: butt;' clip-path='url(#cpMTE1LjcyNnw0OTguNTIxfDQ3My41MzF8MjQuMzY3Mw==)' />
<polyline points='417.21,473.53 417.21,24.37 ' style='stroke-width: 0.53; stroke: #EBEBEB; stroke-linecap: butt;' clip-path='url(#cpMTE1LjcyNnw0OTguNTIxfDQ3My41MzF8MjQuMzY3Mw==)' />
<polyline points='490.60,473.53 490.60,24.37 ' style='stroke-width: 0.53; stroke: #EBEBEB; stroke-linecap: butt;' clip-path='url(#cpMTE1LjcyNnw0OTguNTIxfDQ3My41MzF8MjQuMzY3Mw==)' />
<polyline points='115.73,351.03 498.52,351.03 ' style='stroke-width: 1.07; stroke: #EBEBEB; stroke-linecap: butt;' clip-path='url(#cpMTE1LjcyNnw0OTguNTIxfDQ3My41MzF8MjQuMzY3Mw==)' />
<polyline points='115.73,146.87 498.52,146.87 ' style='stroke-width: 1.07; stroke: #EBEBEB; stroke-linecap: butt;' clip-path='url(#cpMTE1LjcyNnw0OTguNTIxfDQ3My41MzF8MjQuMzY3Mw==)' />
<polyline points='160.34,473.53 160.34,24.37 ' style='stroke-width: 1.07; stroke: #EBEBEB; stroke-linecap: butt;' clip-path='url(#cpMTE1LjcyNnw0OTguNTIxfDQ3My41MzF8MjQuMzY3Mw==)' />
<polyline points='233.73,473.53 233.73,24.37 ' style='stroke-width: 1.07; stroke: #EBEBEB; stroke-linecap: butt;' clip-path='url(#cpMTE1LjcyNnw0OTguNTIxfDQ3My41MzF8MjQuMzY3Mw==)' />
<polyline points='307.12,473.53 307.12,24.37 ' style='stroke-width: 1.07; stroke: #EBEBEB; stroke-linecap: butt;' clip-path='url(#cpMTE1LjcyNnw0OTguNTIxfDQ3My41MzF8MjQuMzY3Mw==)' />
<polyline points='380.51,473.53 380.51,24.37 ' style='stroke-width: 1.07; stroke: #EBEBEB; stroke-linecap: butt;' clip-path='url(#cpMTE1LjcyNnw0OTguNTIxfDQ3My41MzF8MjQuMzY3Mw==)' />
<polyline points='453.90,473.53 453.90,24.37 ' style='stroke-width: 1.07; stroke: #EBEBEB; stroke-linecap: butt;' clip-path='url(#cpMTE1LjcyNnw0OTguNTIxfDQ3My41MzF8MjQuMzY3Mw==)' />
<circle cx='142.63' cy='351.03' r='3.56pt' style='stroke-width: 0.71; stroke: #A6A6A6; fill: #A6A6A6;' clip-path='url(#cpMTE1LjcyNnw0OTguNTIxfDQ3My41MzF8MjQuMzY3Mw==)' />
<circle cx='471.62' cy='146.87' r='3.56pt' style='stroke-width: 0.71; stroke: #A6A6A6; fill: #A6A6A6;' clip-path='url(#cpMTE1LjcyNnw0OTguNTIxfDQ3My41MzF8MjQuMzY3Mw==)' />
<line x1='134.67' y1='351.03' x2='150.61' y2='351.03' style='stroke-width: 3.20; stroke: #A6A6A6; stroke-linecap: butt;' clip-path='url(#cpMTE1LjcyNnw0OTguNTIxfDQ3My41MzF8MjQuMzY3Mw==)' />
<line x1='463.64' y1='146.87' x2='479.58' y2='146.87' style='stroke-width: 3.20; stroke: #A6A6A6; stroke-linecap: butt;' clip-path='url(#cpMTE1LjcyNnw0OTguNTIxfDQ3My41MzF8MjQuMzY3Mw==)' />
<line x1='133.13' y1='351.03' x2='152.14' y2='351.03' style='stroke-width: 1.07; stroke: #A6A6A6; stroke-linecap: butt;' clip-path='url(#cpMTE1LjcyNnw0OTguNTIxfDQ3My41MzF8MjQuMzY3Mw==)' />
<line x1='462.11' y1='146.87' x2='481.12' y2='146.87' style='stroke-width: 1.07; stroke: #A6A6A6; stroke-linecap: butt;' clip-path='url(#cpMTE1LjcyNnw0OTguNTIxfDQ3My41MzF8MjQuMzY3Mw==)' />
<line x1='307.12' y1='473.53' x2='307.12' y2='24.37' style='stroke-width: 1.07; stroke-dasharray: 1.42,4.27; stroke-linecap: butt;' clip-path='url(#cpMTE1LjcyNnw0OTguNTIxfDQ3My41MzF8MjQuMzY3Mw==)' />
<rect x='115.73' y='24.37' width='382.79' height='449.16' style='stroke-width: 1.07; stroke: #333333;' clip-path='url(#cpMTE1LjcyNnw0OTguNTIxfDQ3My41MzF8MjQuMzY3Mw==)' />
<defs>
  <clipPath id='cpMHw1MDR8NTA0fDA='>
    <rect x='0.00' y='0.00' width='504.00' height='504.00' />
  </clipPath>
</defs>
<g clip-path='url(#cpMHw1MDR8NTA0fDA=)'><text x='19.15' y='354.31' style='font-size: 8.80px; fill: #4D4D4D; font-family: DejaVu Sans;' textLength='91.65px' lengthAdjust='spacingAndGlyphs'>P(S4|fi,has numeral)</text></g>
<g clip-path='url(#cpMHw1MDR8NTA0fDA=)'><text x='23.84' y='150.15' style='font-size: 8.80px; fill: #4D4D4D; font-family: DejaVu Sans;' textLength='86.95px' lengthAdjust='spacingAndGlyphs'>P(S4|fi,no numeral)</text></g>
<polyline points='112.99,351.03 115.73,351.03 ' style='stroke-width: 1.07; stroke: #333333; stroke-linecap: butt;' clip-path='url(#cpMHw1MDR8NTA0fDA=)' />
<polyline points='112.99,146.87 115.73,146.87 ' style='stroke-width: 1.07; stroke: #333333; stroke-linecap: butt;' clip-path='url(#cpMHw1MDR8NTA0fDA=)' />
<polyline points='160.34,476.27 160.34,473.53 ' style='stroke-width: 1.07; stroke: #333333; stroke-linecap: butt;' clip-path='url(#cpMHw1MDR8NTA0fDA=)' />
<polyline points='233.73,476.27 233.73,473.53 ' style='stroke-width: 1.07; stroke: #333333; stroke-linecap: butt;' clip-path='url(#cpMHw1MDR8NTA0fDA=)' />
<polyline points='307.12,476.27 307.12,473.53 ' style='stroke-width: 1.07; stroke: #333333; stroke-linecap: butt;' clip-path='url(#cpMHw1MDR8NTA0fDA=)' />
<polyline points='380.51,476.27 380.51,473.53 ' style='stroke-width: 1.07; stroke: #333333; stroke-linecap: butt;' clip-path='url(#cpMHw1MDR8NTA0fDA=)' />
<polyline points='453.90,476.27 453.90,473.53 ' style='stroke-width: 1.07; stroke: #333333; stroke-linecap: butt;' clip-path='url(#cpMHw1MDR8NTA0fDA=)' />
<g clip-path='url(#cpMHw1MDR8NTA0fDA=)'><text x='151.56' y='485.03' style='font-size: 8.80px; fill: #4D4D4D; font-family: DejaVu Sans;' textLength='17.56px' lengthAdjust='spacingAndGlyphs'>-0.2</text></g>
<g clip-path='url(#cpMHw1MDR8NTA0fDA=)'><text x='224.95' y='485.03' style='font-size: 8.80px; fill: #4D4D4D; font-family: DejaVu Sans;' textLength='17.56px' lengthAdjust='spacingAndGlyphs'>-0.1</text></g>
<g clip-path='url(#cpMHw1MDR8NTA0fDA=)'><text x='299.97' y='485.03' style='font-size: 8.80px; fill: #4D4D4D; font-family: DejaVu Sans;' textLength='14.31px' lengthAdjust='spacingAndGlyphs'>0.0</text></g>
<g clip-path='url(#cpMHw1MDR8NTA0fDA=)'><text x='373.36' y='485.03' style='font-size: 8.80px; fill: #4D4D4D; font-family: DejaVu Sans;' textLength='14.31px' lengthAdjust='spacingAndGlyphs'>0.1</text></g>
<g clip-path='url(#cpMHw1MDR8NTA0fDA=)'><text x='446.75' y='485.03' style='font-size: 8.80px; fill: #4D4D4D; font-family: DejaVu Sans;' textLength='14.31px' lengthAdjust='spacingAndGlyphs'>0.2</text></g>
<g clip-path='url(#cpMHw1MDR8NTA0fDA=)'><text x='295.44' y='498.52' style='font-size: 11.00px; font-family: DejaVu Sans;' textLength='23.38px' lengthAdjust='spacingAndGlyphs'>HPD</text></g>
<g clip-path='url(#cpMHw1MDR8NTA0fDA=)'><text transform='translate(13.50,277.81) rotate(-90)' style='font-size: 11.00px; font-family: DejaVu Sans;' textLength='57.72px' lengthAdjust='spacingAndGlyphs'>Parameter</text></g>
<g clip-path='url(#cpMHw1MDR8NTA0fDA=)'><text x='115.73' y='14.96' style='font-size: 13.20px; font-family: DejaVu Sans;' textLength='190.31px' lengthAdjust='spacingAndGlyphs'>isnumeric_interaction_S4.svg</text></g>
</svg>
